<?xml version="1.0" encoding="UTF-8"?><svg xmlns="http://www.w3.org/2000/svg" xmlns:xlink="http://www.w3.org/1999/xlink" fill-opacity="1" color-rendering="auto" color-interpolation="auto" stroke="black" text-rendering="auto" stroke-linecap="square" width="576" stroke-miterlimit="10" stroke-opacity="1" shape-rendering="auto" fill="black" stroke-dasharray="none" font-weight="normal" stroke-width="1" height="234" font-family="'Dialog'" font-style="normal" stroke-linejoin="miter" font-size="12" stroke-dashoffset="0" image-rendering="auto">
  <!--Generated by ySVG-->
  <defs id="genericDefs"/>
  <g>
    <g transform="matrix(1,0,0,1,14.7615,-0.0381)">
      <g clip-path="url(#clipPath3)">
        <svg xmlns:svg="http://www.w3.org/2000/svg" opacity="1" margin-top="0" indent="0" writing-mode="lr-tb" stop-color="rgb(0, 0, 0)" shape-rendering="auto" glyph-orientation-horizontal="0deg" color-profile="auto" lighting-color="rgb(255, 255, 255)" color="rgb(0, 0, 0)" xml:id="svg1.svg2108" font-weight="400" alignment-baseline="auto" font-style="normal" version="1.0" color-interpolation-filters="linearrgb" text-anchor="start" stroke-linecap="butt" color-interpolation="srgb" font-variant="normal" margin-left="0" solid-color="rgb(0, 0, 0)" word-spacing="normal" fill-opacity="1" text-rendering="auto" clip-path="none" text-decoration="none" letter-spacing="normal" glyph-orientation-vertical="auto" margin-right="0" display="inline" font-size-adjust="none" margin-bottom="0" fill="rgb(0, 0, 0)" overflow="visible" font-stretch="normal" stroke-dasharray="none" id="svg1.svg2108" stroke-miterlimit="4" stop-opacity="1" color-rendering="auto" font-size="12" pointer-events="visiblepainted" mask="none" direction="ltr" baseline-shift="baseline" enable-background="accumulate" fill-rule="nonzero" image-rendering="auto" solid-opacity="1" stroke-dashoffset="0" width="128" marker-end="none" clip="auto" cursor="auto" stroke="none" filter="none" visibility="visible" kerning="auto" stroke-width="1" font-family="&quot;Arial&quot;,&quot;Helvetica&quot;,sans-serif" flood-opacity="1" clip-rule="nonzero" src="none" height="128" text-align="inherit" line-height="normal" unicode-bidi="normal" stroke-linejoin="miter" stroke-opacity="1" flood-color="rgb(0, 0, 0)" dominant-baseline="auto" marker-start="none" marker-mid="none">
  <defs id="svg1.defs3" xml:id="svg1.defs3">
    <linearGradient xml:id="svg1.linearGradient5048" id="svg1.linearGradient5048">
      <stop id="svg1.stop5050" offset="0" style="stop-color:#000000;stop-opacity:0" xml:id="svg1.stop5050"/>
      <stop id="svg1.stop5056" offset="0.5" style="stop-color:#000000;stop-opacity:1" xml:id="svg1.stop5056"/>
      <stop id="svg1.stop5052" offset="1" style="stop-color:#000000;stop-opacity:0" xml:id="svg1.stop5052"/>
    </linearGradient>
    <linearGradient xml:id="svg1.linearGradient5060" id="svg1.linearGradient5060">
      <stop id="svg1.stop5062" offset="0" style="stop-color:#000000;stop-opacity:1" xml:id="svg1.stop5062"/>
      <stop id="svg1.stop5064" offset="1" style="stop-color:#000000;stop-opacity:0" xml:id="svg1.stop5064"/>
    </linearGradient>
    <linearGradient xml:id="svg1.linearGradient4254" id="svg1.linearGradient4254">
      <stop id="svg1.stop4256" offset="0" style="stop-color:#616161;stop-opacity:1" xml:id="svg1.stop4256"/>
      <stop id="svg1.stop4258" offset="1" style="stop-color:#a0a0a0;stop-opacity:1" xml:id="svg1.stop4258"/>
    </linearGradient>
    <linearGradient xml:id="svg1.linearGradient4228" id="svg1.linearGradient4228">
      <stop id="svg1.stop4230" offset="0" style="stop-color:#bbbbbb;stop-opacity:1" xml:id="svg1.stop4230"/>
      <stop id="svg1.stop4232" offset="1" style="stop-color:#9f9f9f;stop-opacity:1" xml:id="svg1.stop4232"/>
    </linearGradient>
    <linearGradient xml:id="svg1.linearGradient4244" id="svg1.linearGradient4244">
      <stop id="svg1.stop4246" offset="0" style="stop-color:#e4e4e4;stop-opacity:1" xml:id="svg1.stop4246"/>
      <stop id="svg1.stop4248" offset="1" style="stop-color:#d3d3d3;stop-opacity:1" xml:id="svg1.stop4248"/>
    </linearGradient>
    <linearGradient gradientTransform="matrix(2.774389,0,0,1.969706,-1892.179,-872.8854)" x1="302.85715" xlink:href="#svg1.linearGradient5048" gradientUnits="userSpaceOnUse" x2="302.85715" y1="366.64789" y2="609.50507" id="svg1.linearGradient6715" xml:id="svg1.linearGradient6715"/>
    <radialGradient gradientTransform="matrix(2.774389,0,0,1.969706,-1891.633,-872.8854)" xlink:href="#svg1.linearGradient5060" gradientUnits="userSpaceOnUse" r="117.14286" cx="605.71429" cy="486.64789" id="svg1.radialGradient6717" fx="605.71429" xml:id="svg1.radialGradient6717" fy="486.64789"/>
    <radialGradient gradientTransform="matrix(-2.774389,0,0,1.969706,112.7623,-872.8854)" xlink:href="#svg1.linearGradient5060" gradientUnits="userSpaceOnUse" r="117.14286" cx="605.71429" cy="486.64789" id="svg1.radialGradient6719" fx="605.71429" xml:id="svg1.radialGradient6719" fy="486.64789"/>
    <linearGradient gradientTransform="matrix(2.5646484,0,0,1.8284958,3.0046676,26.372688)" x1="12.378357" xlink:href="#svg1.linearGradient4254" gradientUnits="userSpaceOnUse" x2="44.0961" y1="4.433136" y2="47.620636" id="svg1.linearGradient18985" xml:id="svg1.linearGradient18985"/>
    <radialGradient gradientTransform="matrix(3.1758355,1.2018439,-1.7549782,1.798161,-0.646306,22.849447)" xlink:href="#svg1.linearGradient4244" gradientUnits="userSpaceOnUse" r="20.935818" cx="15.571491" cy="2.958519" id="svg1.radialGradient19000" fx="15.571491" xml:id="svg1.radialGradient19000" fy="2.958519"/>
    <linearGradient gradientTransform="matrix(2.5551094,0,0,2.0216842,3.2352686,19.024775)" x1="7.6046205" xlink:href="#svg1.linearGradient4228" gradientUnits="userSpaceOnUse" x2="36.183067" y1="28.481176" y2="40.943935" id="svg1.linearGradient19003" xml:id="svg1.linearGradient19003"/>
  <clipPath clipPathUnits="userSpaceOnUse" id="clipPath1">
              <path d="M0 0 L576 0 L576 234 L0 234 L0 0 Z"/>
            </clipPath>
            <clipPath clipPathUnits="userSpaceOnUse" id="clipPath2">
              <path d="M250 243 L826 243 L826 477 L250 477 L250 243 Z"/>
            </clipPath>
            <clipPath clipPathUnits="userSpaceOnUse" id="clipPath3">
              <path d="M-14.7615 0.0381 L561.2385 0.0381 L561.2385 234.0381 L-14.7615 234.0381 L-14.7615 0.0381 Z"/>
            </clipPath>
            <clipPath clipPathUnits="userSpaceOnUse" id="clipPath4">
              <path d="M-433.1377 0.0381 L142.8624 0.0381 L142.8624 234.0381 L-433.1377 234.0381 L-433.1377 0.0381 Z"/>
            </clipPath>
            <clipPath clipPathUnits="userSpaceOnUse" id="clipPath5">
              <path d="M-223.532 -17.3307 L352.468 -17.3307 L352.468 216.6693 L-223.532 216.6693 L-223.532 -17.3307 Z"/>
            </clipPath>
          </defs>
  <g style="display:inline" id="svg1.layer1" xml:id="svg1.layer1"/>
  <g style="display:inline" id="svg1.layer2" xml:id="svg1.layer2">
    <path d="m 11.599653,73.603805 1.953642,-1.39944 96.096875,0.126356 8.84682,0.641477 0,21.103415 c 0,2.275545 -1.55099,3.726634 -4.0674,3.726634 l -98.583754,0 c -2.551187,0 -4.246183,-1.095855 -4.246183,-3.284558 l 0,-20.913884 z" id="svg1.path4170" style="fill:url(#svg1.linearGradient19003);fill-opacity:1;fill-rule:evenodd;stroke:none" xml:id="svg1.path4170"/>
    <path d="m 31.848533,40.136783 c -1.607726,0 -2.652747,0.5431 -3.295834,1.579165 -2e-6,0 -16.639968,32.01098 -16.639968,32.01098 0,0 -0.643091,1.256888 -0.643091,3.333784 0,0 0,18.060858 0,18.060858 0,2.026216 1.692063,3.04135 4.260475,3.041347 l 99.196705,0 c 2.53341,0 4.0997,-1.344146 4.0997,-3.450759 l 0,-18.060858 c 0,0 0.27258,-1.441922 -0.24116,-2.456472 L 101.30231,42.008387 c -0.47467,-0.958083 -1.638354,-1.849321 -2.893911,-1.871604 l -66.559866,0 z" id="svg1.path4196" style="fill:none;stroke:#535353;stroke-width:4.38836098;stroke-linecap:round;stroke-linejoin:round;stroke-miterlimit:4;stroke-opacity:1;stroke-dasharray:none" xml:id="svg1.path4196"/>
    <g id="svg1.g6707" xml:id="svg1.g6707" transform="matrix(0.06267019,0,0,0.05331895,119.9796,90.615598)">
      <rect x="-1559.2523" y="-150.69685" width="1339.6335" style="opacity:0.40206185;fill:url(#svg1.linearGradient6715);fill-opacity:1;fill-rule:nonzero;stroke:none;stroke-width:1;marker:none;visibility:visible;display:inline;overflow:visible" height="478.35718" id="svg1.rect6709" xml:id="svg1.rect6709"/>
      <path d="m -219.61876,-150.68038 c 0,0 0,478.33079 0,478.33079 142.874166,0.90045 345.40022,-107.16966 345.40014,-239.196175 0,-132.026537 -159.436816,-239.134595 -345.40014,-239.134615 z" id="svg1.path6711" style="opacity:0.40206185;fill:url(#svg1.radialGradient6717);fill-opacity:1;fill-rule:nonzero;stroke:none;stroke-width:1;marker:none;visibility:visible;display:inline;overflow:visible" xml:id="svg1.path6711"/>
      <path d="m -1559.2523,-150.68038 c 0,0 0,478.33079 0,478.33079 -142.8742,0.90045 -345.4002,-107.16966 -345.4002,-239.196175 0,-132.026537 159.4368,-239.134595 345.4002,-239.134615 z" id="svg1.path6713" style="opacity:0.40206185;fill:url(#svg1.radialGradient6719);fill-opacity:1;fill-rule:nonzero;stroke:none;stroke-width:1;marker:none;visibility:visible;display:inline;overflow:visible" xml:id="svg1.path6713"/>
    </g>
    <path d="m 13.929746,70.190357 c -1.763629,2.251306 -0.0015,3.678965 2.557261,3.678965 0,0 96.294153,0 96.294153,0 2.76301,-0.03661 4.55603,-1.555781 3.52725,-3.294598 L 99.73029,44.113647 c -0.4556,-0.787045 -1.616653,-1.519181 -2.8218,-1.537485 l -63.843371,0 c -1.543177,0 -2.557263,0.466738 -3.174531,1.317844 0,0 -15.960842,26.296351 -15.960842,26.296351 z" id="svg1.path3093" style="fill:url(#svg1.radialGradient19000);fill-opacity:1;fill-rule:evenodd;stroke:none" xml:id="svg1.path3093"/>
    <path d="m 8.5736699,25.593554 a 1.3700195,1.016466 0 1 1 -2.7400389,0 1.3700195,1.016466 0 1 1 2.7400389,0 z" id="svg1.path4224" style="fill:#ffffff;fill-opacity:0.45762706;fill-rule:evenodd;stroke:none;stroke-width:2;marker:none;visibility:visible;display:inline;overflow:visible" transform="matrix(2.5551094,0,0,2.5551094,7.4611107,-1.3091229)" xml:id="svg1.path4224"/>
    <path d="m 8.5736699,25.593554 a 1.3700195,1.016466 0 1 1 -2.7400389,0 1.3700195,1.016466 0 1 1 2.7400389,0 z" id="svg1.path4226" style="fill:#ffffff;fill-opacity:0.45762706;fill-rule:evenodd;stroke:none;stroke-width:2;marker:none;visibility:visible;display:inline;overflow:visible" transform="matrix(2.5551094,0,0,2.5551094,86.024797,-1.5349638)" xml:id="svg1.path4226"/>
    <path d="m 32.863624,41.760801 c -1.543128,0 -2.54616,0.510806 -3.163406,1.485264 -3e-6,0 -16.452257,30.336065 -16.452257,30.336065 0,0 -0.617252,1.182149 -0.617252,3.135546 0,0 0,16.986901 0,16.986901 0,2.477136 1.138848,2.974778 4.089291,2.974778 l 96.65365,0 c 3.39336,0 3.93499,-0.578531 3.93499,-3.359846 l 0,-16.986901 c 0,0 0.26161,-1.356179 -0.23147,-2.310402 L 100.16795,43.292552 c -0.455592,-0.901113 -1.412229,-1.510794 -2.61734,-1.531751 l -64.686986,0 z" id="svg1.path4252" style="fill:none;stroke:url(#svg1.linearGradient18985);stroke-width:2.16551399;stroke-linecap:round;stroke-linejoin:round;stroke-miterlimit:4;stroke-opacity:1;stroke-dasharray:none" xml:id="svg1.path4252"/>
    <path d="m 106.7172,76.544153 0,12.829038" id="svg1.path4282" style="fill:none;stroke:#ffffff;stroke-width:2.55511069px;stroke-linecap:square;stroke-linejoin:miter;stroke-opacity:0.42372885" xml:id="svg1.path4282"/>
    <path d="m 101.60698,76.696889 0,12.829039" id="svg1.path4284" style="fill:none;stroke:#ffffff;stroke-width:2.55511069px;stroke-linecap:square;stroke-linejoin:miter;stroke-opacity:0.42372885" xml:id="svg1.path4284"/>
    <path d="m 96.496762,76.696889 0,12.829039" id="svg1.path4286" style="fill:none;stroke:#ffffff;stroke-width:2.55511069px;stroke-linecap:square;stroke-linejoin:miter;stroke-opacity:0.42372885" xml:id="svg1.path4286"/>
    <path d="m 91.386543,76.696889 0,12.829039" id="svg1.path4288" style="fill:none;stroke:#ffffff;stroke-width:2.55511069px;stroke-linecap:square;stroke-linejoin:miter;stroke-opacity:0.42372885" xml:id="svg1.path4288"/>
    <path d="m 86.276324,76.696889 0,12.829039" id="svg1.path4290" style="fill:none;stroke:#ffffff;stroke-width:2.55511069px;stroke-linecap:square;stroke-linejoin:miter;stroke-opacity:0.42372885" xml:id="svg1.path4290"/>
    <path d="m 81.166105,76.696889 0,12.829039" id="svg1.path4292" style="fill:none;stroke:#ffffff;stroke-width:2.55511069px;stroke-linecap:square;stroke-linejoin:miter;stroke-opacity:0.42372885" xml:id="svg1.path4292"/>
    <path d="m 104.16209,76.67165 0,12.829038" id="svg1.path4294" style="opacity:0.09714284;fill:none;stroke:#000000;stroke-width:2.55511069px;stroke-linecap:square;stroke-linejoin:miter;stroke-opacity:1" xml:id="svg1.path4294"/>
    <path d="m 99.051871,76.824387 0,12.829038" id="svg1.path4296" style="opacity:0.09714284;fill:none;stroke:#000000;stroke-width:2.55511069px;stroke-linecap:square;stroke-linejoin:miter;stroke-opacity:1" xml:id="svg1.path4296"/>
    <path d="m 93.941652,76.824387 0,12.829038" id="svg1.path4298" style="opacity:0.09714284;fill:none;stroke:#000000;stroke-width:2.55511069px;stroke-linecap:square;stroke-linejoin:miter;stroke-opacity:1" xml:id="svg1.path4298"/>
    <path d="m 88.831434,76.824387 0,12.829038" id="svg1.path4300" style="opacity:0.09714284;fill:none;stroke:#000000;stroke-width:2.55511069px;stroke-linecap:square;stroke-linejoin:miter;stroke-opacity:1" xml:id="svg1.path4300"/>
    <path d="m 83.721215,76.824387 0,12.829038" id="svg1.path4302" style="opacity:0.09714284;fill:none;stroke:#000000;stroke-width:2.55511069px;stroke-linecap:square;stroke-linejoin:miter;stroke-opacity:1" xml:id="svg1.path4302"/>
    <g id="svg1.g22031" style="display:inline" transform="translate(67.840656,8.0673369)" xml:id="svg1.g22031">
      <rect x="-4.6224236" y="69.945557" width="5.0423279" style="fill:#2e3436;fill-opacity:1;fill-rule:nonzero;stroke:#363333;stroke-width:3.76234961;stroke-miterlimit:4;stroke-opacity:1;stroke-dasharray:none" height="3.5414283" id="svg1.rect22033" xml:id="svg1.rect22033"/>
      <rect x="-4.6224236" y="69.945557" width="5.0423279" style="fill:#2e3436;fill-opacity:1;fill-rule:nonzero;stroke:#363333;stroke-width:3.76234961;stroke-miterlimit:4;stroke-opacity:1;stroke-dasharray:none" height="3.5414283" id="svg1.rect22035" xml:id="svg1.rect22035"/>
      <rect x="-5.6926928" y="68.87529" width="7.1828671" style="fill:#2e3436;fill-opacity:1;fill-rule:nonzero;stroke:#ffffff;stroke-width:0.42145053;stroke-miterlimit:4;stroke-opacity:1;stroke-dasharray:none" height="5.6819677" id="svg1.rect22037" xml:id="svg1.rect22037"/>
      <rect x="-4.6224232" y="78.200493" width="5.0423279" style="fill:#2e3436;fill-opacity:1;fill-rule:nonzero;stroke:#363333;stroke-width:3.76234961;stroke-miterlimit:4;stroke-opacity:1;stroke-dasharray:none;display:inline" height="3.5414283" id="svg1.rect22039" xml:id="svg1.rect22039"/>
      <rect x="-4.6224232" y="78.200493" width="5.0423279" style="fill:#2e3436;fill-opacity:1;fill-rule:nonzero;stroke:#363333;stroke-width:3.76234961;stroke-miterlimit:4;stroke-opacity:1;stroke-dasharray:none;display:inline" height="3.5414283" id="svg1.rect22041" xml:id="svg1.rect22041"/>
      <rect x="-5.6926923" y="77.130234" width="7.1828671" style="fill:#2e3436;fill-opacity:1;fill-rule:nonzero;stroke:#ffffff;stroke-width:0.42145053;stroke-miterlimit:4;stroke-opacity:1;stroke-dasharray:none;display:inline" height="5.6819677" id="svg1.rect22043" xml:id="svg1.rect22043"/>
    </g>
    <path d="m -25.215112,86.725266 a 2.2513492,2.2513492 0 1 1 -4.502698,0 2.2513492,2.2513492 0 1 1 4.502698,0 z" id="svg1.path22045" style="fill:#4e9a06;fill-opacity:1;fill-rule:nonzero;stroke:#ffffff;stroke-width:0.40000001;stroke-miterlimit:4;stroke-opacity:1;stroke-dasharray:none" transform="translate(102.88665,-8.405037)" xml:id="svg1.path22045"/>
    <path d="m -25.215112,86.725266 a 2.2513492,2.2513492 0 1 1 -4.502698,0 2.2513492,2.2513492 0 1 1 4.502698,0 z" id="svg1.path22049" style="fill:#a40000;fill-opacity:1;fill-rule:nonzero;stroke:#ffffff;stroke-width:0.40000001;stroke-miterlimit:4;stroke-opacity:1;stroke-dasharray:none;display:inline" transform="translate(102.88665,-3.4520692)" xml:id="svg1.path22049"/>
    <path d="m -25.215112,86.725266 a 2.2513492,2.2513492 0 1 1 -4.502698,0 2.2513492,2.2513492 0 1 1 4.502698,0 z" id="svg1.path22051" style="fill:#4e9a06;fill-opacity:1;fill-rule:nonzero;stroke:#ffffff;stroke-width:0.40000001;stroke-miterlimit:4;stroke-opacity:1;stroke-dasharray:none;display:inline" transform="translate(102.88665,1.6509881)" xml:id="svg1.path22051"/>
  </g>
</svg>
      </g>
    </g>
    <g stroke-miterlimit="1.45" font-family="sans-serif" transform="matrix(1,0,0,1,-250,-243)" stroke-linecap="butt">
      <text x="304.6719" xml:space="preserve" y="272.0744" clip-path="url(#clipPath2)" stroke="none">rtrex1-1</text>
    </g>
    <g transform="matrix(1,0,0,1,433.1377,-0.0381)">
      <g clip-path="url(#clipPath4)">
        <svg xmlns:svg="http://www.w3.org/2000/svg" opacity="1" margin-top="0" indent="0" writing-mode="lr-tb" stop-color="rgb(0, 0, 0)" shape-rendering="auto" glyph-orientation-horizontal="0deg" color-profile="auto" lighting-color="rgb(255, 255, 255)" color="rgb(0, 0, 0)" xml:id="svg2.svg2108" font-weight="400" alignment-baseline="auto" font-style="normal" version="1.0" color-interpolation-filters="linearrgb" text-anchor="start" stroke-linecap="butt" color-interpolation="srgb" font-variant="normal" margin-left="0" solid-color="rgb(0, 0, 0)" word-spacing="normal" fill-opacity="1" text-rendering="auto" clip-path="none" text-decoration="none" letter-spacing="normal" glyph-orientation-vertical="auto" margin-right="0" display="inline" font-size-adjust="none" margin-bottom="0" fill="rgb(0, 0, 0)" overflow="visible" font-stretch="normal" stroke-dasharray="none" id="svg2.svg2108" stroke-miterlimit="4" stop-opacity="1" color-rendering="auto" font-size="12" pointer-events="visiblepainted" mask="none" direction="ltr" baseline-shift="baseline" enable-background="accumulate" fill-rule="nonzero" image-rendering="auto" solid-opacity="1" stroke-dashoffset="0" width="128" marker-end="none" clip="auto" cursor="auto" stroke="none" filter="none" visibility="visible" kerning="auto" stroke-width="1" font-family="&quot;Arial&quot;,&quot;Helvetica&quot;,sans-serif" flood-opacity="1" clip-rule="nonzero" src="none" height="128" text-align="inherit" line-height="normal" unicode-bidi="normal" stroke-linejoin="miter" stroke-opacity="1" flood-color="rgb(0, 0, 0)" dominant-baseline="auto" marker-start="none" marker-mid="none">
  <defs id="svg2.defs3" xml:id="svg2.defs3">
    <linearGradient xml:id="svg2.linearGradient5048" id="svg2.linearGradient5048">
      <stop id="svg2.stop5050" offset="0" style="stop-color:#000000;stop-opacity:0" xml:id="svg2.stop5050"/>
      <stop id="svg2.stop5056" offset="0.5" style="stop-color:#000000;stop-opacity:1" xml:id="svg2.stop5056"/>
      <stop id="svg2.stop5052" offset="1" style="stop-color:#000000;stop-opacity:0" xml:id="svg2.stop5052"/>
    </linearGradient>
    <linearGradient xml:id="svg2.linearGradient5060" id="svg2.linearGradient5060">
      <stop id="svg2.stop5062" offset="0" style="stop-color:#000000;stop-opacity:1" xml:id="svg2.stop5062"/>
      <stop id="svg2.stop5064" offset="1" style="stop-color:#000000;stop-opacity:0" xml:id="svg2.stop5064"/>
    </linearGradient>
    <linearGradient xml:id="svg2.linearGradient4254" id="svg2.linearGradient4254">
      <stop id="svg2.stop4256" offset="0" style="stop-color:#616161;stop-opacity:1" xml:id="svg2.stop4256"/>
      <stop id="svg2.stop4258" offset="1" style="stop-color:#a0a0a0;stop-opacity:1" xml:id="svg2.stop4258"/>
    </linearGradient>
    <linearGradient xml:id="svg2.linearGradient4228" id="svg2.linearGradient4228">
      <stop id="svg2.stop4230" offset="0" style="stop-color:#bbbbbb;stop-opacity:1" xml:id="svg2.stop4230"/>
      <stop id="svg2.stop4232" offset="1" style="stop-color:#9f9f9f;stop-opacity:1" xml:id="svg2.stop4232"/>
    </linearGradient>
    <linearGradient xml:id="svg2.linearGradient4244" id="svg2.linearGradient4244">
      <stop id="svg2.stop4246" offset="0" style="stop-color:#e4e4e4;stop-opacity:1" xml:id="svg2.stop4246"/>
      <stop id="svg2.stop4248" offset="1" style="stop-color:#d3d3d3;stop-opacity:1" xml:id="svg2.stop4248"/>
    </linearGradient>
    <linearGradient gradientTransform="matrix(2.774389,0,0,1.969706,-1892.179,-872.8854)" x1="302.85715" xlink:href="#svg2.linearGradient5048" gradientUnits="userSpaceOnUse" x2="302.85715" y1="366.64789" y2="609.50507" id="svg2.linearGradient6715" xml:id="svg2.linearGradient6715"/>
    <radialGradient gradientTransform="matrix(2.774389,0,0,1.969706,-1891.633,-872.8854)" xlink:href="#svg2.linearGradient5060" gradientUnits="userSpaceOnUse" r="117.14286" cx="605.71429" cy="486.64789" id="svg2.radialGradient6717" fx="605.71429" xml:id="svg2.radialGradient6717" fy="486.64789"/>
    <radialGradient gradientTransform="matrix(-2.774389,0,0,1.969706,112.7623,-872.8854)" xlink:href="#svg2.linearGradient5060" gradientUnits="userSpaceOnUse" r="117.14286" cx="605.71429" cy="486.64789" id="svg2.radialGradient6719" fx="605.71429" xml:id="svg2.radialGradient6719" fy="486.64789"/>
    <linearGradient gradientTransform="matrix(2.5646484,0,0,1.8284958,3.0046676,26.372688)" x1="12.378357" xlink:href="#svg2.linearGradient4254" gradientUnits="userSpaceOnUse" x2="44.0961" y1="4.433136" y2="47.620636" id="svg2.linearGradient18985" xml:id="svg2.linearGradient18985"/>
    <radialGradient gradientTransform="matrix(3.1758355,1.2018439,-1.7549782,1.798161,-0.646306,22.849447)" xlink:href="#svg2.linearGradient4244" gradientUnits="userSpaceOnUse" r="20.935818" cx="15.571491" cy="2.958519" id="svg2.radialGradient19000" fx="15.571491" xml:id="svg2.radialGradient19000" fy="2.958519"/>
    <linearGradient gradientTransform="matrix(2.5551094,0,0,2.0216842,3.2352686,19.024775)" x1="7.6046205" xlink:href="#svg2.linearGradient4228" gradientUnits="userSpaceOnUse" x2="36.183067" y1="28.481176" y2="40.943935" id="svg2.linearGradient19003" xml:id="svg2.linearGradient19003"/>
  </defs>
  <g style="display:inline" id="svg2.layer1" xml:id="svg2.layer1"/>
  <g style="display:inline" id="svg2.layer2" xml:id="svg2.layer2">
    <path d="m 11.599653,73.603805 1.953642,-1.39944 96.096875,0.126356 8.84682,0.641477 0,21.103415 c 0,2.275545 -1.55099,3.726634 -4.0674,3.726634 l -98.583754,0 c -2.551187,0 -4.246183,-1.095855 -4.246183,-3.284558 l 0,-20.913884 z" id="svg2.path4170" style="fill:url(#svg2.linearGradient19003);fill-opacity:1;fill-rule:evenodd;stroke:none" xml:id="svg2.path4170"/>
    <path d="m 31.848533,40.136783 c -1.607726,0 -2.652747,0.5431 -3.295834,1.579165 -2e-6,0 -16.639968,32.01098 -16.639968,32.01098 0,0 -0.643091,1.256888 -0.643091,3.333784 0,0 0,18.060858 0,18.060858 0,2.026216 1.692063,3.04135 4.260475,3.041347 l 99.196705,0 c 2.53341,0 4.0997,-1.344146 4.0997,-3.450759 l 0,-18.060858 c 0,0 0.27258,-1.441922 -0.24116,-2.456472 L 101.30231,42.008387 c -0.47467,-0.958083 -1.638354,-1.849321 -2.893911,-1.871604 l -66.559866,0 z" id="svg2.path4196" style="fill:none;stroke:#535353;stroke-width:4.38836098;stroke-linecap:round;stroke-linejoin:round;stroke-miterlimit:4;stroke-opacity:1;stroke-dasharray:none" xml:id="svg2.path4196"/>
    <g id="svg2.g6707" xml:id="svg2.g6707" transform="matrix(0.06267019,0,0,0.05331895,119.9796,90.615598)">
      <rect x="-1559.2523" y="-150.69685" width="1339.6335" style="opacity:0.40206185;fill:url(#svg2.linearGradient6715);fill-opacity:1;fill-rule:nonzero;stroke:none;stroke-width:1;marker:none;visibility:visible;display:inline;overflow:visible" height="478.35718" id="svg2.rect6709" xml:id="svg2.rect6709"/>
      <path d="m -219.61876,-150.68038 c 0,0 0,478.33079 0,478.33079 142.874166,0.90045 345.40022,-107.16966 345.40014,-239.196175 0,-132.026537 -159.436816,-239.134595 -345.40014,-239.134615 z" id="svg2.path6711" style="opacity:0.40206185;fill:url(#svg2.radialGradient6717);fill-opacity:1;fill-rule:nonzero;stroke:none;stroke-width:1;marker:none;visibility:visible;display:inline;overflow:visible" xml:id="svg2.path6711"/>
      <path d="m -1559.2523,-150.68038 c 0,0 0,478.33079 0,478.33079 -142.8742,0.90045 -345.4002,-107.16966 -345.4002,-239.196175 0,-132.026537 159.4368,-239.134595 345.4002,-239.134615 z" id="svg2.path6713" style="opacity:0.40206185;fill:url(#svg2.radialGradient6719);fill-opacity:1;fill-rule:nonzero;stroke:none;stroke-width:1;marker:none;visibility:visible;display:inline;overflow:visible" xml:id="svg2.path6713"/>
    </g>
    <path d="m 13.929746,70.190357 c -1.763629,2.251306 -0.0015,3.678965 2.557261,3.678965 0,0 96.294153,0 96.294153,0 2.76301,-0.03661 4.55603,-1.555781 3.52725,-3.294598 L 99.73029,44.113647 c -0.4556,-0.787045 -1.616653,-1.519181 -2.8218,-1.537485 l -63.843371,0 c -1.543177,0 -2.557263,0.466738 -3.174531,1.317844 0,0 -15.960842,26.296351 -15.960842,26.296351 z" id="svg2.path3093" style="fill:url(#svg2.radialGradient19000);fill-opacity:1;fill-rule:evenodd;stroke:none" xml:id="svg2.path3093"/>
    <path d="m 8.5736699,25.593554 a 1.3700195,1.016466 0 1 1 -2.7400389,0 1.3700195,1.016466 0 1 1 2.7400389,0 z" id="svg2.path4224" style="fill:#ffffff;fill-opacity:0.45762706;fill-rule:evenodd;stroke:none;stroke-width:2;marker:none;visibility:visible;display:inline;overflow:visible" transform="matrix(2.5551094,0,0,2.5551094,7.4611107,-1.3091229)" xml:id="svg2.path4224"/>
    <path d="m 8.5736699,25.593554 a 1.3700195,1.016466 0 1 1 -2.7400389,0 1.3700195,1.016466 0 1 1 2.7400389,0 z" id="svg2.path4226" style="fill:#ffffff;fill-opacity:0.45762706;fill-rule:evenodd;stroke:none;stroke-width:2;marker:none;visibility:visible;display:inline;overflow:visible" transform="matrix(2.5551094,0,0,2.5551094,86.024797,-1.5349638)" xml:id="svg2.path4226"/>
    <path d="m 32.863624,41.760801 c -1.543128,0 -2.54616,0.510806 -3.163406,1.485264 -3e-6,0 -16.452257,30.336065 -16.452257,30.336065 0,0 -0.617252,1.182149 -0.617252,3.135546 0,0 0,16.986901 0,16.986901 0,2.477136 1.138848,2.974778 4.089291,2.974778 l 96.65365,0 c 3.39336,0 3.93499,-0.578531 3.93499,-3.359846 l 0,-16.986901 c 0,0 0.26161,-1.356179 -0.23147,-2.310402 L 100.16795,43.292552 c -0.455592,-0.901113 -1.412229,-1.510794 -2.61734,-1.531751 l -64.686986,0 z" id="svg2.path4252" style="fill:none;stroke:url(#svg2.linearGradient18985);stroke-width:2.16551399;stroke-linecap:round;stroke-linejoin:round;stroke-miterlimit:4;stroke-opacity:1;stroke-dasharray:none" xml:id="svg2.path4252"/>
    <path d="m 106.7172,76.544153 0,12.829038" id="svg2.path4282" style="fill:none;stroke:#ffffff;stroke-width:2.55511069px;stroke-linecap:square;stroke-linejoin:miter;stroke-opacity:0.42372885" xml:id="svg2.path4282"/>
    <path d="m 101.60698,76.696889 0,12.829039" id="svg2.path4284" style="fill:none;stroke:#ffffff;stroke-width:2.55511069px;stroke-linecap:square;stroke-linejoin:miter;stroke-opacity:0.42372885" xml:id="svg2.path4284"/>
    <path d="m 96.496762,76.696889 0,12.829039" id="svg2.path4286" style="fill:none;stroke:#ffffff;stroke-width:2.55511069px;stroke-linecap:square;stroke-linejoin:miter;stroke-opacity:0.42372885" xml:id="svg2.path4286"/>
    <path d="m 91.386543,76.696889 0,12.829039" id="svg2.path4288" style="fill:none;stroke:#ffffff;stroke-width:2.55511069px;stroke-linecap:square;stroke-linejoin:miter;stroke-opacity:0.42372885" xml:id="svg2.path4288"/>
    <path d="m 86.276324,76.696889 0,12.829039" id="svg2.path4290" style="fill:none;stroke:#ffffff;stroke-width:2.55511069px;stroke-linecap:square;stroke-linejoin:miter;stroke-opacity:0.42372885" xml:id="svg2.path4290"/>
    <path d="m 81.166105,76.696889 0,12.829039" id="svg2.path4292" style="fill:none;stroke:#ffffff;stroke-width:2.55511069px;stroke-linecap:square;stroke-linejoin:miter;stroke-opacity:0.42372885" xml:id="svg2.path4292"/>
    <path d="m 104.16209,76.67165 0,12.829038" id="svg2.path4294" style="opacity:0.09714284;fill:none;stroke:#000000;stroke-width:2.55511069px;stroke-linecap:square;stroke-linejoin:miter;stroke-opacity:1" xml:id="svg2.path4294"/>
    <path d="m 99.051871,76.824387 0,12.829038" id="svg2.path4296" style="opacity:0.09714284;fill:none;stroke:#000000;stroke-width:2.55511069px;stroke-linecap:square;stroke-linejoin:miter;stroke-opacity:1" xml:id="svg2.path4296"/>
    <path d="m 93.941652,76.824387 0,12.829038" id="svg2.path4298" style="opacity:0.09714284;fill:none;stroke:#000000;stroke-width:2.55511069px;stroke-linecap:square;stroke-linejoin:miter;stroke-opacity:1" xml:id="svg2.path4298"/>
    <path d="m 88.831434,76.824387 0,12.829038" id="svg2.path4300" style="opacity:0.09714284;fill:none;stroke:#000000;stroke-width:2.55511069px;stroke-linecap:square;stroke-linejoin:miter;stroke-opacity:1" xml:id="svg2.path4300"/>
    <path d="m 83.721215,76.824387 0,12.829038" id="svg2.path4302" style="opacity:0.09714284;fill:none;stroke:#000000;stroke-width:2.55511069px;stroke-linecap:square;stroke-linejoin:miter;stroke-opacity:1" xml:id="svg2.path4302"/>
    <g id="svg2.g22031" style="display:inline" transform="translate(67.840656,8.0673369)" xml:id="svg2.g22031">
      <rect x="-4.6224236" y="69.945557" width="5.0423279" style="fill:#2e3436;fill-opacity:1;fill-rule:nonzero;stroke:#363333;stroke-width:3.76234961;stroke-miterlimit:4;stroke-opacity:1;stroke-dasharray:none" height="3.5414283" id="svg2.rect22033" xml:id="svg2.rect22033"/>
      <rect x="-4.6224236" y="69.945557" width="5.0423279" style="fill:#2e3436;fill-opacity:1;fill-rule:nonzero;stroke:#363333;stroke-width:3.76234961;stroke-miterlimit:4;stroke-opacity:1;stroke-dasharray:none" height="3.5414283" id="svg2.rect22035" xml:id="svg2.rect22035"/>
      <rect x="-5.6926928" y="68.87529" width="7.1828671" style="fill:#2e3436;fill-opacity:1;fill-rule:nonzero;stroke:#ffffff;stroke-width:0.42145053;stroke-miterlimit:4;stroke-opacity:1;stroke-dasharray:none" height="5.6819677" id="svg2.rect22037" xml:id="svg2.rect22037"/>
      <rect x="-4.6224232" y="78.200493" width="5.0423279" style="fill:#2e3436;fill-opacity:1;fill-rule:nonzero;stroke:#363333;stroke-width:3.76234961;stroke-miterlimit:4;stroke-opacity:1;stroke-dasharray:none;display:inline" height="3.5414283" id="svg2.rect22039" xml:id="svg2.rect22039"/>
      <rect x="-4.6224232" y="78.200493" width="5.0423279" style="fill:#2e3436;fill-opacity:1;fill-rule:nonzero;stroke:#363333;stroke-width:3.76234961;stroke-miterlimit:4;stroke-opacity:1;stroke-dasharray:none;display:inline" height="3.5414283" id="svg2.rect22041" xml:id="svg2.rect22041"/>
      <rect x="-5.6926923" y="77.130234" width="7.1828671" style="fill:#2e3436;fill-opacity:1;fill-rule:nonzero;stroke:#ffffff;stroke-width:0.42145053;stroke-miterlimit:4;stroke-opacity:1;stroke-dasharray:none;display:inline" height="5.6819677" id="svg2.rect22043" xml:id="svg2.rect22043"/>
    </g>
    <path d="m -25.215112,86.725266 a 2.2513492,2.2513492 0 1 1 -4.502698,0 2.2513492,2.2513492 0 1 1 4.502698,0 z" id="svg2.path22045" style="fill:#4e9a06;fill-opacity:1;fill-rule:nonzero;stroke:#ffffff;stroke-width:0.40000001;stroke-miterlimit:4;stroke-opacity:1;stroke-dasharray:none" transform="translate(102.88665,-8.405037)" xml:id="svg2.path22045"/>
    <path d="m -25.215112,86.725266 a 2.2513492,2.2513492 0 1 1 -4.502698,0 2.2513492,2.2513492 0 1 1 4.502698,0 z" id="svg2.path22049" style="fill:#a40000;fill-opacity:1;fill-rule:nonzero;stroke:#ffffff;stroke-width:0.40000001;stroke-miterlimit:4;stroke-opacity:1;stroke-dasharray:none;display:inline" transform="translate(102.88665,-3.4520692)" xml:id="svg2.path22049"/>
    <path d="m -25.215112,86.725266 a 2.2513492,2.2513492 0 1 1 -4.502698,0 2.2513492,2.2513492 0 1 1 4.502698,0 z" id="svg2.path22051" style="fill:#4e9a06;fill-opacity:1;fill-rule:nonzero;stroke:#ffffff;stroke-width:0.40000001;stroke-miterlimit:4;stroke-opacity:1;stroke-dasharray:none;display:inline" transform="translate(102.88665,1.6509881)" xml:id="svg2.path22051"/>
  </g>
</svg>
      </g>
    </g>
    <g stroke-miterlimit="1.45" font-family="sans-serif" transform="matrix(1,0,0,1,-250,-243)" stroke-linecap="butt">
      <text x="723.048" xml:space="preserve" y="272.0744" clip-path="url(#clipPath2)" stroke="none">rtrex1-2</text>
    </g>
    <g transform="matrix(1,0,0,1,223.532,17.3307)">
      <g clip-path="url(#clipPath5)">
        <svg xmlns:svg="http://www.w3.org/2000/svg" opacity="1" margin-top="0" indent="0" writing-mode="lr-tb" stop-color="rgb(0, 0, 0)" shape-rendering="auto" glyph-orientation-horizontal="0deg" color-profile="auto" lighting-color="rgb(255, 255, 255)" color="rgb(0, 0, 0)" xml:id="svg3.svg2108" font-weight="400" alignment-baseline="auto" font-style="normal" version="1.0" color-interpolation-filters="linearrgb" text-anchor="start" stroke-linecap="butt" color-interpolation="srgb" font-variant="normal" margin-left="0" solid-color="rgb(0, 0, 0)" word-spacing="normal" fill-opacity="1" text-rendering="auto" clip-path="none" text-decoration="none" letter-spacing="normal" glyph-orientation-vertical="auto" margin-right="0" display="inline" font-size-adjust="none" margin-bottom="0" fill="rgb(0, 0, 0)" overflow="visible" font-stretch="normal" stroke-dasharray="none" id="svg3.svg2108" stroke-miterlimit="4" stop-opacity="1" color-rendering="auto" font-size="12" pointer-events="visiblepainted" mask="none" direction="ltr" baseline-shift="baseline" enable-background="accumulate" fill-rule="nonzero" image-rendering="auto" solid-opacity="1" stroke-dashoffset="0" width="128" marker-end="none" clip="auto" cursor="auto" stroke="none" filter="none" visibility="visible" kerning="auto" stroke-width="1" font-family="&quot;Arial&quot;,&quot;Helvetica&quot;,sans-serif" flood-opacity="1" clip-rule="nonzero" src="none" height="128" text-align="inherit" line-height="normal" unicode-bidi="normal" stroke-linejoin="miter" stroke-opacity="1" flood-color="rgb(0, 0, 0)" dominant-baseline="auto" marker-start="none" marker-mid="none">
  <defs id="svg3.defs3" xml:id="svg3.defs3">
    <linearGradient xml:id="svg3.linearGradient5123" id="svg3.linearGradient5123">
      <stop id="svg3.stop5125" offset="0" style="stop-color:#ffffff;stop-opacity:1" xml:id="svg3.stop5125"/>
      <stop id="svg3.stop5127" offset="1" style="stop-color:#ffffff;stop-opacity:0" xml:id="svg3.stop5127"/>
    </linearGradient>
    <linearGradient gradientTransform="translate(-34.00007,207.0001)" x1="271.0217" xlink:href="#svg3.linearGradient6470" gradientUnits="userSpaceOnUse" x2="285.02859" y1="-441.05182" y2="-431.96991" id="svg3.linearGradient13145" xml:id="svg3.linearGradient13145"/>
    <linearGradient xml:id="svg3.linearGradient6470" id="svg3.linearGradient6470">
      <stop id="svg3.stop6472" offset="0" style="stop-color:#ffffff;stop-opacity:1" xml:id="svg3.stop6472"/>
      <stop id="svg3.stop6474" offset="1" style="stop-color:#ffffff;stop-opacity:0" xml:id="svg3.stop6474"/>
    </linearGradient>
    <linearGradient x1="287.5173" gradientUnits="userSpaceOnUse" x2="289.67633" xlink:href="#svg3.linearGradient6497" y1="-439.75281" y2="-436.32199" id="svg3.linearGradient13147" xml:id="svg3.linearGradient13147"/>
    <linearGradient xml:id="svg3.linearGradient6497" id="svg3.linearGradient6497">
      <stop id="svg3.stop6499" offset="0" style="stop-color:#ffffff;stop-opacity:1" xml:id="svg3.stop6499"/>
      <stop id="svg3.stop6501" offset="1" style="stop-color:#ffffff;stop-opacity:0" xml:id="svg3.stop6501"/>
    </linearGradient>
    <linearGradient x1="286.51172" gradientUnits="userSpaceOnUse" x2="289.85379" xlink:href="#svg3.linearGradient6513" y1="-441.29074" y2="-436.14453" id="svg3.linearGradient13149" xml:id="svg3.linearGradient13149"/>
    <linearGradient xml:id="svg3.linearGradient6513" id="svg3.linearGradient6513">
      <stop id="svg3.stop6515" offset="0" style="stop-color:#ffffff;stop-opacity:1" xml:id="svg3.stop6515"/>
      <stop id="svg3.stop6517" offset="1" style="stop-color:#ffffff;stop-opacity:0" xml:id="svg3.stop6517"/>
    </linearGradient>
    <linearGradient x1="285.94086" gradientUnits="userSpaceOnUse" x2="289.39124" xlink:href="#svg3.linearGradient6538" y1="-439.939" y2="-436.4429" id="svg3.linearGradient13151" xml:id="svg3.linearGradient13151"/>
    <linearGradient xml:id="svg3.linearGradient6538" id="svg3.linearGradient6538">
      <stop id="svg3.stop6540" offset="0" style="stop-color:#ffffff;stop-opacity:1" xml:id="svg3.stop6540"/>
      <stop id="svg3.stop6542" offset="1" style="stop-color:#ffffff;stop-opacity:0" xml:id="svg3.stop6542"/>
    </linearGradient>
    <linearGradient gradientTransform="translate(-35.00007,207.0001)" x1="275.94193" xlink:href="#svg3.linearGradient6527" gradientUnits="userSpaceOnUse" x2="279.97546" y1="-437.10501" y2="-431.91833" id="svg3.linearGradient13153" xml:id="svg3.linearGradient13153"/>
    <linearGradient xml:id="svg3.linearGradient6527" id="svg3.linearGradient6527">
      <stop id="svg3.stop6530" offset="0" style="stop-color:#ffffff;stop-opacity:1" xml:id="svg3.stop6530"/>
      <stop id="svg3.stop6532" offset="1" style="stop-color:#ffffff;stop-opacity:0" xml:id="svg3.stop6532"/>
    </linearGradient>
    <linearGradient x1="286.66589" gradientUnits="userSpaceOnUse" x2="289.76562" xlink:href="#svg3.linearGradient6549" y1="-439.48358" y2="-436.70703" id="svg3.linearGradient13155" xml:id="svg3.linearGradient13155"/>
    <linearGradient xml:id="svg3.linearGradient6549" id="svg3.linearGradient6549">
      <stop id="svg3.stop6551" offset="0" style="stop-color:#ffffff;stop-opacity:1" xml:id="svg3.stop6551"/>
      <stop id="svg3.stop6553" offset="1" style="stop-color:#ffffff;stop-opacity:0" xml:id="svg3.stop6553"/>
    </linearGradient>
    <linearGradient x1="284.80219" gradientUnits="userSpaceOnUse" x2="288.89954" xlink:href="#svg3.linearGradient6538" y1="-441.23294" y2="-436.83109" id="svg3.linearGradient13157" xml:id="svg3.linearGradient13157"/>
    <linearGradient gradientTransform="translate(69,155)" x1="228.50261" xlink:href="#svg3.linearGradient8302" gradientUnits="userSpaceOnUse" x2="266.36395" y1="-392.30591" y2="-379.26862" id="svg3.linearGradient13495" xml:id="svg3.linearGradient13495"/>
    <linearGradient xml:id="svg3.linearGradient8302" id="svg3.linearGradient8302">
      <stop id="svg3.stop8304" offset="0" style="stop-color:#ffffff;stop-opacity:1" xml:id="svg3.stop8304"/>
      <stop id="svg3.stop8306" offset="1" style="stop-color:#ffffff;stop-opacity:0" xml:id="svg3.stop8306"/>
    </linearGradient>
    <linearGradient x1="240.07379" gradientUnits="userSpaceOnUse" x2="245.82706" xlink:href="#svg3.linearGradient8331" y1="-393.4072" y2="-388.55029" id="svg3.linearGradient13497" xml:id="svg3.linearGradient13497"/>
    <linearGradient xml:id="svg3.linearGradient8331" id="svg3.linearGradient8331">
      <stop id="svg3.stop8333" offset="0" style="stop-color:#ffffff;stop-opacity:1" xml:id="svg3.stop8333"/>
      <stop id="svg3.stop8335" offset="1" style="stop-color:#ffffff;stop-opacity:0" xml:id="svg3.stop8335"/>
    </linearGradient>
    <linearGradient x1="246.74042" gradientUnits="userSpaceOnUse" x2="252.69785" xlink:href="#svg3.linearGradient8381" y1="-391.31381" y2="-385.35165" id="svg3.linearGradient13499" xml:id="svg3.linearGradient13499"/>
    <linearGradient xml:id="svg3.linearGradient8381" id="svg3.linearGradient8381">
      <stop id="svg3.stop8383" offset="0" style="stop-color:#ffffff;stop-opacity:1" xml:id="svg3.stop8383"/>
      <stop id="svg3.stop8385" offset="1" style="stop-color:#ffffff;stop-opacity:0" xml:id="svg3.stop8385"/>
    </linearGradient>
    <linearGradient x1="230.87598" gradientUnits="userSpaceOnUse" x2="235.25652" xlink:href="#svg3.linearGradient8315" y1="-390.43951" y2="-386.95901" id="svg3.linearGradient13501" xml:id="svg3.linearGradient13501"/>
    <linearGradient xml:id="svg3.linearGradient8315" id="svg3.linearGradient8315">
      <stop id="svg3.stop8317" offset="0" style="stop-color:#ffffff;stop-opacity:1" xml:id="svg3.stop8317"/>
      <stop id="svg3.stop8319" offset="1" style="stop-color:#ffffff;stop-opacity:0" xml:id="svg3.stop8319"/>
    </linearGradient>
    <linearGradient x1="238.00478" gradientUnits="userSpaceOnUse" x2="245.65462" xlink:href="#svg3.linearGradient8397" y1="-388.47476" y2="-382.64539" id="svg3.linearGradient13503" xml:id="svg3.linearGradient13503"/>
    <linearGradient xml:id="svg3.linearGradient8397" id="svg3.linearGradient8397">
      <stop id="svg3.stop8400" offset="0" style="stop-color:#ffffff;stop-opacity:1" xml:id="svg3.stop8400"/>
      <stop id="svg3.stop8402" offset="1" style="stop-color:#ffffff;stop-opacity:0" xml:id="svg3.stop8402"/>
    </linearGradient>
    <radialGradient gradientTransform="matrix(0.930946,0,0,0.448244,234.76593,185.03806)" xlink:href="#svg3.linearGradient5123" gradientUnits="userSpaceOnUse" r="14.50138" cx="-229.75" cy="-343.95554" id="svg3.radialGradient9407" fx="-229.75" xml:id="svg3.radialGradient9407" fy="-343.95554"/>
    <linearGradient gradientTransform="translate(-34.00007,207.0001)" x1="271.0217" xlink:href="#svg3.linearGradient6470" gradientUnits="userSpaceOnUse" x2="285.02859" y1="-441.05182" y2="-431.96991" id="svg3.linearGradient9508" xml:id="svg3.linearGradient9508"/>
    <linearGradient x1="287.5173" gradientUnits="userSpaceOnUse" x2="289.67633" xlink:href="#svg3.linearGradient6497" y1="-439.75281" y2="-436.32199" id="svg3.linearGradient9510" xml:id="svg3.linearGradient9510"/>
    <linearGradient x1="286.51172" gradientUnits="userSpaceOnUse" x2="289.85379" xlink:href="#svg3.linearGradient6513" y1="-441.29074" y2="-436.14453" id="svg3.linearGradient9512" xml:id="svg3.linearGradient9512"/>
    <linearGradient x1="285.94086" gradientUnits="userSpaceOnUse" x2="289.39124" xlink:href="#svg3.linearGradient6538" y1="-439.939" y2="-436.4429" id="svg3.linearGradient9514" xml:id="svg3.linearGradient9514"/>
    <linearGradient gradientTransform="translate(-35.00007,207.0001)" x1="275.94193" xlink:href="#svg3.linearGradient6527" gradientUnits="userSpaceOnUse" x2="279.97546" y1="-437.10501" y2="-431.91833" id="svg3.linearGradient9516" xml:id="svg3.linearGradient9516"/>
    <linearGradient x1="286.66589" gradientUnits="userSpaceOnUse" x2="289.76562" xlink:href="#svg3.linearGradient6549" y1="-439.48358" y2="-436.70703" id="svg3.linearGradient9518" xml:id="svg3.linearGradient9518"/>
    <linearGradient x1="284.80219" gradientUnits="userSpaceOnUse" x2="288.89954" xlink:href="#svg3.linearGradient6538" y1="-441.23294" y2="-436.83109" id="svg3.linearGradient9520" xml:id="svg3.linearGradient9520"/>
    <radialGradient gradientTransform="matrix(0.930946,0,0,0.448244,250.20343,189.03756)" xlink:href="#svg3.linearGradient5123" gradientUnits="userSpaceOnUse" r="14.50138" cx="-229.75" cy="-343.95554" id="svg3.radialGradient9522" fx="-229.75" xml:id="svg3.radialGradient9522" fy="-343.95554"/>
  </defs>
  <g style="display:inline" id="svg3.layer1" xml:id="svg3.layer1"/>
  <g style="display:inline" id="svg3.layer2" xml:id="svg3.layer2">
    <g id="svg3.g12825" xml:id="svg3.g12825" transform="matrix(2.5313899,0,0,3.0201142,-712.99191,751.20922)">
      <path d="m 311.5,-242.99998 c -2.77242,0 -5.10823,1.57371 -6.40625,3.8125 -0.94436,-0.47504 -1.96519,-0.8125 -3.09375,-0.8125 -3.864,0 -7,3.136 -7,7 0,3.864 3.136,7 7,7 2.41967,0 4.43009,-1.31932 5.6875,-3.1875 1.1342,0.68962 2.38898,1.1875 3.8125,1.1875 0.91312,0 1.75295,-0.23202 2.5625,-0.53125 0.50994,0.86773 1.17912,1.57972 2,2.15625 -0.007,0.13038 -0.0625,0.24282 -0.0625,0.375 0,3.864 3.13599,7 7,7 3.864,0 7,-3.136 7,-7 0,-2.36969 -1.25898,-4.35834 -3.0625,-5.625 0.007,-0.13038 0.0625,-0.24282 0.0625,-0.375 0,-3.864 -3.13599,-7 -7,-7 -0.6227,0 -1.17519,0.22219 -1.75,0.375 -1.19453,-2.55884 -3.74134,-4.375 -6.75,-4.375 z" id="svg3.path12827" style="fill:#555753;fill-opacity:1;stroke:none" xml:id="svg3.path12827"/>
      <path d="m 311.5,-241.99998 c -2.78048,0 -5.13451,1.76185 -6.0625,4.21875 -0.98542,-0.70944 -2.13143,-1.21875 -3.4375,-1.21875 -3.312,0 -6,2.688 -6,6 0,3.312 2.688,6 6,6 2.42775,0 4.49324,-1.45558 5.4375,-3.53125 1.12076,0.91756 2.50214,1.53125 4.0625,1.53125 1.07454,0 2.04428,-0.31896 2.9375,-0.78125 0.3984,0.99976 1.10114,1.78632 1.9375,2.4375 -0.18001,0.59562 -0.375,1.18965 -0.375,1.84375 0,3.588 2.912,6.5 6.5,6.5 3.588,0 6.5,-2.912 6.5,-6.5 0,-2.36079 -1.33433,-4.33019 -3.21875,-5.46875 0.0626,-0.34723 0.21875,-0.66608 0.21875,-1.03125 0,-3.312 -2.688,-6 -6,-6 -0.85298,0 -1.6713,0.17868 -2.40625,0.5 -0.85377,-2.59388 -3.21524,-4.49999 -6.09375,-4.5 z" id="svg3.path12829" style="fill:url(#svg3.linearGradient13495);fill-opacity:1;stroke:none" xml:id="svg3.path12829"/>
      <path d="m 248.54804,-383.6666 c 0,3.72219 -3.01743,6.73961 -6.73962,6.73961 -3.72218,0 -6.73961,-3.01742 -6.73961,-6.73961 0,-3.72219 3.01743,-6.73962 6.73961,-6.73962 3.72219,0 6.73962,3.01743 6.73962,6.73962 z" id="svg3.path12831" style="fill:#888a85;fill-opacity:1;stroke:none" transform="matrix(0.964447,0,0,0.964447,89.28852,144.5262)" xml:id="svg3.path12831"/>
      <g id="svg3.g12833" xml:id="svg3.g12833">
        <path d="m 250.18322,-389.30136 c 0,3.4415 -2.78988,6.23138 -6.23138,6.23138 -3.4415,0 -6.23138,-2.78988 -6.23138,-6.23138 0,-3.4415 2.78988,-6.23138 6.23138,-6.23138 3.4415,0 6.23138,2.78988 6.23138,6.23138 l 0,0 z" id="svg3.path12835" style="fill:#888a85;fill-opacity:1;stroke:none" transform="matrix(0.88263,0,0,0.88263,96.18078,108.1091)" xml:id="svg3.path12835"/>
        <path d="m 250.18322,-389.30136 c 0,3.4415 -2.78988,6.23138 -6.23138,6.23138 -3.4415,0 -6.23138,-2.78988 -6.23138,-6.23138 0,-3.4415 2.78988,-6.23138 6.23138,-6.23138 3.4415,0 6.23138,2.78988 6.23138,6.23138 l 0,0 z" id="svg3.path12837" style="opacity:0.49444442;fill:url(#svg3.linearGradient13497);fill-opacity:1;stroke:none" transform="matrix(0.88263,0,0,0.88263,96.18078,108.1091)" xml:id="svg3.path12837"/>
      </g>
      <g id="svg3.g12839" xml:id="svg3.g12839">
        <path d="m 257.25429,-385.7879 c 0,3.33166 -2.70084,6.03251 -6.03251,6.03251 -3.33166,0 -6.0325,-2.70085 -6.0325,-6.03251 0,-3.33166 2.70084,-6.0325 6.0325,-6.0325 3.33167,0 6.03251,2.70084 6.03251,6.0325 z" id="svg3.path12841" style="fill:#888a85;fill-opacity:1;stroke:none" transform="matrix(0.911728,0,0,0.911728,90.45407,120.2336)" xml:id="svg3.path12841"/>
        <path d="m 257.25429,-385.7879 c 0,3.33166 -2.70084,6.03251 -6.03251,6.03251 -3.33166,0 -6.0325,-2.70085 -6.0325,-6.03251 0,-3.33166 2.70084,-6.0325 6.0325,-6.0325 3.33167,0 6.03251,2.70084 6.03251,6.0325 z" id="svg3.path12843" style="opacity:0.49444442;fill:url(#svg3.linearGradient13499);fill-opacity:1;stroke:none" transform="matrix(0.911728,0,0,0.911728,90.45407,120.2336)" xml:id="svg3.path12843"/>
      </g>
      <g id="svg3.g12845" xml:id="svg3.g12845">
        <path d="m 237.80885,-387.88715 c 0,2.41637 -1.95885,4.37522 -4.37522,4.37522 -2.41638,0 -4.37523,-1.95885 -4.37523,-4.37522 0,-2.41637 1.95885,-4.37523 4.37523,-4.37523 2.41637,0 4.37522,1.95886 4.37522,4.37523 z" id="svg3.path12847" style="fill:#888a85;fill-opacity:1;stroke:none" transform="matrix(1.142799,0,0,1.142799,35.23229,210.277)" xml:id="svg3.path12847"/>
        <path d="m 237.80885,-387.88715 c 0,2.41637 -1.95885,4.37522 -4.37522,4.37522 -2.41638,0 -4.37523,-1.95885 -4.37523,-4.37522 0,-2.41637 1.95885,-4.37523 4.37523,-4.37523 2.41637,0 4.37522,1.95886 4.37522,4.37523 z" id="svg3.path12849" style="opacity:0.49444442;fill:url(#svg3.linearGradient13501);fill-opacity:1;stroke:none" transform="matrix(1.142799,0,0,1.142799,35.23229,210.277)" xml:id="svg3.path12849"/>
      </g>
      <g id="svg3.g12851" xml:id="svg3.g12851">
        <path d="m 248.54804,-383.6666 c 0,3.72219 -3.01743,6.73961 -6.73962,6.73961 -3.72218,0 -6.73961,-3.01742 -6.73961,-6.73961 0,-3.72219 3.01743,-6.73962 6.73961,-6.73962 3.72219,0 6.73962,3.01743 6.73962,6.73962 z" id="svg3.path12853" style="fill:#888a85;fill-opacity:1;stroke:none" transform="matrix(1.038636,0,0,1.038636,59.84906,169.4899)" xml:id="svg3.path12853"/>
        <path d="m 248.54804,-383.6666 c 0,3.72219 -3.01743,6.73961 -6.73962,6.73961 -3.72218,0 -6.73961,-3.01742 -6.73961,-6.73961 0,-3.72219 3.01743,-6.73962 6.73961,-6.73962 3.72219,0 6.73962,3.01743 6.73962,6.73962 z" id="svg3.path12855" style="opacity:0.49444442;fill:url(#svg3.linearGradient13503);fill-opacity:1;stroke:none" transform="matrix(1.038636,0,0,1.038636,59.84907,169.4899)" xml:id="svg3.path12855"/>
      </g>
    </g>
    <g id="svg3.g9468" xml:id="svg3.g9468" transform="matrix(2.5313899,0,0,3.0201142,-10.842401,-5.9723708)">
      <g id="svg3.g12891" xml:id="svg3.g12891" transform="translate(-225.18126,253.09536)">
        <path d="m 246.49993,-238.49993 c -2.27083,0 -4.10991,1.55028 -4.71875,3.625 -0.69323,-0.36383 -1.44451,-0.625 -2.28125,-0.625 -2.76,0 -5.00001,2.23999 -5,5 0,0.57893 0.16252,1.1077 0.34375,1.625 -1.37347,0.77074 -2.34375,2.189 -2.34375,3.875 0,2.484 2.016,4.50001 4.5,4.5 0.17713,0 18.82287,0 19,0 2.48399,0 4.5,-2.016 4.5,-4.5 0,-1.686 -0.97028,-3.10426 -2.34375,-3.875 0.18124,-0.51729 0.34375,-1.04608 0.34375,-1.625 0,-2.76 -2.24,-4.99999 -5,-5 -0.83674,0 -1.58802,0.26117 -2.28125,0.625 -0.60884,-2.07472 -2.44792,-3.625 -4.71875,-3.625 z" id="svg3.path12893" style="fill:#888a85;fill-opacity:1;stroke:#555753;stroke-width:1;stroke-linecap:butt;stroke-linejoin:miter;stroke-miterlimit:2;stroke-opacity:1;stroke-dasharray:none;stroke-dashoffset:0" xml:id="svg3.path12893"/>
        <path d="m 246.49993,-237.99993 c -2.18972,0 -3.7236,1.33577 -4.39555,3.84352 -0.66846,-0.34362 -1.54759,-0.83335 -2.35445,-0.83335 -2.71651,0 -4.75514,1.93882 -4.75513,4.54554 0,0.54677 0.26721,1.33344 0.44196,1.82201 -1.32443,0.72795 -2.43683,1.8905 -2.43683,3.37255 0,2.34605 1.54617,4.25009 4.33928,4.25009 0.17081,0 18.15064,0 18.32144,0 2.77101,0 4.33928,-1.90404 4.33928,-4.25009 0,-1.59237 -1.1124,-2.66669 -2.43683,-3.39464 0.17476,-0.48856 0.46407,-1.25316 0.46407,-1.79992 0,-2.60671 -2.11581,-4.56763 -4.77723,-4.56764 -0.80687,0 -1.64181,0.48974 -2.31027,0.83336 -0.64885,-2.42154 -2.25001,-3.82143 -4.43974,-3.82143 z" id="svg3.path12895" style="fill:url(#svg3.linearGradient13145);fill-opacity:1;stroke:none" xml:id="svg3.path12895"/>
        <path d="m 291.6875,-437.59375 c 0,1.82944 -1.48306,3.3125 -3.3125,3.3125 -1.82944,0 -3.3125,-1.48306 -3.3125,-3.3125 0,-1.82944 1.48306,-3.3125 3.3125,-3.3125 1.82944,0 3.3125,1.48306 3.3125,3.3125 z" id="svg3.path12897" style="fill:#888a85;fill-opacity:1;stroke:none" transform="matrix(1.056604,0,0,1.056604,-58.19825,228.8634)" xml:id="svg3.path12897"/>
        <path d="m 291.6875,-437.59375 c 0,1.82944 -1.48306,3.3125 -3.3125,3.3125 -1.82944,0 -3.3125,-1.48306 -3.3125,-3.3125 0,-1.82944 1.48306,-3.3125 3.3125,-3.3125 1.82944,0 3.3125,1.48306 3.3125,3.3125 z" id="svg3.path12899" style="opacity:0.47777776;fill:url(#svg3.linearGradient13147);fill-opacity:1;stroke:none" transform="matrix(1.056604,0,0,1.056604,-58.19825,228.8634)" xml:id="svg3.path12899"/>
        <rect x="236.99994" y="-230.99992" width="20" style="fill:#888a85;fill-opacity:1;stroke:none" height="9" id="svg3.rect12901" xml:id="svg3.rect12901"/>
        <path d="m 291.6875,-437.59375 c 0,1.82944 -1.48306,3.3125 -3.3125,3.3125 -1.82944,0 -3.3125,-1.48306 -3.3125,-3.3125 0,-1.82944 1.48306,-3.3125 3.3125,-3.3125 1.82944,0 3.3125,1.48306 3.3125,3.3125 z" id="svg3.path12903" style="fill:#888a85;fill-opacity:1;stroke:none" transform="matrix(0.90566,0,0,0.90566,-24.16987,171.3114)" xml:id="svg3.path12903"/>
        <path d="m 291.6875,-437.59375 c 0,1.82944 -1.48306,3.3125 -3.3125,3.3125 -1.82944,0 -3.3125,-1.48306 -3.3125,-3.3125 0,-1.82944 1.48306,-3.3125 3.3125,-3.3125 1.82944,0 3.3125,1.48306 3.3125,3.3125 z" id="svg3.path12905" style="fill:#888a85;fill-opacity:1;stroke:none" transform="matrix(1.056604,0,0,1.056604,-51.19818,231.8633)" xml:id="svg3.path12905"/>
        <path d="m 291.6875,-437.59375 c 0,1.82944 -1.48306,3.3125 -3.3125,3.3125 -1.82944,0 -3.3125,-1.48306 -3.3125,-3.3125 0,-1.82944 1.48306,-3.3125 3.3125,-3.3125 1.82944,0 3.3125,1.48306 3.3125,3.3125 z" id="svg3.path12907" style="opacity:0.47777776;fill:url(#svg3.linearGradient13149);fill-opacity:1;stroke:none" transform="matrix(1.056604,0,0,1.056604,-51.19825,231.8634)" xml:id="svg3.path12907"/>
        <path d="m 291.6875,-437.59375 c 0,1.82944 -1.48306,3.3125 -3.3125,3.3125 -1.82944,0 -3.3125,-1.48306 -3.3125,-3.3125 0,-1.82944 1.48306,-3.3125 3.3125,-3.3125 1.82944,0 3.3125,1.48306 3.3125,3.3125 z" id="svg3.path12909" style="fill:#888a85;fill-opacity:1;stroke:none" transform="matrix(1.056604,0,0,1.056604,-65.19825,231.8634)" xml:id="svg3.path12909"/>
        <path d="m 291.6875,-437.59375 c 0,1.82944 -1.48306,3.3125 -3.3125,3.3125 -1.82944,0 -3.3125,-1.48306 -3.3125,-3.3125 0,-1.82944 1.48306,-3.3125 3.3125,-3.3125 1.82944,0 3.3125,1.48306 3.3125,3.3125 z" id="svg3.path12911" style="opacity:0.47777776;fill:url(#svg3.linearGradient13151);fill-opacity:1;stroke:none" transform="matrix(1.056604,0,0,1.056604,-65.19825,231.8634)" xml:id="svg3.path12911"/>
        <path d="m 245.46868,-233.96868 c -3.57938,0 -6.46875,2.92063 -6.46875,6.5 0,2.37068 1.34943,4.33779 3.25,5.46875 l 6.46875,0 c 1.90057,-1.13096 3.25,-3.12931 3.25,-5.5 0,-3.57938 -2.92063,-6.46875 -6.5,-6.46875 z" id="svg3.path12913" style="fill:#888a85;fill-opacity:1;stroke:none" xml:id="svg3.path12913"/>
        <path d="m 245.49993,-233.99993 c -3.588,0 -6.5,2.91201 -6.5,6.5 0,2.3764 1.34485,4.36632 3.25,5.5 l 6.5,0 c 1.90515,-1.13368 3.25,-3.1236 3.25,-5.5 0,-3.588 -2.912,-6.49999 -6.5,-6.5 z" id="svg3.path12915" style="opacity:0.47777776;fill:url(#svg3.linearGradient13153);fill-opacity:1;stroke:none" xml:id="svg3.path12915"/>
        <path d="m 291.6875,-437.59375 c 0,1.82944 -1.48306,3.3125 -3.3125,3.3125 -1.82944,0 -3.3125,-1.48306 -3.3125,-3.3125 0,-1.82944 1.48306,-3.3125 3.3125,-3.3125 1.82944,0 3.3125,1.48306 3.3125,3.3125 z" id="svg3.path12917" style="opacity:0.47777776;fill:url(#svg3.linearGradient13155);fill-opacity:1;stroke:none" transform="matrix(0.90566,0,0,0.90566,-24.16977,171.3113)" xml:id="svg3.path12917"/>
        <path d="m 258.95633,-230.33389 c -0.002,2.68456 -3.26926,3.71395 -3.26926,3.71395 0,0 2.34874,-1.62595 2.33685,-3.70501 0,0 0.93241,-0.009 0.93241,-0.009 z" id="svg3.path12919" style="fill:#555753;fill-opacity:1;fill-rule:evenodd;stroke:none" xml:id="svg3.path12919"/>
        <path d="m 291.6875,-437.59375 c 0,1.82944 -1.48306,3.3125 -3.3125,3.3125 -1.82944,0 -3.3125,-1.48306 -3.3125,-3.3125 0,-1.82944 1.48306,-3.3125 3.3125,-3.3125 1.82944,0 3.3125,1.48306 3.3125,3.3125 z" id="svg3.path12921" style="fill:#888a85;fill-opacity:1;stroke:none" transform="matrix(1.207547,0,0,1.207547,-98.22652,302.4154)" xml:id="svg3.path12921"/>
        <path d="m 291.6875,-437.59375 c 0,1.82944 -1.48306,3.3125 -3.3125,3.3125 -1.82944,0 -3.3125,-1.48306 -3.3125,-3.3125 0,-1.82944 1.48306,-3.3125 3.3125,-3.3125 1.82944,0 3.3125,1.48306 3.3125,3.3125 z" id="svg3.path12923" style="opacity:0.47777776;fill:url(#svg3.linearGradient13157);fill-opacity:1;stroke:none" transform="matrix(1.207547,0,0,1.207547,-98.22652,302.4154)" xml:id="svg3.path12923"/>
      </g>
      <path d="m 21.02789,15.111956 c -2.0001,0 -3.68558,1.0795 -4.53057,2.61494 -0.59491,-0.22191 -1.24464,-0.35337 -1.92595,-0.35337 -2.83021,0 -5.1175304,2.11817 -5.1175304,4.7175 0,0.45375 0.14453,0.85683 0.27514,1.27213 -1.38232,0.86527 -2.34783,2.25357 -2.34783,3.90473 0,2.65283 0.65162,4.99335 5.2275804,4.80585 0.04512,-0.0018 17.45148,0.09698 17.70041,-0.01803 3.08521,0.22595 4.07201,-2.44573 4.07201,-4.69946 0,-1.70051 -0.83694,-3.04985 -2.30927,-3.87759 0.04796,-0.25856 -0.03856,-0.55119 -0.03856,-0.82225 0,-2.59932 -2.30565,-4.71749 -5.13587,-4.71749 -0.39349,0 -0.7324,0.13482 -1.10054,0.21202 -0.73846,-1.76812 -2.58501,-3.03898 -4.76902,-3.03898 z" id="svg3.path11418" style="fill:url(#svg3.radialGradient9407);fill-opacity:1;stroke:none" xml:id="svg3.path11418"/>
    </g>
    <g id="svg3.g9488" xml:id="svg3.g9488" transform="matrix(2.5313899,0,0,3.0201142,-5.7841588,-18.063655)">
      <g id="svg3.g12857" xml:id="svg3.g12857" transform="translate(-210.16696,257.11136)">
        <path d="m 246.49993,-238.49993 c -2.27083,0 -4.10991,1.55028 -4.71875,3.625 -0.69323,-0.36383 -1.44451,-0.625 -2.28125,-0.625 -2.76,0 -5.00001,2.23999 -5,5 0,0.57893 0.16252,1.1077 0.34375,1.625 -1.37347,0.77074 -2.34375,2.189 -2.34375,3.875 0,2.484 2.016,4.50001 4.5,4.5 0.17713,0 18.82287,0 19,0 2.48399,0 4.5,-2.016 4.5,-4.5 0,-1.686 -0.97028,-3.10426 -2.34375,-3.875 0.18124,-0.51729 0.34375,-1.04608 0.34375,-1.625 0,-2.76 -2.24,-4.99999 -5,-5 -0.83674,0 -1.58802,0.26117 -2.28125,0.625 -0.60884,-2.07472 -2.44792,-3.625 -4.71875,-3.625 z" id="svg3.path12859" style="fill:#888a85;fill-opacity:1;stroke:#555753;stroke-width:1;stroke-linecap:butt;stroke-linejoin:miter;stroke-miterlimit:2;stroke-opacity:1;stroke-dasharray:none;stroke-dashoffset:0" xml:id="svg3.path12859"/>
        <path d="m 246.49993,-237.99993 c -2.18972,0 -3.7236,1.33577 -4.39555,3.84352 -0.66846,-0.34362 -1.54759,-0.83335 -2.35445,-0.83335 -2.71651,0 -4.75514,1.93882 -4.75513,4.54554 0,0.54677 0.26721,1.33344 0.44196,1.82201 -1.32443,0.72795 -2.43683,1.8905 -2.43683,3.37255 0,2.34605 1.54617,4.25009 4.33928,4.25009 0.17081,0 18.15064,0 18.32144,0 2.77101,0 4.33928,-1.90404 4.33928,-4.25009 0,-1.59237 -1.1124,-2.66669 -2.43683,-3.39464 0.17476,-0.48856 0.46407,-1.25316 0.46407,-1.79992 0,-2.60671 -2.11581,-4.56763 -4.77723,-4.56764 -0.80687,0 -1.64181,0.48974 -2.31027,0.83336 -0.64885,-2.42154 -2.25001,-3.82143 -4.43974,-3.82143 z" id="svg3.path12861" style="fill:url(#svg3.linearGradient9508);fill-opacity:1;stroke:none" xml:id="svg3.path12861"/>
        <path d="m 291.6875,-437.59375 c 0,1.82944 -1.48306,3.3125 -3.3125,3.3125 -1.82944,0 -3.3125,-1.48306 -3.3125,-3.3125 0,-1.82944 1.48306,-3.3125 3.3125,-3.3125 1.82944,0 3.3125,1.48306 3.3125,3.3125 z" id="svg3.path12863" style="fill:#888a85;fill-opacity:1;stroke:none" transform="matrix(1.056604,0,0,1.056604,-58.19825,228.8634)" xml:id="svg3.path12863"/>
        <path d="m 291.6875,-437.59375 c 0,1.82944 -1.48306,3.3125 -3.3125,3.3125 -1.82944,0 -3.3125,-1.48306 -3.3125,-3.3125 0,-1.82944 1.48306,-3.3125 3.3125,-3.3125 1.82944,0 3.3125,1.48306 3.3125,3.3125 z" id="svg3.path12865" style="opacity:0.47777776;fill:url(#svg3.linearGradient9510);fill-opacity:1;stroke:none" transform="matrix(1.056604,0,0,1.056604,-58.19825,228.8634)" xml:id="svg3.path12865"/>
        <rect x="236.99994" y="-230.99992" width="20" style="fill:#888a85;fill-opacity:1;stroke:none" height="9" id="svg3.rect12867" xml:id="svg3.rect12867"/>
        <path d="m 291.6875,-437.59375 c 0,1.82944 -1.48306,3.3125 -3.3125,3.3125 -1.82944,0 -3.3125,-1.48306 -3.3125,-3.3125 0,-1.82944 1.48306,-3.3125 3.3125,-3.3125 1.82944,0 3.3125,1.48306 3.3125,3.3125 z" id="svg3.path12869" style="fill:#888a85;fill-opacity:1;stroke:none" transform="matrix(0.90566,0,0,0.90566,-24.16987,171.3114)" xml:id="svg3.path12869"/>
        <path d="m 291.6875,-437.59375 c 0,1.82944 -1.48306,3.3125 -3.3125,3.3125 -1.82944,0 -3.3125,-1.48306 -3.3125,-3.3125 0,-1.82944 1.48306,-3.3125 3.3125,-3.3125 1.82944,0 3.3125,1.48306 3.3125,3.3125 z" id="svg3.path12871" style="fill:#888a85;fill-opacity:1;stroke:none" transform="matrix(1.056604,0,0,1.056604,-51.19818,231.8633)" xml:id="svg3.path12871"/>
        <path d="m 291.6875,-437.59375 c 0,1.82944 -1.48306,3.3125 -3.3125,3.3125 -1.82944,0 -3.3125,-1.48306 -3.3125,-3.3125 0,-1.82944 1.48306,-3.3125 3.3125,-3.3125 1.82944,0 3.3125,1.48306 3.3125,3.3125 z" id="svg3.path12873" style="opacity:0.47777776;fill:url(#svg3.linearGradient9512);fill-opacity:1;stroke:none" transform="matrix(1.056604,0,0,1.056604,-51.19825,231.8634)" xml:id="svg3.path12873"/>
        <path d="m 291.6875,-437.59375 c 0,1.82944 -1.48306,3.3125 -3.3125,3.3125 -1.82944,0 -3.3125,-1.48306 -3.3125,-3.3125 0,-1.82944 1.48306,-3.3125 3.3125,-3.3125 1.82944,0 3.3125,1.48306 3.3125,3.3125 z" id="svg3.path12875" style="fill:#888a85;fill-opacity:1;stroke:none" transform="matrix(1.056604,0,0,1.056604,-65.19825,231.8634)" xml:id="svg3.path12875"/>
        <path d="m 291.6875,-437.59375 c 0,1.82944 -1.48306,3.3125 -3.3125,3.3125 -1.82944,0 -3.3125,-1.48306 -3.3125,-3.3125 0,-1.82944 1.48306,-3.3125 3.3125,-3.3125 1.82944,0 3.3125,1.48306 3.3125,3.3125 z" id="svg3.path12877" style="opacity:0.47777776;fill:url(#svg3.linearGradient9514);fill-opacity:1;stroke:none" transform="matrix(1.056604,0,0,1.056604,-65.19825,231.8634)" xml:id="svg3.path12877"/>
        <path d="m 245.46868,-233.96868 c -3.57938,0 -6.46875,2.92063 -6.46875,6.5 0,2.37068 1.34943,4.33779 3.25,5.46875 l 6.46875,0 c 1.90057,-1.13096 3.25,-3.12931 3.25,-5.5 0,-3.57938 -2.92063,-6.46875 -6.5,-6.46875 z" id="svg3.path12879" style="fill:#888a85;fill-opacity:1;stroke:none" xml:id="svg3.path12879"/>
        <path d="m 245.49993,-233.99993 c -3.588,0 -6.5,2.91201 -6.5,6.5 0,2.3764 1.34485,4.36632 3.25,5.5 l 6.5,0 c 1.90515,-1.13368 3.25,-3.1236 3.25,-5.5 0,-3.588 -2.912,-6.49999 -6.5,-6.5 z" id="svg3.path12881" style="opacity:0.47777776;fill:url(#svg3.linearGradient9516);fill-opacity:1;stroke:none" xml:id="svg3.path12881"/>
        <path d="m 291.6875,-437.59375 c 0,1.82944 -1.48306,3.3125 -3.3125,3.3125 -1.82944,0 -3.3125,-1.48306 -3.3125,-3.3125 0,-1.82944 1.48306,-3.3125 3.3125,-3.3125 1.82944,0 3.3125,1.48306 3.3125,3.3125 z" id="svg3.path12883" style="opacity:0.47777776;fill:url(#svg3.linearGradient9518);fill-opacity:1;stroke:none" transform="matrix(0.90566,0,0,0.90566,-24.16977,171.3113)" xml:id="svg3.path12883"/>
        <path d="m 258.95633,-230.33389 c -0.002,2.68456 -3.26926,3.71395 -3.26926,3.71395 0,0 2.34874,-1.62595 2.33685,-3.70501 0,0 0.93241,-0.009 0.93241,-0.009 z" id="svg3.path12885" style="fill:#555753;fill-opacity:1;fill-rule:evenodd;stroke:none" xml:id="svg3.path12885"/>
        <path d="m 291.6875,-437.59375 c 0,1.82944 -1.48306,3.3125 -3.3125,3.3125 -1.82944,0 -3.3125,-1.48306 -3.3125,-3.3125 0,-1.82944 1.48306,-3.3125 3.3125,-3.3125 1.82944,0 3.3125,1.48306 3.3125,3.3125 z" id="svg3.path12887" style="fill:#888a85;fill-opacity:1;stroke:none" transform="matrix(1.207547,0,0,1.207547,-98.22652,302.4154)" xml:id="svg3.path12887"/>
        <path d="m 291.6875,-437.59375 c 0,1.82944 -1.48306,3.3125 -3.3125,3.3125 -1.82944,0 -3.3125,-1.48306 -3.3125,-3.3125 0,-1.82944 1.48306,-3.3125 3.3125,-3.3125 1.82944,0 3.3125,1.48306 3.3125,3.3125 z" id="svg3.path12889" style="opacity:0.47777776;fill:url(#svg3.linearGradient9520);fill-opacity:1;stroke:none" transform="matrix(1.207547,0,0,1.207547,-98.22652,302.4154)" xml:id="svg3.path12889"/>
      </g>
      <path d="m 36.46539,19.111476 c -2.0001,0 -3.68558,1.0795 -4.53057,2.61494 -0.59491,-0.22191 -1.24464,-0.35337 -1.92595,-0.35337 -2.83021,0 -5.11753,2.11817 -5.11753,4.7175 0,0.45375 0.14453,0.85683 0.27514,1.27213 -1.38232,0.86527 -2.34783,2.25357 -2.34783,3.90473 0,2.65283 0.65162,4.99335 5.22758,4.80585 0.04512,-0.0018 17.45148,0.09698 17.70041,-0.01803 3.08521,0.22595 4.07201,-2.44573 4.07201,-4.69946 0,-1.70051 -0.83694,-3.04985 -2.30927,-3.87759 0.04796,-0.25856 -0.03856,-0.55119 -0.03856,-0.82225 0,-2.59932 -2.30565,-4.71749 -5.13587,-4.71749 -0.39349,0 -0.7324,0.13482 -1.10054,0.21202 -0.73846,-1.76812 -2.58501,-3.03898 -4.76902,-3.03898 z" id="svg3.path13209" style="fill:url(#svg3.radialGradient9522);fill-opacity:1;stroke:none" xml:id="svg3.path13209"/>
    </g>
  </g>
</svg>
      </g>
    </g>
    <g stroke-miterlimit="1.45" font-family="sans-serif" transform="matrix(1,0,0,1,-250,-243)" stroke-linecap="butt">
      <text x="496.0885" xml:space="preserve" y="371.4865" clip-path="url(#clipPath2)" stroke="none">100.64.0.0/24</text>
    </g>
    <g fill="rgb(255,204,0)" transform="matrix(1,0,0,1,-250,-243)" stroke="rgb(255,204,0)">
      <rect x="270.7622" width="116.4756" height="30" y="432" clip-path="url(#clipPath2)" stroke="none"/>
    </g>
    <g stroke-miterlimit="1.45" font-family="sans-serif" transform="matrix(1,0,0,1,-250,-243)" stroke-linecap="butt">
      <text x="283.083" xml:space="preserve" y="451.1543" clip-path="url(#clipPath2)" stroke="none">192.168.1.0/24</text>
      <rect fill="none" x="270.7622" width="116.4756" height="30" y="432" clip-path="url(#clipPath2)"/>
    </g>
    <g fill="rgb(255,204,0)" transform="matrix(1,0,0,1,-250,-243)" stroke="rgb(255,204,0)">
      <rect x="689.1383" width="116.4756" height="30" y="432" clip-path="url(#clipPath2)" stroke="none"/>
    </g>
    <g stroke-miterlimit="1.45" font-family="sans-serif" transform="matrix(1,0,0,1,-250,-243)" stroke-linecap="butt">
      <text x="701.4592" xml:space="preserve" y="451.1543" clip-path="url(#clipPath2)" stroke="none">192.168.2.0/24</text>
      <rect fill="none" x="689.1383" width="116.4756" height="30" y="432" clip-path="url(#clipPath2)"/>
      <path fill="none" d="M384.9997 316 L485.7914 316" clip-path="url(#clipPath2)"/>
      <path fill="none" d="M691.3765 316 L592.9036 316" clip-path="url(#clipPath2)"/>
      <path fill="none" d="M329 351.0847 L329 432" clip-path="url(#clipPath2)"/>
      <path fill="none" d="M747.3762 351.0847 L747.3762 432" clip-path="url(#clipPath2)"/>
    </g>
  </g>
</svg>
