<?xml version="1.0" encoding="UTF-8" standalone="no"?>
<svg
   xmlns:dc="http://purl.org/dc/elements/1.1/"
   xmlns:cc="http://creativecommons.org/ns#"
   xmlns:rdf="http://www.w3.org/1999/02/22-rdf-syntax-ns#"
   xmlns:svg="http://www.w3.org/2000/svg"
   xmlns="http://www.w3.org/2000/svg"
   xmlns:xlink="http://www.w3.org/1999/xlink"
   xmlns:sodipodi="http://sodipodi.sourceforge.net/DTD/sodipodi-0.dtd"
   xmlns:inkscape="http://www.inkscape.org/namespaces/inkscape"
   fill-opacity="1"
   color-rendering="auto"
   color-interpolation="auto"
   text-rendering="auto"
   stroke="black"
   stroke-linecap="square"
   width="756"
   stroke-miterlimit="10"
   shape-rendering="auto"
   stroke-opacity="1"
   fill="black"
   stroke-dasharray="none"
   font-weight="normal"
   stroke-width="1"
   height="343"
   font-family="'Dialog'"
   font-style="normal"
   stroke-linejoin="miter"
   font-size="12px"
   stroke-dashoffset="0"
   image-rendering="auto"
   version="1.1"
   id="svg7310"
   sodipodi:docname="aoe.svg"
   inkscape:version="0.92.2 2405546, 2018-03-11">
  <metadata
     id="metadata7314">
    <rdf:RDF>
      <cc:Work
         rdf:about="">
        <dc:format>image/svg+xml</dc:format>
        <dc:type
           rdf:resource="http://purl.org/dc/dcmitype/StillImage" />
        <dc:title></dc:title>
      </cc:Work>
    </rdf:RDF>
  </metadata>
  <sodipodi:namedview
     pagecolor="#ffffff"
     bordercolor="#666666"
     borderopacity="1"
     objecttolerance="10"
     gridtolerance="10"
     guidetolerance="10"
     inkscape:pageopacity="0"
     inkscape:pageshadow="2"
     inkscape:window-width="1916"
     inkscape:window-height="1041"
     id="namedview7312"
     showgrid="false"
     inkscape:zoom="3.4497354"
     inkscape:cx="695.84361"
     inkscape:cy="212.78726"
     inkscape:window-x="900"
     inkscape:window-y="37"
     inkscape:window-maximized="0"
     inkscape:current-layer="g7308" />
  <!--Generated by ySVG 2.5-->
  <defs
     id="genericDefs" />
  <g
     id="g7308">
    <g
       id="decap_eth"
       inkscape:label="#g7370">
      <g
         id="g7151"
         stroke="rgb(204,255,255)"
         transform="matrix(1,0,0,1,-347,-269)"
         shape-rendering="geometricPrecision"
         text-rendering="geometricPrecision"
         fill="rgb(204,255,255)">
        <rect
           id="rect7149"
           stroke="none"
           clip-path="url(#clipPath2)"
           y="345"
           height="90"
           width="197"
           x="890.5" />
      </g>
      <g
         id="g7157"
         stroke-linecap="butt"
         transform="matrix(1,0,0,1,-347,-269)"
         shape-rendering="geometricPrecision"
         stroke-miterlimit="1.45"
         text-rendering="geometricPrecision">
        <rect
           id="rect7153"
           clip-path="url(#clipPath2)"
           y="345"
           height="90"
           width="197"
           x="890.5"
           fill="none" />
        <text
           id="text7155"
           stroke="none"
           font-family="sans-serif"
           clip-path="url(#clipPath2)"
           y="362.1387"
           xml:space="preserve"
           x="918.998">Encapsulation Ethernet</text>
      </g>
    </g>
    <g
       id="encap_eth"
       inkscape:label="#g7337">
      <g
         id="g7171"
         stroke="rgb(204,255,255)"
         transform="matrix(1,0,0,1,-347,-269)"
         shape-rendering="geometricPrecision"
         text-rendering="geometricPrecision"
         fill="rgb(204,255,255)">
        <rect
           id="rect7169"
           stroke="none"
           clip-path="url(#clipPath2)"
           y="345"
           height="90"
           width="197"
           x="362.5" />
      </g>
      <g
         id="g7177"
         stroke-linecap="butt"
         transform="matrix(1,0,0,1,-347,-269)"
         shape-rendering="geometricPrecision"
         stroke-miterlimit="1.45"
         text-rendering="geometricPrecision">
        <rect
           id="rect7173"
           clip-path="url(#clipPath2)"
           y="345"
           height="90"
           width="197"
           x="362.5"
           fill="none" />
        <text
           id="text7175"
           stroke="none"
           font-family="sans-serif"
           clip-path="url(#clipPath2)"
           y="362.1387"
           xml:space="preserve"
           x="390.998">Encapsulation Ethernet</text>
      </g>
    </g>
    <g
       id="encap_ata"
       inkscape:label="#g7330">
      <g
         id="g7181"
         stroke="rgb(255,255,153)"
         transform="matrix(1,0,0,1,-347,-269)"
         shape-rendering="geometricPrecision"
         text-rendering="geometricPrecision"
         fill="rgb(255,255,153)">
        <rect
           id="rect7179"
           stroke="none"
           clip-path="url(#clipPath2)"
           y="375"
           height="60"
           width="148"
           x="387" />
      </g>
      <g
         id="g7187"
         stroke-linecap="butt"
         transform="matrix(1,0,0,1,-347,-269)"
         shape-rendering="geometricPrecision"
         stroke-miterlimit="1.45"
         text-rendering="geometricPrecision">
        <rect
           id="rect7183"
           clip-path="url(#clipPath2)"
           y="375"
           height="60"
           width="148"
           x="387"
           fill="none" />
        <text
           id="text7185"
           stroke="none"
           font-family="sans-serif"
           clip-path="url(#clipPath2)"
           y="392.1387"
           xml:space="preserve"
           x="405.0752">Encapsulation ATA</text>
      </g>
    </g>
    <g
       id="data"
       inkscape:label="#g7323">
      <g
         id="g7191"
         stroke="rgb(255,204,0)"
         transform="matrix(1,0,0,1,-347,-269)"
         shape-rendering="geometricPrecision"
         text-rendering="geometricPrecision"
         fill="rgb(255,204,0)">
        <rect
           id="rect7189"
           stroke="none"
           clip-path="url(#clipPath2)"
           y="405"
           height="30"
           width="96"
           x="413" />
      </g>
      <rect
         transform="translate(-347,-269)"
         x="413"
         width="96"
         height="30"
         y="405"
         clip-path="url(#clipPath2)"
         id="rect7193"
         style="fill:none;stroke-linecap:butt;stroke-miterlimit:1.45000005;shape-rendering:geometricPrecision;text-rendering:geometricPrecision" />
      <text
         transform="translate(-347,-269)"
         x="434.5947"
         xml:space="preserve"
         y="424.1543"
         clip-path="url(#clipPath2)"
         id="text7195"
         style="font-family:sans-serif;stroke:none;stroke-linecap:butt;stroke-miterlimit:1.45000005;shape-rendering:geometricPrecision;text-rendering:geometricPrecision">Données</text>
    </g>
    <text
       style="font-size:24px;font-family:sans-serif;stroke:none;stroke-linecap:butt;stroke-miterlimit:1.45000005;shape-rendering:geometricPrecision;text-rendering:geometricPrecision"
       id="initiator_title"
       xml:space="preserve"
       clip-path="url(#clipPath2)"
       y="308.30859"
       font-size="24px"
       x="416.14841"
       transform="translate(-347,-269)"
       inkscape:label="#text7197">Initiator</text>
    <g
       id="data_rcv"
       inkscape:label="#g7363">
      <g
         id="g7161"
         stroke="rgb(255,255,153)"
         transform="matrix(1,0,0,1,-347,-269)"
         shape-rendering="geometricPrecision"
         text-rendering="geometricPrecision"
         fill="rgb(255,255,153)">
        <rect
           id="rect7159"
           stroke="none"
           clip-path="url(#clipPath2)"
           y="375"
           height="60"
           width="148"
           x="915" />
      </g>
      <g
         id="g7167"
         stroke-linecap="butt"
         transform="matrix(1,0,0,1,-347,-269)"
         shape-rendering="geometricPrecision"
         stroke-miterlimit="1.45"
         text-rendering="geometricPrecision">
        <rect
           id="rect7163"
           clip-path="url(#clipPath2)"
           y="375"
           height="60"
           width="148"
           x="915"
           fill="none" />
        <text
           id="text7165"
           stroke="none"
           font-family="sans-serif"
           clip-path="url(#clipPath2)"
           y="392.1387"
           xml:space="preserve"
           x="933.0752">Encapsulation ATA</text>
      </g>
      <g
         id="g7203"
         stroke="rgb(255,204,0)"
         transform="matrix(1,0,0,1,-347,-269)"
         shape-rendering="geometricPrecision"
         text-rendering="geometricPrecision"
         fill="rgb(255,204,0)">
        <rect
           id="rect7201"
           stroke="none"
           clip-path="url(#clipPath2)"
           y="405"
           height="30"
           width="96"
           x="941" />
      </g>
      <rect
         transform="translate(-347,-269)"
         x="941"
         width="96"
         height="30"
         y="405"
         clip-path="url(#clipPath2)"
         id="rect7205"
         style="fill:none;stroke-linecap:butt;stroke-miterlimit:1.45000005;shape-rendering:geometricPrecision;text-rendering:geometricPrecision" />
      <text
         transform="translate(-347,-269)"
         x="962.59473"
         xml:space="preserve"
         y="424.1543"
         clip-path="url(#clipPath2)"
         id="text7207"
         style="font-family:sans-serif;stroke:none;stroke-linecap:butt;stroke-miterlimit:1.45000005;shape-rendering:geometricPrecision;text-rendering:geometricPrecision">Données</text>
    </g>
    <text
       style="font-size:24px;font-family:sans-serif;stroke:none;stroke-linecap:butt;stroke-miterlimit:1.45000005;shape-rendering:geometricPrecision;text-rendering:geometricPrecision"
       id="target_title"
       xml:space="preserve"
       clip-path="url(#clipPath2)"
       y="308.30859"
       font-size="24px"
       x="949.67767"
       transform="translate(-347,-269)"
       inkscape:label="#text7209">Target</text>
    <g
       text-rendering="geometricPrecision"
       shape-rendering="geometricPrecision"
       transform="matrix(1,0,0,1,579.125,214.0374)"
       id="disk"
       inkscape:label="#g7296">
      <g
         clip-path="url(#clipPath3)"
         id="g7294">
        <svg
           opacity="1"
           writing-mode="lr-tb"
           stop-color="rgb(0, 0, 0)"
           shape-rendering="auto"
           glyph-orientation-horizontal="0deg"
           color-profile="auto"
           lighting-color="rgb(255, 255, 255)"
           color="rgb(0, 0, 0)"
           font-weight="400"
           alignment-baseline="auto"
           font-style="normal"
           version="1.0"
           color-interpolation-filters="linearrgb"
           text-anchor="start"
           stroke-linecap="butt"
           color-interpolation="srgb"
           font-variant="normal"
           word-spacing="normal"
           fill-opacity="1"
           text-rendering="auto"
           clip-path="none"
           text-decoration="none"
           letter-spacing="normal"
           glyph-orientation-vertical="auto"
           display="inline"
           font-size-adjust="none"
           fill="rgb(0, 0, 0)"
           overflow="visible"
           font-stretch="normal"
           stroke-dasharray="none"
           id="svg1.svg2913"
           stroke-miterlimit="4"
           stop-opacity="1"
           color-rendering="auto"
           font-size="12"
           mask="none"
           direction="ltr"
           baseline-shift="baseline"
           pointer-events="visiblepainted"
           enable-background="accumulate"
           fill-rule="nonzero"
           image-rendering="auto"
           stroke-dashoffset="0"
           width="128"
           marker-end="none"
           clip="auto"
           cursor="auto"
           stroke="none"
           filter="none"
           visibility="visible"
           kerning="auto"
           stroke-width="1"
           font-family="&quot;Arial&quot;,&quot;Helvetica&quot;,sans-serif"
           flood-opacity="1"
           clip-rule="nonzero"
           src="none"
           height="128"
           unicode-bidi="normal"
           stroke-linejoin="miter"
           stroke-opacity="1"
           flood-color="rgb(0, 0, 0)"
           dominant-baseline="auto"
           marker-start="none"
           marker-mid="none">
          <defs
             id="svg1.defs3">
            <radialGradient
               gradientTransform="matrix(-2.774389,0,0,1.969706,112.7623,-872.8854)"
               xlink:href="#svg1.linearGradient5060"
               gradientUnits="userSpaceOnUse"
               r="117.14286"
               cx="605.71429"
               cy="486.64789"
               id="svg1.radialGradient6719"
               fx="605.71429"
               fy="486.64789" />
            <linearGradient
               id="svg1.linearGradient5060">
              <stop
                 style="stop-color:#000000;stop-opacity:1"
                 offset="0"
                 id="svg1.stop5062" />
              <stop
                 style="stop-color:#000000;stop-opacity:0"
                 offset="1"
                 id="svg1.stop5064" />
            </linearGradient>
            <radialGradient
               gradientTransform="matrix(2.774389,0,0,1.969706,-1891.633,-872.8854)"
               xlink:href="#svg1.linearGradient5060"
               gradientUnits="userSpaceOnUse"
               r="117.14286"
               cx="605.71429"
               cy="486.64789"
               id="svg1.radialGradient6717"
               fx="605.71429"
               fy="486.64789" />
            <linearGradient
               id="svg1.linearGradient5048">
              <stop
                 style="stop-color:#000000;stop-opacity:0"
                 offset="0"
                 id="svg1.stop5050" />
              <stop
                 style="stop-color:#000000;stop-opacity:1"
                 offset="0.5"
                 id="svg1.stop5056" />
              <stop
                 style="stop-color:#000000;stop-opacity:0"
                 offset="1"
                 id="svg1.stop5052" />
            </linearGradient>
            <linearGradient
               gradientTransform="matrix(2.774389,0,0,1.969706,-1892.179,-872.8854)"
               x1="302.85715"
               gradientUnits="userSpaceOnUse"
               x2="302.85715"
               xlink:href="#svg1.linearGradient5048"
               y1="366.64789"
               y2="609.50507"
               id="svg1.linearGradient6715" />
            <linearGradient
               id="svg1.linearGradient2555">
              <stop
                 style="stop-color:#ffffff;stop-opacity:1"
                 offset="0"
                 id="svg1.stop2557" />
              <stop
                 style="stop-color:#e6e6e6;stop-opacity:1"
                 offset="0.5"
                 id="svg1.stop2561" />
              <stop
                 style="stop-color:#ffffff;stop-opacity:1"
                 offset="0.75"
                 id="svg1.stop2563" />
              <stop
                 style="stop-color:#e1e1e1;stop-opacity:1"
                 offset="0.84166664"
                 id="svg1.stop2565" />
              <stop
                 style="stop-color:#ffffff;stop-opacity:1"
                 offset="1"
                 id="svg1.stop2559" />
            </linearGradient>
            <linearGradient
               id="svg1.linearGradient4274">
              <stop
                 style="stop-color:#ffffff;stop-opacity:0.25490198"
                 offset="0"
                 id="svg1.stop4276" />
              <stop
                 style="stop-color:#ffffff;stop-opacity:1"
                 offset="1"
                 id="svg1.stop4278" />
            </linearGradient>
            <linearGradient
               id="svg1.linearGradient4254">
              <stop
                 style="stop-color:#ffffff;stop-opacity:1"
                 offset="0"
                 id="svg1.stop4256" />
              <stop
                 style="stop-color:#ffffff;stop-opacity:0"
                 offset="1"
                 id="svg1.stop4258" />
            </linearGradient>
            <linearGradient
               id="svg1.linearGradient4244">
              <stop
                 style="stop-color:#e4e4e4;stop-opacity:1"
                 offset="0"
                 id="svg1.stop4246" />
              <stop
                 style="stop-color:#d3d3d3;stop-opacity:1"
                 offset="1"
                 id="svg1.stop4248" />
            </linearGradient>
            <linearGradient
               id="svg1.linearGradient4236">
              <stop
                 style="stop-color:#eeeeee;stop-opacity:1"
                 offset="0"
                 id="svg1.stop4238" />
              <stop
                 style="stop-color:#eeeeee;stop-opacity:0"
                 offset="1"
                 id="svg1.stop4240" />
            </linearGradient>
            <linearGradient
               id="svg1.linearGradient4228">
              <stop
                 style="stop-color:#bbbbbb;stop-opacity:1"
                 offset="0"
                 id="svg1.stop4230" />
              <stop
                 style="stop-color:#9f9f9f;stop-opacity:1"
                 offset="1"
                 id="svg1.stop4232" />
            </linearGradient>
            <linearGradient
               id="svg1.linearGradient4184">
              <stop
                 style="stop-color:#838383;stop-opacity:1"
                 offset="0"
                 id="svg1.stop4186" />
              <stop
                 style="stop-color:#bbbbbb;stop-opacity:0"
                 offset="1"
                 id="svg1.stop4188" />
            </linearGradient>
            <linearGradient
               gradientTransform="translate(0.795493,-1.325821)"
               x1="7.0625"
               gradientUnits="userSpaceOnUse"
               x2="24.6875"
               xlink:href="#svg1.linearGradient4184"
               y1="35.28125"
               y2="35.28125"
               id="svg1.linearGradient4209" />
            <linearGradient
               x1="7.6046205"
               gradientUnits="userSpaceOnUse"
               x2="36.183067"
               xlink:href="#svg1.linearGradient4228"
               y1="28.481176"
               y2="40.943935"
               id="svg1.linearGradient4234" />
            <linearGradient
               x1="12.277412"
               gradientUnits="userSpaceOnUse"
               x2="12.221823"
               xlink:href="#svg1.linearGradient4236"
               y1="37.205811"
               y2="33.758667"
               id="svg1.linearGradient4242" />
            <radialGradient
               gradientTransform="matrix(1.286242,0.781698,-0.710782,1.169552,-2.354348,-4.876862)"
               xlink:href="#svg1.linearGradient4244"
               gradientUnits="userSpaceOnUse"
               r="20.935818"
               cx="15.571491"
               cy="2.958519"
               id="svg1.radialGradient4250"
               fx="15.571491"
               fy="2.958519" />
            <linearGradient
               x1="12.378357"
               gradientUnits="userSpaceOnUse"
               x2="44.0961"
               xlink:href="#svg1.linearGradient4254"
               y1="4.433136"
               y2="47.620636"
               id="svg1.linearGradient4260" />
            <linearGradient
               x1="23.688078"
               gradientUnits="userSpaceOnUse"
               x2="23.688078"
               xlink:href="#svg1.linearGradient4274"
               y1="11.318835"
               y2="26.357183"
               id="svg1.linearGradient4272" />
            <linearGradient
               x1="33.431175"
               gradientUnits="userSpaceOnUse"
               x2="21.747974"
               xlink:href="#svg1.linearGradient2555"
               y1="31.964777"
               y2="11.780679"
               id="svg1.linearGradient2553" />
            <clipPath
               clipPathUnits="userSpaceOnUse"
               id="clipPath1">
              <path
                 d="M0 0 L756 0 L756 343 L0 343 L0 0 Z"
                 id="path7254" />
            </clipPath>
            <clipPath
               clipPathUnits="userSpaceOnUse"
               id="clipPath2">
              <path
                 d="M347 269 L1103 269 L1103 612 L347 612 L347 269 Z"
                 id="path7257" />
            </clipPath>
            <clipPath
               clipPathUnits="userSpaceOnUse"
               id="clipPath3">
              <path
                 d="M-579.125 -214.0374 L176.875 -214.0374 L176.875 128.9626 L-579.125 128.9626 L-579.125 -214.0374 Z"
                 id="path7260" />
            </clipPath>
          </defs>
          <g
             id="svg1.layer2">
            <g
               id="svg1.g2452"
               transform="matrix(2.6063849,0,0,2.6063849,0.6475626,-6.18466)">
              <g
                 id="svg1.g6707"
                 transform="matrix(0.0245274,0,0,0.02086758,45.69054,36.1536)">
                <rect
                   x="-1559.2523"
                   width="1339.6335"
                   height="478.35718"
                   y="-150.69685"
                   id="svg1.rect6709"
                   style="opacity:0.40206185;fill:url(#svg1.linearGradient6715);fill-opacity:1;fill-rule:nonzero;stroke:none;stroke-width:1;marker:none;visibility:visible;display:inline;overflow:visible" />
                <path
                   style="opacity:0.40206185;fill:url(#svg1.radialGradient6717);fill-opacity:1;fill-rule:nonzero;stroke:none;stroke-width:1;marker:none;visibility:visible;display:inline;overflow:visible"
                   d="m -219.61876,-150.68038 c 0,0 0,478.33079 0,478.33079 142.874166,0.90045 345.40022,-107.16966 345.40014,-239.196175 0,-132.026537 -159.436816,-239.134595 -345.40014,-239.134615 z"
                   id="svg1.path6711" />
                <path
                   style="opacity:0.40206185;fill:url(#svg1.radialGradient6719);fill-opacity:1;fill-rule:nonzero;stroke:none;stroke-width:1;marker:none;visibility:visible;display:inline;overflow:visible"
                   d="m -1559.2523,-150.68038 c 0,0 0,478.33079 0,478.33079 -142.8742,0.90045 -345.4002,-107.16966 -345.4002,-239.196175 0,-132.026537 159.4368,-239.134595 345.4002,-239.134615 z"
                   id="svg1.path6713" />
              </g>
              <path
                 style="fill:none;stroke:#535353;stroke-width:2;stroke-linecap:round;stroke-linejoin:round;stroke-miterlimit:4;stroke-opacity:1;stroke-dasharray:none"
                 d="m 11.28569,7.9626278 c -0.625,0 -1.031249,0.2901802 -1.281248,0.843753 -10e-7,0 -6.4687505,17.1035572 -6.4687505,17.1035572 0,0 -0.25,0.671559 -0.25,1.78125 0,0 0,9.649968 0,9.649968 0,1.082613 0.6577855,1.625002 1.65625,1.625 l 38.5624985,0 c 0.984853,0 1.59375,-0.71818 1.59375,-1.84375 l 0,-9.649968 c 0,0 0.105963,-0.770423 -0.09375,-1.3125 L 38.28569,8.9626314 C 38.101165,8.4507246 37.648785,7.9745331 37.16069,7.9626278 l -25.875,0 z"
                 id="svg1.path4196" />
              <path
                 style="fill:url(#svg1.linearGradient4234);fill-opacity:1;fill-rule:evenodd;stroke:none"
                 d="m 3.2735915,26.996812 0.7646021,-0.692215 37.6096894,0.0625 3.462407,0.317298 0,10.438532 c 0,1.125569 -0.607018,1.843331 -1.591871,1.843331 l -38.5829876,0 c -0.9984647,0 -1.6618399,-0.542051 -1.6618399,-1.624664 l 0,-10.344782 z"
                 id="svg1.path4170" />
              <path
                 style="fill:url(#svg1.radialGradient4250);fill-opacity:1;fill-rule:evenodd;stroke:none"
                 d="m 3.5490842,25.914404 c -0.7142857,1.464286 -6.156e-4,2.392857 1.0357143,2.392857 0,0 38.9999985,0 38.9999985,0 1.119047,-0.02381 1.845238,-1.011905 1.428571,-2.142858 L 38.299082,8.9537044 C 38.114558,8.4417976 37.64432,7.9656058 37.156225,7.9537008 l -25.857142,0 c -0.625,0 -1.035714,0.3035732 -1.285713,0.857146 0,0 -6.4642858,17.1035572 -6.4642858,17.1035572 z"
                 id="svg1.path3093" />
              <rect
                 x="7.857996"
                 width="17.625"
                 height="5.5625"
                 y="31.174183"
                 id="svg1.rect4174"
                 style="fill:url(#svg1.linearGradient4209);fill-opacity:1;fill-rule:evenodd;stroke:none;stroke-width:2.40899992;marker:none;visibility:visible;display:inline;overflow:visible" />
              <path
                 style="opacity:0.81142853;fill:url(#svg1.linearGradient4242);fill-opacity:1;fill-rule:evenodd;stroke:none"
                 d="m 7.8579947,36.73668 c 0,0 0,-4.011485 0,-4.011485 1.8355274,3.179226 8.2964903,4.011485 12.9374973,4.011485 0,0 -12.9374973,0 -12.9374973,0 z"
                 id="svg1.path4194" />
              <path
                 style="fill:#ffffff;fill-opacity:1;fill-rule:evenodd;stroke:none"
                 d="m 44.796162,25.628688 c 0.06352,1.249974 -0.414003,2.31584 -1.322116,2.34375 0,0 -38.1187164,-1e-6 -38.1187163,0 -1.2892319,0 -1.867736,-0.324947 -2.0840507,-0.868056 0.091761,0.944332 0.8258174,1.649306 2.0840507,1.649306 -1e-7,-1e-6 38.1187163,0 38.1187163,0 1.076007,-0.03307 1.752805,-1.424024 1.352164,-2.994791 l -0.03005,-0.130209 z"
                 id="svg1.path4201" />
              <path
                 style="opacity:0.69142857;fill:url(#svg1.linearGradient4272);fill-opacity:1;fill-rule:evenodd;stroke:none;stroke-width:2;marker:none;visibility:visible;display:inline;overflow:visible"
                 d="m 10.96875,10.15625 c -0.04608,0.200321 -0.1875,0.386797 -0.1875,0.59375 0,0.948605 0.59098,1.789474 1.34375,2.59375 0.240268,-0.154075 0.365117,-0.354408 0.625,-0.5 -0.940309,-0.816004 -1.553396,-1.716582 -1.78125,-2.6875 z m 26.65625,0 c -0.228727,0.969616 -0.842012,1.872426 -1.78125,2.6875 0.274144,0.153582 0.403988,0.36824 0.65625,0.53125 0.757262,-0.806656 1.3125,-1.673044 1.3125,-2.625 0,-0.206953 -0.141594,-0.393429 -0.1875,-0.59375 z m 2.1875,8.4375 c -0.613791,4.040111 -7.298613,7.25 -15.53125,7.25 -8.212254,1e-6 -14.8601499,-3.192786 -15.5,-7.21875 -0.032357,0.197132 -0.125,0.391882 -0.125,0.59375 3e-7,4.317947 6.989104,7.843751 15.625,7.84375 8.635896,0 15.656249,-3.525802 15.65625,-7.84375 0,-0.212924 -0.08905,-0.417356 -0.125,-0.625 z"
                 id="svg1.path4211" />
              <path
                 d="m 8.5736699,25.593554 c 0,0.561379 -0.6133786,1.016466 -1.3700194,1.016466 -0.7566409,0 -1.3700195,-0.455087 -1.3700195,-1.016466 0,-0.561379 0.6133786,-1.016466 1.3700195,-1.016466 0.7566408,0 1.3700194,0.455087 1.3700194,1.016466 z"
                 id="svg1.path4224"
                 style="fill:#ffffff;fill-opacity:0.45762706;fill-rule:evenodd;stroke:none;stroke-width:2;marker:none;visibility:visible;display:inline;overflow:visible"
                 transform="translate(0.08838843,0.176776)" />
              <path
                 d="m 8.5736699,25.593554 c 0,0.561379 -0.6133786,1.016466 -1.3700194,1.016466 -0.7566409,0 -1.3700195,-0.455087 -1.3700195,-1.016466 0,-0.561379 0.6133786,-1.016466 1.3700195,-1.016466 0.7566408,0 1.3700194,0.455087 1.3700194,1.016466 z"
                 id="svg1.path4226"
                 style="fill:#ffffff;fill-opacity:0.45762706;fill-rule:evenodd;stroke:none;stroke-width:2;marker:none;visibility:visible;display:inline;overflow:visible"
                 transform="translate(33.96705,0.08838804)" />
              <path
                 style="fill:none;stroke:url(#svg1.linearGradient4260);stroke-width:1.00000024;stroke-linecap:round;stroke-linejoin:round;stroke-miterlimit:4;stroke-opacity:1;stroke-dasharray:none"
                 d="m 11.642515,8.4157227 c -0.601692,0 -0.992791,0.2793586 -1.233466,0.8122873 -10e-7,0 -6.4150149,16.590722 -6.4150149,16.590722 0,0 -0.2406768,0.646515 -0.2406768,1.714823 0,0 0,9.290096 0,9.290096 0,1.35474 0.4440561,1.626899 1.5944841,1.626899 l 37.6869046,0 c 1.323126,0 1.534316,-0.316397 1.534316,-1.837492 l 0,-9.290096 c 0,0 0.10201,-0.741691 -0.09025,-1.263553 L 37.885616,9.2534336 C 37.707973,8.7606171 37.334964,8.427184 36.865071,8.4157227 l -25.222556,0 z"
                 id="svg1.path4252" />
              <path
                 style="fill:none;stroke:#ffffff;stroke-width:1.00000048px;stroke-linecap:square;stroke-linejoin:miter;stroke-opacity:0.42372885"
                 d="m 40.5,31.429166 0,5.020935"
                 id="svg1.path4282" />
              <path
                 style="fill:none;stroke:#ffffff;stroke-width:1.00000048px;stroke-linecap:square;stroke-linejoin:miter;stroke-opacity:0.42372885"
                 d="m 38.5,31.488943 0,5.020935"
                 id="svg1.path4284" />
              <path
                 style="fill:none;stroke:#ffffff;stroke-width:1.00000048px;stroke-linecap:square;stroke-linejoin:miter;stroke-opacity:0.42372885"
                 d="m 36.5,31.488943 0,5.020935"
                 id="svg1.path4286" />
              <path
                 style="fill:none;stroke:#ffffff;stroke-width:1.00000048px;stroke-linecap:square;stroke-linejoin:miter;stroke-opacity:0.42372885"
                 d="m 34.5,31.488943 0,5.020935"
                 id="svg1.path4288" />
              <path
                 style="fill:none;stroke:#ffffff;stroke-width:1.00000048px;stroke-linecap:square;stroke-linejoin:miter;stroke-opacity:0.42372885"
                 d="m 32.5,31.488943 0,5.020935"
                 id="svg1.path4290" />
              <path
                 style="fill:none;stroke:#ffffff;stroke-width:1.00000048px;stroke-linecap:square;stroke-linejoin:miter;stroke-opacity:0.42372885"
                 d="m 30.5,31.488943 0,5.020935"
                 id="svg1.path4292" />
              <path
                 style="opacity:0.09714284;fill:none;stroke:#000000;stroke-width:1.00000048px;stroke-linecap:square;stroke-linejoin:miter;stroke-opacity:1"
                 d="M 39.5,31.479065 39.5,36.5"
                 id="svg1.path4294" />
              <path
                 style="opacity:0.09714284;fill:none;stroke:#000000;stroke-width:1.00000048px;stroke-linecap:square;stroke-linejoin:miter;stroke-opacity:1"
                 d="m 37.5,31.538842 0,5.020935"
                 id="svg1.path4296" />
              <path
                 style="opacity:0.09714284;fill:none;stroke:#000000;stroke-width:1.00000048px;stroke-linecap:square;stroke-linejoin:miter;stroke-opacity:1"
                 d="m 35.5,31.538842 0,5.020935"
                 id="svg1.path4298" />
              <path
                 style="opacity:0.09714284;fill:none;stroke:#000000;stroke-width:1.00000048px;stroke-linecap:square;stroke-linejoin:miter;stroke-opacity:1"
                 d="m 33.5,31.538842 0,5.020935"
                 id="svg1.path4300" />
              <path
                 style="opacity:0.09714284;fill:none;stroke:#000000;stroke-width:1.00000048px;stroke-linecap:square;stroke-linejoin:miter;stroke-opacity:1"
                 d="m 31.5,31.538842 0,5.020935"
                 id="svg1.path4302" />
              <path
                 style="opacity:0.43999999;fill:#ffffff;fill-opacity:1;fill-rule:evenodd;stroke:none"
                 d="m 7.875,31.1875 0,5.53125 12.5625,0 L 8.21875,36.375 7.875,31.1875 z"
                 id="svg1.path4572" />
              <path
                 d="m 39.875,19.5625 c 0,3.693404 -6.659764,6.6875 -14.875,6.6875 -8.215236,0 -14.875,-2.994096 -14.875,-6.6875 0,-3.693404 6.659764,-6.6875 14.875,-6.6875 8.215236,0 14.875,2.994096 14.875,6.6875 z"
                 id="svg1.path2545"
                 style="opacity:0.20571427;fill:url(#svg1.linearGradient2553);fill-opacity:1;fill-rule:evenodd;stroke:none;stroke-width:0.93365198;marker:none;visibility:visible;display:inline;overflow:visible"
                 transform="matrix(1.037815,0,0,1.060747,-1.632878,-2.094626)" />
            </g>
          </g>
        </svg>
      </g>
    </g>
    <g
       id="arrow_1"
       inkscape:label="#g7345">
      <path
         transform="translate(-347,-269)"
         d="m 559.5,390 h 323"
         clip-path="url(#clipPath2)"
         id="path7298"
         inkscape:connector-curvature="0"
         style="fill:none;stroke-linecap:butt;stroke-miterlimit:1.45000005;shape-rendering:geometricPrecision;text-rendering:geometricPrecision" />
      <path
         transform="translate(-347,-269)"
         d="m 890.5,390 -12,-5 3,5 -3,5 z"
         clip-path="url(#clipPath2)"
         id="path7300"
         inkscape:connector-curvature="0"
         style="stroke:none;stroke-linecap:butt;stroke-miterlimit:1.45000005;shape-rendering:geometricPrecision;text-rendering:geometricPrecision" />
    </g>
    <g
       id="arrow_2"
       inkscape:label="#g7349">
      <path
         transform="translate(-347,-269)"
         d="m 989,435 v 51.9913"
         clip-path="url(#clipPath2)"
         id="path7302"
         inkscape:connector-curvature="0"
         style="fill:none;stroke-linecap:butt;stroke-miterlimit:1.45000005;shape-rendering:geometricPrecision;text-rendering:geometricPrecision" />
      <path
         transform="translate(-347,-269)"
         d="m 989,494.9913 5,-12 -5,3 -5,-3 z"
         clip-path="url(#clipPath2)"
         id="path7304"
         inkscape:connector-curvature="0"
         style="stroke:none;stroke-linecap:butt;stroke-miterlimit:1.45000005;shape-rendering:geometricPrecision;text-rendering:geometricPrecision" />
    </g>
  </g>
</svg>
