<?xml version="1.0" encoding="UTF-8"?><svg xmlns="http://www.w3.org/2000/svg" xmlns:xlink="http://www.w3.org/1999/xlink" fill-opacity="1" color-rendering="auto" color-interpolation="auto" text-rendering="auto" stroke="black" stroke-linecap="square" width="286" stroke-miterlimit="10" shape-rendering="auto" stroke-opacity="1" fill="black" stroke-dasharray="none" font-weight="normal" stroke-width="1" height="248" font-family="'Dialog'" font-style="normal" stroke-linejoin="miter" font-size="12px" stroke-dashoffset="0" image-rendering="auto">
  <!--Generated by ySVG 2.5-->
  <defs id="genericDefs"/>
  <g>
    <defs id="defs1">
      <clipPath clipPathUnits="userSpaceOnUse" id="clipPath1">
        <path d="M0 0 L286 0 L286 248 L0 248 L0 0 Z"/>
      </clipPath>
      <clipPath clipPathUnits="userSpaceOnUse" id="clipPath2">
        <path d="M-70 -146 L216 -146 L216 102 L-70 102 L-70 -146 Z"/>
      </clipPath>
    </defs>
    <g fill="silver" text-rendering="geometricPrecision" shape-rendering="geometricPrecision" transform="matrix(1,0,0,1,70,146)" stroke="silver">
      <rect x="-54.6667" width="255.3733" height="46.64" y="-131" clip-path="url(#clipPath2)" stroke="none"/>
    </g>
    <g stroke-linecap="butt" transform="matrix(1,0,0,1,70,146)" fill="white" text-rendering="geometricPrecision" shape-rendering="geometricPrecision" stroke="white" stroke-miterlimit="1.45">
      <rect fill="none" x="-54.6667" width="255.3733" height="46.64" y="-131" clip-path="url(#clipPath2)"/>
    </g>
    <g font-size="16px" stroke-linecap="butt" transform="matrix(1,0,0,1,70,146)" text-rendering="geometricPrecision" font-family="sans-serif" shape-rendering="geometricPrecision" stroke-miterlimit="1.45">
      <text x="-47.7847" xml:space="preserve" y="-102.1409" clip-path="url(#clipPath2)" stroke="none">Systèmes de fichiers exportés</text>
    </g>
    <g fill="silver" text-rendering="geometricPrecision" shape-rendering="geometricPrecision" transform="matrix(1,0,0,1,70,146)" stroke="silver">
      <rect x="-54.6667" width="255.3733" height="46.64" y="-45.584" clip-path="url(#clipPath2)" stroke="none"/>
    </g>
    <g stroke-linecap="butt" transform="matrix(1,0,0,1,70,146)" fill="white" text-rendering="geometricPrecision" shape-rendering="geometricPrecision" stroke="white" stroke-miterlimit="1.45">
      <rect fill="none" x="-54.6667" width="255.3733" height="46.64" y="-45.584" clip-path="url(#clipPath2)"/>
    </g>
    <g font-size="16px" stroke-linecap="butt" transform="matrix(1,0,0,1,70,146)" text-rendering="geometricPrecision" font-family="sans-serif" shape-rendering="geometricPrecision" stroke-miterlimit="1.45">
      <text x="-13.9487" xml:space="preserve" y="-16.7249" clip-path="url(#clipPath2)" stroke="none">Options d'exportation</text>
    </g>
    <g fill="silver" text-rendering="geometricPrecision" shape-rendering="geometricPrecision" transform="matrix(1,0,0,1,70,146)" stroke="silver">
      <rect x="-54.6667" width="255.3733" height="46.64" y="39.832" clip-path="url(#clipPath2)" stroke="none"/>
    </g>
    <g stroke-linecap="butt" transform="matrix(1,0,0,1,70,146)" fill="white" text-rendering="geometricPrecision" shape-rendering="geometricPrecision" stroke="white" stroke-miterlimit="1.45">
      <rect fill="none" x="-54.6667" width="255.3733" height="46.64" y="39.832" clip-path="url(#clipPath2)"/>
    </g>
    <g font-size="16px" stroke-linecap="butt" transform="matrix(1,0,0,1,70,146)" text-rendering="geometricPrecision" font-family="sans-serif" shape-rendering="geometricPrecision" stroke-miterlimit="1.45">
      <text x="-14.3081" xml:space="preserve" y="68.6911" clip-path="url(#clipPath2)" stroke="none">Options d'importation</text>
    </g>
    <g stroke-linecap="butt" transform="matrix(1,0,0,1,70,146)" fill="white" text-rendering="geometricPrecision" shape-rendering="geometricPrecision" stroke="white" stroke-miterlimit="1.45">
      <path fill="none" d="M73.02 -84.36 L73.02 -53.584" clip-path="url(#clipPath2)"/>
      <path d="M73.02 -45.584 L78.02 -57.584 L73.02 -54.584 L68.02 -57.584 Z" clip-path="url(#clipPath2)" stroke="none"/>
      <path fill="none" d="M73.02 1.056 L73.02 31.832" clip-path="url(#clipPath2)"/>
      <path d="M73.02 39.832 L78.02 27.832 L73.02 30.832 L68.02 27.832 Z" clip-path="url(#clipPath2)" stroke="none"/>
    </g>
  </g>
</svg>
