<?xml version="1.0" encoding="UTF-8" standalone="no"?>
<!-- Created with Inkscape (http://www.inkscape.org/) -->

<svg
   xmlns:dc="http://purl.org/dc/elements/1.1/"
   xmlns:cc="http://creativecommons.org/ns#"
   xmlns:rdf="http://www.w3.org/1999/02/22-rdf-syntax-ns#"
   xmlns:svg="http://www.w3.org/2000/svg"
   xmlns="http://www.w3.org/2000/svg"
   xmlns:xlink="http://www.w3.org/1999/xlink"
   xmlns:sodipodi="http://sodipodi.sourceforge.net/DTD/sodipodi-0.dtd"
   xmlns:inkscape="http://www.inkscape.org/namespaces/inkscape"
   width="703.43481"
   height="391.02197"
   viewBox="0 0 703.43477 391.02198"
   id="svg20623"
   version="1.1"
   inkscape:version="0.91 r13725"
   sodipodi:docname="lvm_agrandissement.svg">
  <defs
     id="defs20625">
    <radialGradient
       gradientTransform="scale(1.164226,0.85894)"
       gradientUnits="userSpaceOnUse"
       xlink:href="#linearGradient2456"
       id="radialGradient18302"
       fy="47.400623"
       fx="28.283663"
       r="13.804391"
       cy="47.400623"
       cx="28.283663" />
    <linearGradient
       id="linearGradient2456">
      <stop
         offset="0"
         style="stop-color:#000000;stop-opacity:1"
         id="stop2458" />
      <stop
         offset="1"
         style="stop-color:#000000;stop-opacity:0"
         id="stop2460" />
    </linearGradient>
    <linearGradient
       gradientTransform="matrix(2.3931406,0,0,1.2167111,10.086181,-9.1255997)"
       gradientUnits="userSpaceOnUse"
       xlink:href="#aigrd11"
       id="linearGradient18304"
       y2="33.016045"
       x2="-14.360273"
       y1="18.516047"
       x1="-22.976406" />
    <linearGradient
       gradientUnits="userSpaceOnUse"
       id="aigrd11"
       y2="92.612297"
       x2="124.8197"
       y1="75.109901"
       x1="105.0923">
      <stop
         offset="0"
         style="stop-color:#3fa6cc;stop-opacity:1"
         id="stop12981" />
      <stop
         offset="1"
         style="stop-color:#00687a;stop-opacity:1"
         id="stop12983" />
    </linearGradient>
    <radialGradient
       gradientTransform="scale(1.164226,0.85894)"
       gradientUnits="userSpaceOnUse"
       xlink:href="#linearGradient2456"
       id="radialGradient18302-9"
       fy="47.400623"
       fx="28.283663"
       r="13.804391"
       cy="47.400623"
       cx="28.283663" />
    <linearGradient
       gradientTransform="matrix(2.3931406,0,0,1.2167111,10.086181,-9.1255997)"
       gradientUnits="userSpaceOnUse"
       xlink:href="#aigrd11"
       id="linearGradient18304-4"
       y2="33.016045"
       x2="-14.360273"
       y1="18.516047"
       x1="-22.976406" />
    <radialGradient
       gradientTransform="scale(1.164226,0.85894)"
       gradientUnits="userSpaceOnUse"
       xlink:href="#linearGradient2456"
       id="radialGradient18302-9-1"
       fy="47.400623"
       fx="28.283663"
       r="13.804391"
       cy="47.400623"
       cx="28.283663" />
    <linearGradient
       gradientTransform="matrix(2.3931406,0,0,1.2167111,10.086181,-9.1255997)"
       gradientUnits="userSpaceOnUse"
       xlink:href="#aigrd11"
       id="linearGradient18304-4-1"
       y2="33.016045"
       x2="-14.360273"
       y1="18.516047"
       x1="-22.976406" />
    <radialGradient
       gradientTransform="scale(1.164226,0.85894)"
       gradientUnits="userSpaceOnUse"
       xlink:href="#linearGradient2456"
       id="radialGradient18302-9-1-6"
       fy="47.400623"
       fx="28.283663"
       r="13.804391"
       cy="47.400623"
       cx="28.283663" />
    <linearGradient
       gradientTransform="matrix(2.3931406,0,0,1.2167111,10.086181,-9.1255997)"
       gradientUnits="userSpaceOnUse"
       xlink:href="#aigrd11"
       id="linearGradient18304-4-1-4"
       y2="33.016045"
       x2="-14.360273"
       y1="18.516047"
       x1="-22.976406" />
    <radialGradient
       gradientTransform="scale(1.164226,0.85894)"
       gradientUnits="userSpaceOnUse"
       xlink:href="#linearGradient2456"
       id="radialGradient18302-9-1-0"
       fy="47.400623"
       fx="28.283663"
       r="13.804391"
       cy="47.400623"
       cx="28.283663" />
    <linearGradient
       gradientTransform="matrix(2.3931406,0,0,1.2167111,10.086181,-9.1255997)"
       gradientUnits="userSpaceOnUse"
       xlink:href="#aigrd11"
       id="linearGradient18304-4-1-0"
       y2="33.016045"
       x2="-14.360273"
       y1="18.516047"
       x1="-22.976406" />
    <radialGradient
       gradientTransform="scale(1.164226,0.85894)"
       gradientUnits="userSpaceOnUse"
       xlink:href="#linearGradient2456"
       id="radialGradient18302-9-1-4"
       fy="47.400623"
       fx="28.283663"
       r="13.804391"
       cy="47.400623"
       cx="28.283663" />
    <linearGradient
       gradientTransform="matrix(2.3931406,0,0,1.2167111,10.086181,-9.1255997)"
       gradientUnits="userSpaceOnUse"
       xlink:href="#aigrd11"
       id="linearGradient18304-4-1-6"
       y2="33.016045"
       x2="-14.360273"
       y1="18.516047"
       x1="-22.976406" />
    <radialGradient
       gradientTransform="scale(1.164226,0.85894)"
       gradientUnits="userSpaceOnUse"
       xlink:href="#linearGradient2456"
       id="radialGradient18302-2"
       fy="47.400623"
       fx="28.283663"
       r="13.804391"
       cy="47.400623"
       cx="28.283663" />
    <linearGradient
       gradientTransform="matrix(2.3931406,0,0,1.2167111,10.086181,-9.1255997)"
       gradientUnits="userSpaceOnUse"
       xlink:href="#aigrd11"
       id="linearGradient18304-9"
       y2="33.016045"
       x2="-14.360273"
       y1="18.516047"
       x1="-22.976406" />
    <inkscape:perspective
       id="perspective23"
       inkscape:persp3d-origin="23.999998 : 16 : 1"
       inkscape:vp_z="47.999996 : 24 : 1"
       inkscape:vp_y="0 : 1000 : 0"
       inkscape:vp_x="0 : 24 : 1"
       sodipodi:type="inkscape:persp3d" />
    <linearGradient
       id="linearGradient2591">
      <stop
         id="stop2593"
         offset="0"
         style="stop-color:#73d216" />
      <stop
         id="stop2595"
         offset="1.0000000"
         style="stop-color:#4e9a06" />
    </linearGradient>
    <linearGradient
       inkscape:collect="always"
       id="linearGradient8650">
      <stop
         style="stop-color:#ffffff;stop-opacity:1;"
         offset="0"
         id="stop8652" />
      <stop
         style="stop-color:#ffffff;stop-opacity:0;"
         offset="1"
         id="stop8654" />
    </linearGradient>
    <radialGradient
       inkscape:collect="always"
       xlink:href="#linearGradient8650"
       id="radialGradient8656"
       cx="19.701141"
       cy="2.8969381"
       fx="19.701141"
       fy="2.8969381"
       r="17.171415"
       gradientTransform="matrix(2.046729,0,0,1.55761,-19.51799,3.452086)"
       gradientUnits="userSpaceOnUse" />
    <radialGradient
       inkscape:collect="always"
       xlink:href="#linearGradient2456"
       id="radialGradient8668"
       cx="24.837126"
       cy="36.421127"
       fx="24.837126"
       fy="36.421127"
       r="15.644737"
       gradientTransform="matrix(1,0,0,0.536723,0,16.87306)"
       gradientUnits="userSpaceOnUse" />
    <radialGradient
       gradientUnits="userSpaceOnUse"
       gradientTransform="matrix(0.843022,0,0,1.020168,4.499298,1.381992)"
       r="16.9562"
       fy="32.797512"
       fx="22.291636"
       cy="32.797512"
       cx="22.291636"
       id="radialGradient2597"
       xlink:href="#linearGradient2591"
       inkscape:collect="always" />
    <radialGradient
       inkscape:collect="always"
       xlink:href="#linearGradient2456"
       id="radialGradient8668-3"
       cx="24.837126"
       cy="36.421127"
       fx="24.837126"
       fy="36.421127"
       r="15.644737"
       gradientTransform="matrix(1,0,0,0.536723,0,16.87306)"
       gradientUnits="userSpaceOnUse" />
    <radialGradient
       gradientUnits="userSpaceOnUse"
       gradientTransform="matrix(0.843022,0,0,1.020168,4.499298,1.381992)"
       r="16.9562"
       fy="32.797512"
       fx="22.291636"
       cy="32.797512"
       cx="22.291636"
       id="radialGradient2597-5"
       xlink:href="#linearGradient2591"
       inkscape:collect="always" />
    <radialGradient
       inkscape:collect="always"
       xlink:href="#linearGradient8650"
       id="radialGradient8656-5"
       cx="19.701141"
       cy="2.8969381"
       fx="19.701141"
       fy="2.8969381"
       r="17.171415"
       gradientTransform="matrix(2.046729,0,0,1.55761,-19.51799,3.452086)"
       gradientUnits="userSpaceOnUse" />
    <radialGradient
       inkscape:collect="always"
       xlink:href="#linearGradient2456"
       id="radialGradient8668-0"
       cx="24.837126"
       cy="36.421127"
       fx="24.837126"
       fy="36.421127"
       r="15.644737"
       gradientTransform="matrix(1,0,0,0.536723,0,16.87306)"
       gradientUnits="userSpaceOnUse" />
    <radialGradient
       gradientUnits="userSpaceOnUse"
       gradientTransform="matrix(0.843022,0,0,1.020168,4.499298,1.381992)"
       r="16.9562"
       fy="32.797512"
       fx="22.291636"
       cy="32.797512"
       cx="22.291636"
       id="radialGradient2597-7"
       xlink:href="#linearGradient2591"
       inkscape:collect="always" />
    <radialGradient
       inkscape:collect="always"
       xlink:href="#linearGradient8650"
       id="radialGradient8656-6"
       cx="19.701141"
       cy="2.8969381"
       fx="19.701141"
       fy="2.8969381"
       r="17.171415"
       gradientTransform="matrix(2.046729,0,0,1.55761,-19.51799,3.452086)"
       gradientUnits="userSpaceOnUse" />
    <radialGradient
       inkscape:collect="always"
       xlink:href="#linearGradient2456"
       id="radialGradient8668-0-8"
       cx="24.837126"
       cy="36.421127"
       fx="24.837126"
       fy="36.421127"
       r="15.644737"
       gradientTransform="matrix(1,0,0,0.536723,0,16.87306)"
       gradientUnits="userSpaceOnUse" />
    <radialGradient
       gradientUnits="userSpaceOnUse"
       gradientTransform="matrix(0.843022,0,0,1.020168,4.499298,1.381992)"
       r="16.9562"
       fy="32.797512"
       fx="22.291636"
       cy="32.797512"
       cx="22.291636"
       id="radialGradient2597-7-1"
       xlink:href="#linearGradient2591"
       inkscape:collect="always" />
    <radialGradient
       inkscape:collect="always"
       xlink:href="#linearGradient8650"
       id="radialGradient8656-6-9"
       cx="19.701141"
       cy="2.8969381"
       fx="19.701141"
       fy="2.8969381"
       r="17.171415"
       gradientTransform="matrix(2.046729,0,0,1.55761,-19.51799,3.452086)"
       gradientUnits="userSpaceOnUse" />
    <radialGradient
       inkscape:collect="always"
       xlink:href="#linearGradient2456"
       id="radialGradient8668-0-8-4"
       cx="24.837126"
       cy="36.421127"
       fx="24.837126"
       fy="36.421127"
       r="15.644737"
       gradientTransform="matrix(1,0,0,0.536723,0,16.87306)"
       gradientUnits="userSpaceOnUse" />
    <radialGradient
       gradientUnits="userSpaceOnUse"
       gradientTransform="matrix(0.843022,0,0,1.020168,4.499298,1.381992)"
       r="16.9562"
       fy="32.797512"
       fx="22.291636"
       cy="32.797512"
       cx="22.291636"
       id="radialGradient2597-7-1-4"
       xlink:href="#linearGradient2591"
       inkscape:collect="always" />
    <radialGradient
       inkscape:collect="always"
       xlink:href="#linearGradient8650"
       id="radialGradient8656-6-9-3"
       cx="19.701141"
       cy="2.8969381"
       fx="19.701141"
       fy="2.8969381"
       r="17.171415"
       gradientTransform="matrix(2.046729,0,0,1.55761,-19.51799,3.452086)"
       gradientUnits="userSpaceOnUse" />
  </defs>
  <sodipodi:namedview
     id="base"
     pagecolor="#ffffff"
     bordercolor="#666666"
     borderopacity="1.0"
     inkscape:pageopacity="0.0"
     inkscape:pageshadow="2"
     inkscape:zoom="1.0086222"
     inkscape:cx="474.23366"
     inkscape:cy="300.72738"
     inkscape:document-units="px"
     inkscape:current-layer="layer1"
     showgrid="false"
     inkscape:window-width="1920"
     inkscape:window-height="1032"
     inkscape:window-x="800"
     inkscape:window-y="23"
     inkscape:window-maximized="1"
     fit-margin-top="0"
     fit-margin-left="0"
     fit-margin-right="50"
     fit-margin-bottom="50"
     units="px" />
  <metadata
     id="metadata20628">
    <rdf:RDF>
      <cc:Work
         rdf:about="">
        <dc:format>image/svg+xml</dc:format>
        <dc:type
           rdf:resource="http://purl.org/dc/dcmitype/StillImage" />
        <dc:title></dc:title>
      </cc:Work>
    </rdf:RDF>
  </metadata>
  <g
     inkscape:label="Calque 1"
     inkscape:groupmode="layer"
     id="layer1"
     transform="translate(-38.056468,-287.14866)">
    <g
       id="sda"
       transform="translate(-0.1211358,0)">
      <g
         transform="matrix(1.1808287,0,0,1.1808287,42.322637,375.13961)"
         id="g19366">
        <g
           id="layer1-3"
           style="display:inline" />
        <g
           id="layer2"
           style="display:inline">
          <g
             transform="matrix(1.7223399,0,0,1.7223399,121.82836,7.7201135)"
             id="g18295">
            <path
               inkscape:connector-curvature="0"
               d="m 48.999998,40.714287 c 0,6.548519 -7.195424,11.857142 -16.071428,11.857142 -8.876005,0 -16.071429,-5.308623 -16.071429,-11.857142 0,-6.548519 7.195424,-11.857142 16.071428,-11.857142 8.876005,0 16.071429,5.308623 16.071429,11.857142 l 0,0 z"
               transform="matrix(2.3795895,0,0,1.2824084,-112.88539,-3.8358938)"
               id="path1693"
               style="fill:url(#radialGradient18302);fill-opacity:1;fill-rule:evenodd;stroke:none" />
            <path
               inkscape:connector-curvature="0"
               d="m 54.800776,-7.9412799 c 0,9.4702139 -23.901978,17.1473392 -53.3865625,17.1473392 -29.4845845,0 -53.3865625,-7.6771253 -53.3865625,-17.1473392 0,-9.4702141 23.901978,-17.1473391 53.3865625,-17.1473391 29.4845845,0 53.3865625,7.677125 53.3865625,17.1473391 l 0,0 z"
               transform="matrix(0.5350417,0,0,0.5350417,-35.152994,47.139656)"
               id="path11450"
               style="display:inline;fill:#003366;fill-opacity:1;fill-rule:nonzero;stroke:#003366;stroke-width:10;stroke-miterlimit:4;stroke-dasharray:none;stroke-opacity:1" />
            <rect
               width="55.815552"
               height="17.414896"
               x="-62.304111"
               y="23.003975"
               id="rect11448"
               style="fill:#003366;fill-opacity:1;fill-rule:nonzero;stroke:#003366;stroke-width:6.66293573;stroke-miterlimit:4;stroke-dasharray:none;stroke-opacity:1" />
            <path
               inkscape:connector-curvature="0"
               d="m 54.800776,-7.9412799 c 0,9.4702139 -23.901978,17.1473392 -53.3865625,17.1473392 -29.4845845,0 -53.3865625,-7.6771253 -53.3865625,-17.1473392 0,-9.4702141 23.901978,-17.1473391 53.3865625,-17.1473391 29.4845845,0 53.3865625,7.677125 53.3865625,17.1473391 l 0,0 z"
               transform="matrix(0.5350417,0,0,0.5350417,-35.152994,24.799556)"
               id="path11444"
               style="fill:#336699;fill-opacity:1;fill-rule:nonzero;stroke:#00a4ff;stroke-width:10;stroke-miterlimit:4;stroke-dasharray:none;stroke-opacity:1" />
            <path
               inkscape:connector-curvature="0"
               d="m -5.7331306,20.627303 c 0,5.342382 -12.8846504,9.67209 -28.7810944,9.67209 -15.896447,0 -28.782633,-4.329708 -28.782633,-9.67209 0,-5.342381 12.887723,-9.67209 28.782633,-9.67209 15.896444,0 28.7810944,4.329709 28.7810944,9.67209 l 0,0 z"
               id="path3935"
               style="fill:url(#linearGradient18304);fill-opacity:1;fill-rule:nonzero;stroke:none" />
          </g>
        </g>
      </g>
      <text
         sodipodi:linespacing="125%"
         id="text19469"
         y="436.84241"
         x="83.905502"
         style="font-style:normal;font-weight:normal;font-size:47.23314667px;line-height:125%;font-family:Sans;letter-spacing:0px;word-spacing:0px;fill:#000000;fill-opacity:1;stroke:none;stroke-width:1px;stroke-linecap:butt;stroke-linejoin:miter;stroke-opacity:1"
         xml:space="preserve"><tspan
           style="font-size:35.42486191px;fill:#ffffff"
           y="436.84241"
           x="83.905502"
           id="tspan19471"
           sodipodi:role="line">sda</tspan></text>
    </g>
    <g
       id="vg00">
      <g
         transform="matrix(1.1808287,0,0,1.1808287,308.0515,373.9468)"
         id="g19366-4">
        <g
           id="layer1-3-8"
           style="display:inline" />
        <g
           id="layer2-1"
           style="display:inline">
          <g
             transform="matrix(1.7223399,0,0,1.7223399,121.82836,7.7201135)"
             id="g18295-2">
            <path
               inkscape:connector-curvature="0"
               d="m 48.999998,40.714287 c 0,6.548519 -7.195424,11.857142 -16.071428,11.857142 -8.876005,0 -16.071429,-5.308623 -16.071429,-11.857142 0,-6.548519 7.195424,-11.857142 16.071428,-11.857142 8.876005,0 16.071429,5.308623 16.071429,11.857142 l 0,0 z"
               transform="matrix(2.3795895,0,0,1.2824084,-112.88539,-3.8358938)"
               id="path1693-8"
               style="fill:url(#radialGradient18302-9);fill-opacity:1;fill-rule:evenodd;stroke:none" />
            <path
               inkscape:connector-curvature="0"
               d="m 54.800776,-7.9412799 c 0,9.4702139 -23.901978,17.1473392 -53.3865625,17.1473392 -29.4845845,0 -53.3865625,-7.6771253 -53.3865625,-17.1473392 0,-9.4702141 23.901978,-17.1473391 53.3865625,-17.1473391 29.4845845,0 53.3865625,7.677125 53.3865625,17.1473391 l 0,0 z"
               transform="matrix(0.5350417,0,0,0.5350417,-35.152994,47.139656)"
               id="path11450-9"
               style="display:inline;fill:#003366;fill-opacity:1;fill-rule:nonzero;stroke:#003366;stroke-width:10;stroke-miterlimit:4;stroke-dasharray:none;stroke-opacity:1" />
            <rect
               width="55.815552"
               height="17.414896"
               x="-62.304111"
               y="23.003975"
               id="rect11448-3"
               style="fill:#003366;fill-opacity:1;fill-rule:nonzero;stroke:#003366;stroke-width:6.66293573;stroke-miterlimit:4;stroke-dasharray:none;stroke-opacity:1" />
            <path
               inkscape:connector-curvature="0"
               d="m 54.800776,-7.9412799 c 0,9.4702139 -23.901978,17.1473392 -53.3865625,17.1473392 -29.4845845,0 -53.3865625,-7.6771253 -53.3865625,-17.1473392 0,-9.4702141 23.901978,-17.1473391 53.3865625,-17.1473391 29.4845845,0 53.3865625,7.677125 53.3865625,17.1473391 l 0,0 z"
               transform="matrix(0.5350417,0,0,0.5350417,-35.152994,24.799556)"
               id="path11444-6"
               style="fill:#336699;fill-opacity:1;fill-rule:nonzero;stroke:#00a4ff;stroke-width:10;stroke-miterlimit:4;stroke-dasharray:none;stroke-opacity:1" />
            <path
               inkscape:connector-curvature="0"
               d="m -5.7331306,20.627303 c 0,5.342382 -12.8846504,9.67209 -28.7810944,9.67209 -15.896447,0 -28.782633,-4.329708 -28.782633,-9.67209 0,-5.342381 12.887723,-9.67209 28.782633,-9.67209 15.896444,0 28.7810944,4.329709 28.7810944,9.67209 l 0,0 z"
               id="path3935-8"
               style="fill:url(#linearGradient18304-4);fill-opacity:1;fill-rule:nonzero;stroke:none" />
          </g>
        </g>
      </g>
      <text
         xml:space="preserve"
         style="font-style:normal;font-weight:normal;font-size:40px;line-height:125%;font-family:Sans;letter-spacing:0px;word-spacing:0px;fill:#000000;fill-opacity:1;stroke:none;stroke-width:1px;stroke-linecap:butt;stroke-linejoin:miter;stroke-opacity:1"
         x="345.47214"
         y="431.11835"
         id="text21135"
         sodipodi:linespacing="125%"><tspan
           sodipodi:role="line"
           id="tspan21137"
           x="345.47214"
           y="431.11835"
           style="font-size:29.99999809px;fill:#ffffff">vg00</tspan></text>
    </g>
    <g
       transform="matrix(0.85486369,0,0,0.85486369,365.93486,125.00274)"
       id="home"
       inkscape:label="#home">
      <g
         transform="translate(251.7945,458.60371)"
         id="g19366-4-8">
        <g
           id="layer1-3-8-5"
           style="display:inline" />
        <g
           id="layer2-1-0"
           style="display:inline">
          <g
             transform="matrix(1.7223399,0,0,1.7223399,121.82836,7.7201135)"
             id="g18295-2-6">
            <path
               inkscape:connector-curvature="0"
               d="m 48.999998,40.714287 c 0,6.548519 -7.195424,11.857142 -16.071428,11.857142 -8.876005,0 -16.071429,-5.308623 -16.071429,-11.857142 0,-6.548519 7.195424,-11.857142 16.071428,-11.857142 8.876005,0 16.071429,5.308623 16.071429,11.857142 l 0,0 z"
               transform="matrix(2.3795895,0,0,1.2824084,-112.88539,-3.8358938)"
               id="path1693-8-4"
               style="fill:url(#radialGradient18302-9-1);fill-opacity:1;fill-rule:evenodd;stroke:none" />
            <path
               inkscape:connector-curvature="0"
               d="m 54.800776,-7.9412799 c 0,9.4702139 -23.901978,17.1473392 -53.3865625,17.1473392 -29.4845845,0 -53.3865625,-7.6771253 -53.3865625,-17.1473392 0,-9.4702141 23.901978,-17.1473391 53.3865625,-17.1473391 29.4845845,0 53.3865625,7.677125 53.3865625,17.1473391 l 0,0 z"
               transform="matrix(0.5350417,0,0,0.5350417,-35.152994,47.139656)"
               id="path11450-9-6"
               style="display:inline;fill:#003366;fill-opacity:1;fill-rule:nonzero;stroke:#003366;stroke-width:10;stroke-miterlimit:4;stroke-dasharray:none;stroke-opacity:1" />
            <rect
               width="55.815552"
               height="17.414896"
               x="-62.304111"
               y="23.003975"
               id="rect11448-3-2"
               style="fill:#003366;fill-opacity:1;fill-rule:nonzero;stroke:#003366;stroke-width:6.66293573;stroke-miterlimit:4;stroke-dasharray:none;stroke-opacity:1" />
            <path
               inkscape:connector-curvature="0"
               d="m 54.800776,-7.9412799 c 0,9.4702139 -23.901978,17.1473392 -53.3865625,17.1473392 -29.4845845,0 -53.3865625,-7.6771253 -53.3865625,-17.1473392 0,-9.4702141 23.901978,-17.1473391 53.3865625,-17.1473391 29.4845845,0 53.3865625,7.677125 53.3865625,17.1473391 l 0,0 z"
               transform="matrix(0.5350417,0,0,0.5350417,-35.152994,24.799556)"
               id="path11444-6-5"
               style="fill:#336699;fill-opacity:1;fill-rule:nonzero;stroke:#00a4ff;stroke-width:10;stroke-miterlimit:4;stroke-dasharray:none;stroke-opacity:1" />
            <path
               inkscape:connector-curvature="0"
               d="m -5.7331306,20.627303 c 0,5.342382 -12.8846504,9.67209 -28.7810944,9.67209 -15.896447,0 -28.782633,-4.329708 -28.782633,-9.67209 0,-5.342381 12.887723,-9.67209 28.782633,-9.67209 15.896444,0 28.7810944,4.329709 28.7810944,9.67209 l 0,0 z"
               id="path3935-8-8"
               style="fill:url(#linearGradient18304-4-1);fill-opacity:1;fill-rule:nonzero;stroke:none" />
          </g>
        </g>
      </g>
      <text
         xml:space="preserve"
         style="font-style:normal;font-weight:normal;font-size:40px;line-height:125%;font-family:Sans;letter-spacing:0px;word-spacing:0px;fill:#ffffff;fill-opacity:1;stroke:none;stroke-width:1px;stroke-linecap:butt;stroke-linejoin:miter;stroke-opacity:1"
         x="282.16089"
         y="506.59622"
         id="text20826"
         sodipodi:linespacing="125%"><tspan
           sodipodi:role="line"
           id="tspan20828"
           x="282.16089"
           y="506.59622"
           style="font-size:20px;fill:#ffffff">/home</tspan></text>
    </g>
    <g
       transform="matrix(0.86534934,0,0,0.86534934,362.64077,-6.4371033)"
       id="var">
      <g
         transform="translate(251.7945,458.60371)"
         id="g19366-4-8-0">
        <g
           id="layer1-3-8-5-6"
           style="display:inline" />
        <g
           id="layer2-1-0-2"
           style="display:inline">
          <g
             transform="matrix(1.7223399,0,0,1.7223399,121.82836,7.7201135)"
             id="g18295-2-6-9">
            <path
               inkscape:connector-curvature="0"
               d="m 48.999998,40.714287 c 0,6.548519 -7.195424,11.857142 -16.071428,11.857142 -8.876005,0 -16.071429,-5.308623 -16.071429,-11.857142 0,-6.548519 7.195424,-11.857142 16.071428,-11.857142 8.876005,0 16.071429,5.308623 16.071429,11.857142 l 0,0 z"
               transform="matrix(2.3795895,0,0,1.2824084,-112.88539,-3.8358938)"
               id="path1693-8-4-9"
               style="fill:url(#radialGradient18302-9-1-6);fill-opacity:1;fill-rule:evenodd;stroke:none" />
            <path
               inkscape:connector-curvature="0"
               d="m 54.800776,-7.9412799 c 0,9.4702139 -23.901978,17.1473392 -53.3865625,17.1473392 -29.4845845,0 -53.3865625,-7.6771253 -53.3865625,-17.1473392 0,-9.4702141 23.901978,-17.1473391 53.3865625,-17.1473391 29.4845845,0 53.3865625,7.677125 53.3865625,17.1473391 l 0,0 z"
               transform="matrix(0.5350417,0,0,0.5350417,-35.152994,47.139656)"
               id="path11450-9-6-0"
               style="display:inline;fill:#003366;fill-opacity:1;fill-rule:nonzero;stroke:#003366;stroke-width:10;stroke-miterlimit:4;stroke-dasharray:none;stroke-opacity:1" />
            <rect
               width="55.815552"
               height="17.414896"
               x="-62.304111"
               y="23.003975"
               id="rect11448-3-2-8"
               style="fill:#003366;fill-opacity:1;fill-rule:nonzero;stroke:#003366;stroke-width:6.66293573;stroke-miterlimit:4;stroke-dasharray:none;stroke-opacity:1" />
            <path
               inkscape:connector-curvature="0"
               d="m 54.800776,-7.9412799 c 0,9.4702139 -23.901978,17.1473392 -53.3865625,17.1473392 -29.4845845,0 -53.3865625,-7.6771253 -53.3865625,-17.1473392 0,-9.4702141 23.901978,-17.1473391 53.3865625,-17.1473391 29.4845845,0 53.3865625,7.677125 53.3865625,17.1473391 l 0,0 z"
               transform="matrix(0.5350417,0,0,0.5350417,-35.152994,24.799556)"
               id="path11444-6-5-1"
               style="fill:#336699;fill-opacity:1;fill-rule:nonzero;stroke:#00a4ff;stroke-width:10;stroke-miterlimit:4;stroke-dasharray:none;stroke-opacity:1" />
            <path
               inkscape:connector-curvature="0"
               d="m -5.7331306,20.627303 c 0,5.342382 -12.8846504,9.67209 -28.7810944,9.67209 -15.896447,0 -28.782633,-4.329708 -28.782633,-9.67209 0,-5.342381 12.887723,-9.67209 28.782633,-9.67209 15.896444,0 28.7810944,4.329709 28.7810944,9.67209 l 0,0 z"
               id="path3935-8-8-3"
               style="fill:url(#linearGradient18304-4-1-4);fill-opacity:1;fill-rule:nonzero;stroke:none" />
          </g>
        </g>
      </g>
      <text
         xml:space="preserve"
         style="font-style:normal;font-weight:normal;font-size:40px;line-height:125%;font-family:Sans;letter-spacing:0px;word-spacing:0px;fill:#ffffff;fill-opacity:1;stroke:none;stroke-width:1px;stroke-linecap:butt;stroke-linejoin:miter;stroke-opacity:1"
         x="293.23233"
         y="506.95337"
         id="text20826-1"
         sodipodi:linespacing="125%"><tspan
           sodipodi:role="line"
           id="tspan20828-1"
           x="293.23233"
           y="506.95337"
           style="font-size:20px;fill:#ffffff">/var</tspan></text>
    </g>
    <g
       transform="matrix(0.80225347,0,0,0.80225347,382.46249,-98.983728)"
       id="root">
      <g
         transform="translate(251.7945,458.60371)"
         id="g19366-4-8-98">
        <g
           id="layer1-3-8-5-7"
           style="display:inline" />
        <g
           id="layer2-1-0-28"
           style="display:inline">
          <g
             transform="matrix(1.7223399,0,0,1.7223399,121.82836,7.7201135)"
             id="g18295-2-6-2">
            <path
               inkscape:connector-curvature="0"
               d="m 48.999998,40.714287 c 0,6.548519 -7.195424,11.857142 -16.071428,11.857142 -8.876005,0 -16.071429,-5.308623 -16.071429,-11.857142 0,-6.548519 7.195424,-11.857142 16.071428,-11.857142 8.876005,0 16.071429,5.308623 16.071429,11.857142 l 0,0 z"
               transform="matrix(2.3795895,0,0,1.2824084,-112.88539,-3.8358938)"
               id="path1693-8-4-99"
               style="fill:url(#radialGradient18302-9-1-4);fill-opacity:1;fill-rule:evenodd;stroke:none" />
            <path
               inkscape:connector-curvature="0"
               d="m 54.800776,-7.9412799 c 0,9.4702139 -23.901978,17.1473392 -53.3865625,17.1473392 -29.4845845,0 -53.3865625,-7.6771253 -53.3865625,-17.1473392 0,-9.4702141 23.901978,-17.1473391 53.3865625,-17.1473391 29.4845845,0 53.3865625,7.677125 53.3865625,17.1473391 l 0,0 z"
               transform="matrix(0.5350417,0,0,0.5350417,-35.152994,47.139656)"
               id="path11450-9-6-6"
               style="display:inline;fill:#003366;fill-opacity:1;fill-rule:nonzero;stroke:#003366;stroke-width:10;stroke-miterlimit:4;stroke-dasharray:none;stroke-opacity:1" />
            <rect
               width="55.815552"
               height="17.414896"
               x="-62.304111"
               y="23.003975"
               id="rect11448-3-2-0"
               style="fill:#003366;fill-opacity:1;fill-rule:nonzero;stroke:#003366;stroke-width:6.66293573;stroke-miterlimit:4;stroke-dasharray:none;stroke-opacity:1" />
            <path
               inkscape:connector-curvature="0"
               d="m 54.800776,-7.9412799 c 0,9.4702139 -23.901978,17.1473392 -53.3865625,17.1473392 -29.4845845,0 -53.3865625,-7.6771253 -53.3865625,-17.1473392 0,-9.4702141 23.901978,-17.1473391 53.3865625,-17.1473391 29.4845845,0 53.3865625,7.677125 53.3865625,17.1473391 l 0,0 z"
               transform="matrix(0.5350417,0,0,0.5350417,-35.152994,24.799556)"
               id="path11444-6-5-2"
               style="fill:#336699;fill-opacity:1;fill-rule:nonzero;stroke:#00a4ff;stroke-width:10;stroke-miterlimit:4;stroke-dasharray:none;stroke-opacity:1" />
            <path
               inkscape:connector-curvature="0"
               d="m -5.7331306,20.627303 c 0,5.342382 -12.8846504,9.67209 -28.7810944,9.67209 -15.896447,0 -28.782633,-4.329708 -28.782633,-9.67209 0,-5.342381 12.887723,-9.67209 28.782633,-9.67209 15.896444,0 28.7810944,4.329709 28.7810944,9.67209 l 0,0 z"
               id="path3935-8-8-7"
               style="fill:url(#linearGradient18304-4-1-6);fill-opacity:1;fill-rule:nonzero;stroke:none" />
          </g>
        </g>
      </g>
      <text
         xml:space="preserve"
         style="font-style:normal;font-weight:normal;font-size:40px;line-height:125%;font-family:Sans;letter-spacing:0px;word-spacing:0px;fill:#ffffff;fill-opacity:1;stroke:none;stroke-width:1px;stroke-linecap:butt;stroke-linejoin:miter;stroke-opacity:1"
         x="310.01804"
         y="508.02478"
         id="text20826-6"
         sodipodi:linespacing="125%"><tspan
           sodipodi:role="line"
           id="tspan20828-13"
           x="310.01804"
           y="508.02478"
           style="font-size:20px;fill:#ffffff">/</tspan></text>
    </g>
    <g
       id="layer1-37"
       inkscape:label="Layer 1"
       transform="matrix(1.6105813,0,0,1.6105813,213.65524,409.78356)">
      <ellipse
         style="color:#000000;display:inline;overflow:visible;visibility:visible;opacity:0.29946522;fill:url(#radialGradient8668);fill-opacity:1;fill-rule:evenodd;stroke:none;stroke-width:1;stroke-linecap:butt;stroke-linejoin:miter;stroke-miterlimit:10;stroke-dasharray:none;stroke-dashoffset:0;stroke-opacity:1;marker:none;marker-start:none;marker-mid:none;marker-end:none"
         id="path8660"
         transform="matrix(1.271186,0,0,1.271186,-8.119376,-15.10179)"
         cx="24.837126"
         cy="36.421127"
         rx="15.644737"
         ry="8.3968935" />
      <path
         style="color:#000000;display:inline;overflow:visible;visibility:visible;opacity:1;fill:url(#radialGradient2597);fill-opacity:1;fill-rule:evenodd;stroke:#3a7304;stroke-width:1.00000036;stroke-linecap:round;stroke-linejoin:round;stroke-miterlimit:10;stroke-dasharray:none;stroke-dashoffset:0;stroke-opacity:1;marker:none;marker-start:none;marker-mid:none;marker-end:none"
         d="m 8.5541875,15.517348 0,16.99442 12.9838125,0 0,8.545038 L 41.497835,24.150365 21.41919,7.1251168 l 0,8.3975352 -12.8650025,-0.0053 z"
         id="path8643"
         sodipodi:nodetypes="cccccccc"
         inkscape:connector-curvature="0" />
      <path
         style="color:#000000;display:inline;overflow:visible;visibility:visible;opacity:0.5080214;fill:url(#radialGradient8656);fill-opacity:1;fill-rule:evenodd;stroke:none;stroke-width:1;stroke-linecap:round;stroke-linejoin:round;stroke-miterlimit:10;stroke-dasharray:none;stroke-dashoffset:0;stroke-opacity:1;marker:none;marker-start:none;marker-mid:none;marker-end:none"
         d="m 21.962385,8.2485033 0,7.8064747 -12.8171699,0 0,9.040713 c 17.7499999,2 16.6335369,-7.455288 31.3835369,-0.955288 L 21.962385,8.2485033 Z"
         id="path8645"
         sodipodi:nodetypes="cccccc"
         inkscape:connector-curvature="0" />
      <path
         sodipodi:nodetypes="cccccccc"
         id="path8658"
         d="m 9.537702,16.561892 0,14.98444 12.985367,0 0,7.395166 17.478014,-14.795691 -17.493975,-14.7804004 0,7.2013824 -12.969406,-0.0049 z"
         style="color:#000000;display:inline;overflow:visible;visibility:visible;opacity:0.48128339;fill:none;fill-opacity:1;fill-rule:evenodd;stroke:#ffffff;stroke-width:1.00000036;stroke-linecap:butt;stroke-linejoin:miter;stroke-miterlimit:10;stroke-dasharray:none;stroke-dashoffset:0;stroke-opacity:1;marker:none;marker-start:none;marker-mid:none;marker-end:none"
         inkscape:connector-curvature="0" />
    </g>
    <g
       id="sdb">
      <g
         id="g21197-4"
         transform="translate(-0.1211358,114.60226)">
        <g
           id="g19366-9"
           transform="matrix(1.1808287,0,0,1.1808287,42.322637,375.13961)">
          <g
             style="display:inline"
             id="layer1-3-1" />
          <g
             style="display:inline"
             id="layer2-0">
            <g
               id="g18295-7"
               transform="matrix(1.7223399,0,0,1.7223399,121.82836,7.7201135)">
              <path
                 style="fill:url(#radialGradient18302-2);fill-opacity:1;fill-rule:evenodd;stroke:none"
                 id="path1693-5"
                 transform="matrix(2.3795895,0,0,1.2824084,-112.88539,-3.8358938)"
                 d="m 48.999998,40.714287 c 0,6.548519 -7.195424,11.857142 -16.071428,11.857142 -8.876005,0 -16.071429,-5.308623 -16.071429,-11.857142 0,-6.548519 7.195424,-11.857142 16.071428,-11.857142 8.876005,0 16.071429,5.308623 16.071429,11.857142 l 0,0 z"
                 inkscape:connector-curvature="0" />
              <path
                 style="display:inline;fill:#003366;fill-opacity:1;fill-rule:nonzero;stroke:#003366;stroke-width:10;stroke-miterlimit:4;stroke-dasharray:none;stroke-opacity:1"
                 id="path11450-8"
                 transform="matrix(0.5350417,0,0,0.5350417,-35.152994,47.139656)"
                 d="m 54.800776,-7.9412799 c 0,9.4702139 -23.901978,17.1473392 -53.3865625,17.1473392 -29.4845845,0 -53.3865625,-7.6771253 -53.3865625,-17.1473392 0,-9.4702141 23.901978,-17.1473391 53.3865625,-17.1473391 29.4845845,0 53.3865625,7.677125 53.3865625,17.1473391 l 0,0 z"
                 inkscape:connector-curvature="0" />
              <rect
                 style="fill:#003366;fill-opacity:1;fill-rule:nonzero;stroke:#003366;stroke-width:6.66293573;stroke-miterlimit:4;stroke-dasharray:none;stroke-opacity:1"
                 id="rect11448-7"
                 y="23.003975"
                 x="-62.304111"
                 height="17.414896"
                 width="55.815552" />
              <path
                 style="fill:#336699;fill-opacity:1;fill-rule:nonzero;stroke:#00a4ff;stroke-width:10;stroke-miterlimit:4;stroke-dasharray:none;stroke-opacity:1"
                 id="path11444-0"
                 transform="matrix(0.5350417,0,0,0.5350417,-35.152994,24.799556)"
                 d="m 54.800776,-7.9412799 c 0,9.4702139 -23.901978,17.1473392 -53.3865625,17.1473392 -29.4845845,0 -53.3865625,-7.6771253 -53.3865625,-17.1473392 0,-9.4702141 23.901978,-17.1473391 53.3865625,-17.1473391 29.4845845,0 53.3865625,7.677125 53.3865625,17.1473391 l 0,0 z"
                 inkscape:connector-curvature="0" />
              <path
                 style="fill:url(#linearGradient18304-9);fill-opacity:1;fill-rule:nonzero;stroke:none"
                 id="path3935-4"
                 d="m -5.7331306,20.627303 c 0,5.342382 -12.8846504,9.67209 -28.7810944,9.67209 -15.896447,0 -28.782633,-4.329708 -28.782633,-9.67209 0,-5.342381 12.887723,-9.67209 28.782633,-9.67209 15.896444,0 28.7810944,4.329709 28.7810944,9.67209 l 0,0 z"
                 inkscape:connector-curvature="0" />
            </g>
          </g>
        </g>
        <text
           xml:space="preserve"
           style="font-style:normal;font-weight:normal;font-size:47.23314667px;line-height:125%;font-family:Sans;letter-spacing:0px;word-spacing:0px;fill:#000000;fill-opacity:1;stroke:none;stroke-width:1px;stroke-linecap:butt;stroke-linejoin:miter;stroke-opacity:1"
           x="83.905502"
           y="436.84241"
           id="text19469-8"
           sodipodi:linespacing="125%"><tspan
             sodipodi:role="line"
             id="tspan19471-0"
             x="83.905502"
             y="436.84241"
             style="font-size:35.42486191px;fill:#ffffff">sdb</tspan></text>
      </g>
      <g
         transform="matrix(1.4756072,-0.64541103,0.64541103,1.4756072,202.59965,504.57622)"
         inkscape:label="Layer 1"
         id="layer1-37-9">
        <ellipse
           ry="8.3968935"
           rx="15.644737"
           cy="36.421127"
           cx="24.837126"
           transform="matrix(1.271186,0,0,1.271186,-8.119376,-15.10179)"
           id="path8660-6"
           style="color:#000000;display:inline;overflow:visible;visibility:visible;opacity:0.29946522;fill:url(#radialGradient8668-3);fill-opacity:1;fill-rule:evenodd;stroke:none;stroke-width:1;stroke-linecap:butt;stroke-linejoin:miter;stroke-miterlimit:10;stroke-dasharray:none;stroke-dashoffset:0;stroke-opacity:1;marker:none;marker-start:none;marker-mid:none;marker-end:none" />
        <path
           inkscape:connector-curvature="0"
           sodipodi:nodetypes="cccccccc"
           id="path8643-0"
           d="m 8.5541875,15.517348 0,16.99442 12.9838125,0 0,8.545038 L 41.497835,24.150365 21.41919,7.1251168 l 0,8.3975352 -12.8650025,-0.0053 z"
           style="color:#000000;display:inline;overflow:visible;visibility:visible;opacity:1;fill:url(#radialGradient2597-5);fill-opacity:1;fill-rule:evenodd;stroke:#3a7304;stroke-width:1.00000036;stroke-linecap:round;stroke-linejoin:round;stroke-miterlimit:10;stroke-dasharray:none;stroke-dashoffset:0;stroke-opacity:1;marker:none;marker-start:none;marker-mid:none;marker-end:none" />
        <path
           inkscape:connector-curvature="0"
           sodipodi:nodetypes="cccccc"
           id="path8645-4"
           d="m 21.962385,8.2485033 0,7.8064747 -12.8171699,0 0,9.040713 c 17.7499999,2 16.6335369,-7.455288 31.3835369,-0.955288 L 21.962385,8.2485033 Z"
           style="color:#000000;display:inline;overflow:visible;visibility:visible;opacity:0.5080214;fill:url(#radialGradient8656-5);fill-opacity:1;fill-rule:evenodd;stroke:none;stroke-width:1;stroke-linecap:round;stroke-linejoin:round;stroke-miterlimit:10;stroke-dasharray:none;stroke-dashoffset:0;stroke-opacity:1;marker:none;marker-start:none;marker-mid:none;marker-end:none" />
        <path
           inkscape:connector-curvature="0"
           style="color:#000000;display:inline;overflow:visible;visibility:visible;opacity:0.48128339;fill:none;fill-opacity:1;fill-rule:evenodd;stroke:#ffffff;stroke-width:1.00000036;stroke-linecap:butt;stroke-linejoin:miter;stroke-miterlimit:10;stroke-dasharray:none;stroke-dashoffset:0;stroke-opacity:1;marker:none;marker-start:none;marker-mid:none;marker-end:none"
           d="m 9.537702,16.561892 0,14.98444 12.985367,0 0,7.395166 17.478014,-14.795691 -17.493975,-14.7804004 0,7.2013824 -12.969406,-0.0049 z"
           id="path8658-1"
           sodipodi:nodetypes="cccccccc" />
      </g>
    </g>
    <g
       id="layer1-37-7"
       inkscape:label="Layer 1"
       transform="matrix(1.6105813,0,0,1.6105813,477.22667,411.16643)">
      <ellipse
         style="color:#000000;display:inline;overflow:visible;visibility:visible;opacity:0.29946522;fill:url(#radialGradient8668-0);fill-opacity:1;fill-rule:evenodd;stroke:none;stroke-width:1;stroke-linecap:butt;stroke-linejoin:miter;stroke-miterlimit:10;stroke-dasharray:none;stroke-dashoffset:0;stroke-opacity:1;marker:none;marker-start:none;marker-mid:none;marker-end:none"
         id="path8660-9"
         transform="matrix(1.271186,0,0,1.271186,-8.119376,-15.10179)"
         cx="24.837126"
         cy="36.421127"
         rx="15.644737"
         ry="8.3968935" />
      <path
         style="color:#000000;display:inline;overflow:visible;visibility:visible;opacity:1;fill:url(#radialGradient2597-7);fill-opacity:1;fill-rule:evenodd;stroke:#3a7304;stroke-width:1.00000036;stroke-linecap:round;stroke-linejoin:round;stroke-miterlimit:10;stroke-dasharray:none;stroke-dashoffset:0;stroke-opacity:1;marker:none;marker-start:none;marker-mid:none;marker-end:none"
         d="m 8.5541875,15.517348 0,16.99442 12.9838125,0 0,8.545038 L 41.497835,24.150365 21.41919,7.1251168 l 0,8.3975352 -12.8650025,-0.0053 z"
         id="path8643-3"
         sodipodi:nodetypes="cccccccc"
         inkscape:connector-curvature="0" />
      <path
         style="color:#000000;display:inline;overflow:visible;visibility:visible;opacity:0.5080214;fill:url(#radialGradient8656-6);fill-opacity:1;fill-rule:evenodd;stroke:none;stroke-width:1;stroke-linecap:round;stroke-linejoin:round;stroke-miterlimit:10;stroke-dasharray:none;stroke-dashoffset:0;stroke-opacity:1;marker:none;marker-start:none;marker-mid:none;marker-end:none"
         d="m 21.962385,8.2485033 0,7.8064747 -12.8171699,0 0,9.040713 c 17.7499999,2 16.6335369,-7.455288 31.3835369,-0.955288 L 21.962385,8.2485033 Z"
         id="path8645-9"
         sodipodi:nodetypes="cccccc"
         inkscape:connector-curvature="0" />
      <path
         sodipodi:nodetypes="cccccccc"
         id="path8658-2"
         d="m 9.537702,16.561892 0,14.98444 12.985367,0 0,7.395166 17.478014,-14.795691 -17.493975,-14.7804004 0,7.2013824 -12.969406,-0.0049 z"
         style="color:#000000;display:inline;overflow:visible;visibility:visible;opacity:0.48128339;fill:none;fill-opacity:1;fill-rule:evenodd;stroke:#ffffff;stroke-width:1.00000036;stroke-linecap:butt;stroke-linejoin:miter;stroke-miterlimit:10;stroke-dasharray:none;stroke-dashoffset:0;stroke-opacity:1;marker:none;marker-start:none;marker-mid:none;marker-end:none"
         inkscape:connector-curvature="0" />
    </g>
    <g
       id="layer1-37-7-4"
       inkscape:label="Layer 1"
       transform="matrix(1.3688874,-0.84859854,0.84859854,1.3688874,455.17574,355.50077)">
      <ellipse
         style="color:#000000;display:inline;overflow:visible;visibility:visible;opacity:0.29946522;fill:url(#radialGradient8668-0-8);fill-opacity:1;fill-rule:evenodd;stroke:none;stroke-width:1;stroke-linecap:butt;stroke-linejoin:miter;stroke-miterlimit:10;stroke-dasharray:none;stroke-dashoffset:0;stroke-opacity:1;marker:none;marker-start:none;marker-mid:none;marker-end:none"
         id="path8660-9-9"
         transform="matrix(1.271186,0,0,1.271186,-8.119376,-15.10179)"
         cx="24.837126"
         cy="36.421127"
         rx="15.644737"
         ry="8.3968935" />
      <path
         style="color:#000000;display:inline;overflow:visible;visibility:visible;opacity:1;fill:url(#radialGradient2597-7-1);fill-opacity:1;fill-rule:evenodd;stroke:#3a7304;stroke-width:1.00000036;stroke-linecap:round;stroke-linejoin:round;stroke-miterlimit:10;stroke-dasharray:none;stroke-dashoffset:0;stroke-opacity:1;marker:none;marker-start:none;marker-mid:none;marker-end:none"
         d="m 8.5541875,15.517348 0,16.99442 12.9838125,0 0,8.545038 L 41.497835,24.150365 21.41919,7.1251168 l 0,8.3975352 -12.8650025,-0.0053 z"
         id="path8643-3-2"
         sodipodi:nodetypes="cccccccc"
         inkscape:connector-curvature="0" />
      <path
         style="color:#000000;display:inline;overflow:visible;visibility:visible;opacity:0.5080214;fill:url(#radialGradient8656-6-9);fill-opacity:1;fill-rule:evenodd;stroke:none;stroke-width:1;stroke-linecap:round;stroke-linejoin:round;stroke-miterlimit:10;stroke-dasharray:none;stroke-dashoffset:0;stroke-opacity:1;marker:none;marker-start:none;marker-mid:none;marker-end:none"
         d="m 21.962385,8.2485033 0,7.8064747 -12.8171699,0 0,9.040713 c 17.7499999,2 16.6335369,-7.455288 31.3835369,-0.955288 L 21.962385,8.2485033 Z"
         id="path8645-9-5"
         sodipodi:nodetypes="cccccc"
         inkscape:connector-curvature="0" />
      <path
         sodipodi:nodetypes="cccccccc"
         id="path8658-2-7"
         d="m 9.537702,16.561892 0,14.98444 12.985367,0 0,7.395166 17.478014,-14.795691 -17.493975,-14.7804004 0,7.2013824 -12.969406,-0.0049 z"
         style="color:#000000;display:inline;overflow:visible;visibility:visible;opacity:0.48128339;fill:none;fill-opacity:1;fill-rule:evenodd;stroke:#ffffff;stroke-width:1.00000036;stroke-linecap:butt;stroke-linejoin:miter;stroke-miterlimit:10;stroke-dasharray:none;stroke-dashoffset:0;stroke-opacity:1;marker:none;marker-start:none;marker-mid:none;marker-end:none"
         inkscape:connector-curvature="0" />
    </g>
    <g
       id="layer1-37-7-4-0"
       inkscape:label="Layer 1"
       transform="matrix(1.3945476,0.80573514,-0.80573514,1.3945476,495.23879,479.1012)">
      <ellipse
         style="color:#000000;display:inline;overflow:visible;visibility:visible;opacity:0.29946522;fill:url(#radialGradient8668-0-8-4);fill-opacity:1;fill-rule:evenodd;stroke:none;stroke-width:1;stroke-linecap:butt;stroke-linejoin:miter;stroke-miterlimit:10;stroke-dasharray:none;stroke-dashoffset:0;stroke-opacity:1;marker:none;marker-start:none;marker-mid:none;marker-end:none"
         id="path8660-9-9-8"
         transform="matrix(1.271186,0,0,1.271186,-8.119376,-15.10179)"
         cx="24.837126"
         cy="36.421127"
         rx="15.644737"
         ry="8.3968935" />
      <path
         style="color:#000000;display:inline;overflow:visible;visibility:visible;opacity:1;fill:url(#radialGradient2597-7-1-4);fill-opacity:1;fill-rule:evenodd;stroke:#3a7304;stroke-width:1.00000036;stroke-linecap:round;stroke-linejoin:round;stroke-miterlimit:10;stroke-dasharray:none;stroke-dashoffset:0;stroke-opacity:1;marker:none;marker-start:none;marker-mid:none;marker-end:none"
         d="m 8.5541875,15.517348 0,16.99442 12.9838125,0 0,8.545038 L 41.497835,24.150365 21.41919,7.1251168 l 0,8.3975352 -12.8650025,-0.0053 z"
         id="path8643-3-2-1"
         sodipodi:nodetypes="cccccccc"
         inkscape:connector-curvature="0" />
      <path
         style="color:#000000;display:inline;overflow:visible;visibility:visible;opacity:0.5080214;fill:url(#radialGradient8656-6-9-3);fill-opacity:1;fill-rule:evenodd;stroke:none;stroke-width:1;stroke-linecap:round;stroke-linejoin:round;stroke-miterlimit:10;stroke-dasharray:none;stroke-dashoffset:0;stroke-opacity:1;marker:none;marker-start:none;marker-mid:none;marker-end:none"
         d="m 21.962385,8.2485033 0,7.8064747 -12.8171699,0 0,9.040713 c 17.7499999,2 16.6335369,-7.455288 31.3835369,-0.955288 L 21.962385,8.2485033 Z"
         id="path8645-9-5-9"
         sodipodi:nodetypes="cccccc"
         inkscape:connector-curvature="0" />
      <path
         sodipodi:nodetypes="cccccccc"
         id="path8658-2-7-9"
         d="m 9.537702,16.561892 0,14.98444 12.985367,0 0,7.395166 17.478014,-14.795691 -17.493975,-14.7804004 0,7.2013824 -12.969406,-0.0049 z"
         style="color:#000000;display:inline;overflow:visible;visibility:visible;opacity:0.48128339;fill:none;fill-opacity:1;fill-rule:evenodd;stroke:#ffffff;stroke-width:1.00000036;stroke-linecap:butt;stroke-linejoin:miter;stroke-miterlimit:10;stroke-dasharray:none;stroke-dashoffset:0;stroke-opacity:1;marker:none;marker-start:none;marker-mid:none;marker-end:none"
         inkscape:connector-curvature="0" />
    </g>
  </g>
</svg>
