<?xml version="1.0" encoding="UTF-8" standalone="no"?>
<!-- Created with Inkscape (http://www.inkscape.org/) -->

<svg
   xmlns:dc="http://purl.org/dc/elements/1.1/"
   xmlns:cc="http://creativecommons.org/ns#"
   xmlns:rdf="http://www.w3.org/1999/02/22-rdf-syntax-ns#"
   xmlns:svg="http://www.w3.org/2000/svg"
   xmlns="http://www.w3.org/2000/svg"
   xmlns:sodipodi="http://sodipodi.sourceforge.net/DTD/sodipodi-0.dtd"
   xmlns:inkscape="http://www.inkscape.org/namespaces/inkscape"
   width="197.03477mm"
   height="43.704132mm"
   viewBox="0 0 698.15471 154.85716"
   id="svg75316"
   version="1.1"
   inkscape:version="0.91 r13725"
   sodipodi:docname="snapshot.svg">
  <defs
     id="defs75318">
    <marker
       inkscape:isstock="true"
       style="overflow:visible"
       id="marker80844"
       refX="0"
       refY="0"
       orient="auto"
       inkscape:stockid="Arrow2Lend">
      <path
         transform="matrix(-1.1,0,0,-1.1,-1.1,0)"
         d="M 8.7185878,4.0337352 -2.2072895,0.01601326 8.7185884,-4.0017078 c -1.7454984,2.3720609 -1.7354408,5.6174519 -6e-7,8.035443 z"
         style="fill:#ececec;fill-opacity:1;fill-rule:evenodd;stroke:#ececec;stroke-width:0.625;stroke-linejoin:round;stroke-opacity:1"
         id="path80846"
         inkscape:connector-curvature="0" />
    </marker>
    <marker
       inkscape:isstock="true"
       style="overflow:visible"
       id="marker80792"
       refX="0"
       refY="0"
       orient="auto"
       inkscape:stockid="Arrow2Lend">
      <path
         transform="matrix(-1.1,0,0,-1.1,-1.1,0)"
         d="M 8.7185878,4.0337352 -2.2072895,0.01601326 8.7185884,-4.0017078 c -1.7454984,2.3720609 -1.7354408,5.6174519 -6e-7,8.035443 z"
         style="fill:#ececec;fill-opacity:1;fill-rule:evenodd;stroke:#ececec;stroke-width:0.625;stroke-linejoin:round;stroke-opacity:1"
         id="path80794"
         inkscape:connector-curvature="0" />
    </marker>
    <marker
       inkscape:isstock="true"
       style="overflow:visible"
       id="marker80746"
       refX="0"
       refY="0"
       orient="auto"
       inkscape:stockid="Arrow2Lend">
      <path
         transform="matrix(-1.1,0,0,-1.1,-1.1,0)"
         d="M 8.7185878,4.0337352 -2.2072895,0.01601326 8.7185884,-4.0017078 c -1.7454984,2.3720609 -1.7354408,5.6174519 -6e-7,8.035443 z"
         style="fill:#ececec;fill-opacity:1;fill-rule:evenodd;stroke:#ececec;stroke-width:0.625;stroke-linejoin:round;stroke-opacity:1"
         id="path80748"
         inkscape:connector-curvature="0" />
    </marker>
    <marker
       inkscape:isstock="true"
       style="overflow:visible"
       id="marker80706"
       refX="0"
       refY="0"
       orient="auto"
       inkscape:stockid="Arrow2Lend">
      <path
         transform="matrix(-1.1,0,0,-1.1,-1.1,0)"
         d="M 8.7185878,4.0337352 -2.2072895,0.01601326 8.7185884,-4.0017078 c -1.7454984,2.3720609 -1.7354408,5.6174519 -6e-7,8.035443 z"
         style="fill:#ececec;fill-opacity:1;fill-rule:evenodd;stroke:#ececec;stroke-width:0.625;stroke-linejoin:round;stroke-opacity:1"
         id="path80708"
         inkscape:connector-curvature="0" />
    </marker>
    <marker
       inkscape:isstock="true"
       style="overflow:visible"
       id="marker80672"
       refX="0"
       refY="0"
       orient="auto"
       inkscape:stockid="Arrow2Lend">
      <path
         transform="matrix(-1.1,0,0,-1.1,-1.1,0)"
         d="M 8.7185878,4.0337352 -2.2072895,0.01601326 8.7185884,-4.0017078 c -1.7454984,2.3720609 -1.7354408,5.6174519 -6e-7,8.035443 z"
         style="fill:#ececec;fill-opacity:1;fill-rule:evenodd;stroke:#ececec;stroke-width:0.625;stroke-linejoin:round;stroke-opacity:1"
         id="path80674"
         inkscape:connector-curvature="0" />
    </marker>
    <marker
       inkscape:isstock="true"
       style="overflow:visible"
       id="marker80644"
       refX="0"
       refY="0"
       orient="auto"
       inkscape:stockid="Arrow2Lend">
      <path
         transform="matrix(-1.1,0,0,-1.1,-1.1,0)"
         d="M 8.7185878,4.0337352 -2.2072895,0.01601326 8.7185884,-4.0017078 c -1.7454984,2.3720609 -1.7354408,5.6174519 -6e-7,8.035443 z"
         style="fill:#ececec;fill-opacity:1;fill-rule:evenodd;stroke:#ececec;stroke-width:0.625;stroke-linejoin:round;stroke-opacity:1"
         id="path80646"
         inkscape:connector-curvature="0" />
    </marker>
    <marker
       inkscape:isstock="true"
       style="overflow:visible"
       id="marker80622"
       refX="0"
       refY="0"
       orient="auto"
       inkscape:stockid="Arrow2Lend">
      <path
         transform="matrix(-1.1,0,0,-1.1,-1.1,0)"
         d="M 8.7185878,4.0337352 -2.2072895,0.01601326 8.7185884,-4.0017078 c -1.7454984,2.3720609 -1.7354408,5.6174519 -6e-7,8.035443 z"
         style="fill:#ececec;fill-opacity:1;fill-rule:evenodd;stroke:#ececec;stroke-width:0.625;stroke-linejoin:round;stroke-opacity:1"
         id="path80624"
         inkscape:connector-curvature="0" />
    </marker>
    <marker
       inkscape:stockid="Arrow2Lend"
       orient="auto"
       refY="0"
       refX="0"
       id="Arrow2Lend"
       style="overflow:visible"
       inkscape:isstock="true"
       inkscape:collect="always">
      <path
         id="path80367"
         style="fill:#ececec;fill-opacity:1;fill-rule:evenodd;stroke:#ececec;stroke-width:0.625;stroke-linejoin:round;stroke-opacity:1"
         d="M 8.7185878,4.0337352 -2.2072895,0.01601326 8.7185884,-4.0017078 c -1.7454984,2.3720609 -1.7354408,5.6174519 -6e-7,8.035443 z"
         transform="matrix(-1.1,0,0,-1.1,-1.1,0)"
         inkscape:connector-curvature="0" />
    </marker>
  </defs>
  <sodipodi:namedview
     id="base"
     pagecolor="#ffffff"
     bordercolor="#666666"
     borderopacity="1.0"
     inkscape:pageopacity="0.0"
     inkscape:pageshadow="2"
     inkscape:zoom="2.8"
     inkscape:cx="367.57555"
     inkscape:cy="122.30965"
     inkscape:document-units="px"
     inkscape:current-layer="snapshot"
     showgrid="false"
     inkscape:window-width="1920"
     inkscape:window-height="1032"
     inkscape:window-x="800"
     inkscape:window-y="23"
     inkscape:window-maximized="1"
     fit-margin-top="0"
     fit-margin-left="0"
     fit-margin-right="0"
     fit-margin-bottom="0" />
  <metadata
     id="metadata75321">
    <rdf:RDF>
      <cc:Work
         rdf:about="">
        <dc:format>image/svg+xml</dc:format>
        <dc:type
           rdf:resource="http://purl.org/dc/dcmitype/StillImage" />
        <dc:title></dc:title>
      </cc:Work>
    </rdf:RDF>
  </metadata>
  <g
     inkscape:label="Calque 1"
     inkscape:groupmode="layer"
     id="layer1"
     transform="translate(-9.643816,-200.64792)">
    <rect
       style="opacity:1;fill:#b3b3b3;fill-opacity:1;stroke:#000000;stroke-width:1.28067696;stroke-miterlimit:4;stroke-dasharray:none;stroke-opacity:1"
       id="rect75411"
       width="372.3111"
       height="63.576466"
       x="207.49748"
       y="201.28825"
       rx="0.42341039"
       ry="0.42341039" />
    <rect
       style="opacity:1;fill:#ffffff;fill-opacity:1;stroke:#000000;stroke-width:0.84682119;stroke-miterlimit:4;stroke-dasharray:none;stroke-opacity:1"
       id="rect75324"
       width="33.872841"
       height="41.131329"
       x="224.66118"
       y="212.70386"
       rx="0.42341059"
       ry="0.42341059" />
    <text
       xml:space="preserve"
       style="font-style:normal;font-weight:normal;font-size:25.61354065px;line-height:125%;font-family:Sans;letter-spacing:0px;word-spacing:0px;fill:#000000;fill-opacity:1;stroke:none;stroke-width:1px;stroke-linecap:butt;stroke-linejoin:miter;stroke-opacity:1"
       x="233.22441"
       y="242.60573"
       id="text75326"
       sodipodi:linespacing="125%"><tspan
         sodipodi:role="line"
         id="tspan75328"
         x="233.22441"
         y="242.60573">1</tspan></text>
    <rect
       style="opacity:1;fill:#ffffff;fill-opacity:1;stroke:#000000;stroke-width:0.84682119;stroke-miterlimit:4;stroke-dasharray:none;stroke-opacity:1"
       id="rect75324-7"
       width="33.872841"
       height="41.131329"
       x="268.18344"
       y="212.70386"
       rx="0.42341059"
       ry="0.42341059" />
    <text
       xml:space="preserve"
       style="font-style:normal;font-weight:normal;font-size:25.61354065px;line-height:125%;font-family:Sans;letter-spacing:0px;word-spacing:0px;fill:#000000;fill-opacity:1;stroke:none;stroke-width:1px;stroke-linecap:butt;stroke-linejoin:miter;stroke-opacity:1"
       x="276.74667"
       y="242.60573"
       id="text75326-8"
       sodipodi:linespacing="125%"><tspan
         sodipodi:role="line"
         id="tspan75328-2"
         x="276.74667"
         y="242.60573">0</tspan></text>
    <rect
       style="opacity:1;fill:#ffffff;fill-opacity:1;stroke:#000000;stroke-width:0.84682119;stroke-miterlimit:4;stroke-dasharray:none;stroke-opacity:1"
       id="rect75324-5"
       width="33.872841"
       height="41.131329"
       x="311.5217"
       y="212.70386"
       rx="0.42341059"
       ry="0.42341059" />
    <text
       xml:space="preserve"
       style="font-style:normal;font-weight:normal;font-size:25.61354065px;line-height:125%;font-family:Sans;letter-spacing:0px;word-spacing:0px;fill:#000000;fill-opacity:1;stroke:none;stroke-width:1px;stroke-linecap:butt;stroke-linejoin:miter;stroke-opacity:1"
       x="320.08496"
       y="242.60573"
       id="text75326-3"
       sodipodi:linespacing="125%"><tspan
         sodipodi:role="line"
         id="tspan75328-4"
         x="320.08496"
         y="242.60573">1</tspan></text>
    <rect
       style="opacity:1;fill:#ffffff;fill-opacity:1;stroke:#000000;stroke-width:0.84682119;stroke-miterlimit:4;stroke-dasharray:none;stroke-opacity:1"
       id="rect75324-9"
       width="33.872841"
       height="41.131329"
       x="353.56625"
       y="212.70386"
       rx="0.42341059"
       ry="0.42341059" />
    <text
       xml:space="preserve"
       style="font-style:normal;font-weight:normal;font-size:25.61354065px;line-height:125%;font-family:Sans;letter-spacing:0px;word-spacing:0px;fill:#000000;fill-opacity:1;stroke:none;stroke-width:1px;stroke-linecap:butt;stroke-linejoin:miter;stroke-opacity:1"
       x="362.12952"
       y="242.60573"
       id="text75326-0"
       sodipodi:linespacing="125%"><tspan
         sodipodi:role="line"
         id="tspan75328-20"
         x="362.12952"
         y="242.60573">0</tspan></text>
    <rect
       style="opacity:1;fill:#ffffff;fill-opacity:1;stroke:#000000;stroke-width:0.84682119;stroke-miterlimit:4;stroke-dasharray:none;stroke-opacity:1"
       id="rect75324-1"
       width="33.872841"
       height="41.131329"
       x="395.93427"
       y="212.70386"
       rx="0.42341059"
       ry="0.42341059" />
    <text
       xml:space="preserve"
       style="font-style:normal;font-weight:normal;font-size:25.61354065px;line-height:125%;font-family:Sans;letter-spacing:0px;word-spacing:0px;fill:#000000;fill-opacity:1;stroke:none;stroke-width:1px;stroke-linecap:butt;stroke-linejoin:miter;stroke-opacity:1"
       x="404.49753"
       y="242.60573"
       id="text75326-9"
       sodipodi:linespacing="125%"><tspan
         sodipodi:role="line"
         id="tspan75328-6"
         x="404.49753"
         y="242.60573">1</tspan></text>
    <rect
       style="opacity:1;fill:#ffffff;fill-opacity:1;stroke:#000000;stroke-width:0.84682119;stroke-miterlimit:4;stroke-dasharray:none;stroke-opacity:1"
       id="rect75324-2"
       width="33.872841"
       height="41.131329"
       x="438.62567"
       y="212.70386"
       rx="0.42341059"
       ry="0.42341059" />
    <text
       xml:space="preserve"
       style="font-style:normal;font-weight:normal;font-size:25.61354065px;line-height:125%;font-family:Sans;letter-spacing:0px;word-spacing:0px;fill:#000000;fill-opacity:1;stroke:none;stroke-width:1px;stroke-linecap:butt;stroke-linejoin:miter;stroke-opacity:1"
       x="447.18893"
       y="242.60573"
       id="text75326-1"
       sodipodi:linespacing="125%"><tspan
         sodipodi:role="line"
         id="tspan75328-207"
         x="447.18893"
         y="242.60573">1</tspan></text>
    <rect
       style="opacity:1;fill:#ffffff;fill-opacity:1;stroke:#000000;stroke-width:0.84682119;stroke-miterlimit:4;stroke-dasharray:none;stroke-opacity:1"
       id="rect75324-3"
       width="33.872841"
       height="41.131329"
       x="482.28735"
       y="212.70386"
       rx="0.42341059"
       ry="0.42341059" />
    <text
       xml:space="preserve"
       style="font-style:normal;font-weight:normal;font-size:25.61354065px;line-height:125%;font-family:Sans;letter-spacing:0px;word-spacing:0px;fill:#000000;fill-opacity:1;stroke:none;stroke-width:1px;stroke-linecap:butt;stroke-linejoin:miter;stroke-opacity:1"
       x="490.85062"
       y="242.60573"
       id="text75326-11"
       sodipodi:linespacing="125%"><tspan
         sodipodi:role="line"
         id="tspan75328-9"
         x="490.85062"
         y="242.60573">0</tspan></text>
    <rect
       style="opacity:1;fill:#ffffff;fill-opacity:1;stroke:#000000;stroke-width:0.84682119;stroke-miterlimit:4;stroke-dasharray:none;stroke-opacity:1"
       id="rect75324-0"
       width="33.872841"
       height="41.131329"
       x="524.33191"
       y="212.70386"
       rx="0.42341059"
       ry="0.42341059" />
    <text
       xml:space="preserve"
       style="font-style:normal;font-weight:normal;font-size:25.61354065px;line-height:125%;font-family:Sans;letter-spacing:0px;word-spacing:0px;fill:#000000;fill-opacity:1;stroke:none;stroke-width:1px;stroke-linecap:butt;stroke-linejoin:miter;stroke-opacity:1"
       x="532.89514"
       y="242.60573"
       id="bit_disappear"
       sodipodi:linespacing="125%"><tspan
         sodipodi:role="line"
         id="tspan75328-67"
         x="532.89514"
         y="242.60573">1</tspan></text>
    <text
       xml:space="preserve"
       style="font-style:normal;font-weight:normal;font-size:40px;line-height:125%;font-family:Sans;letter-spacing:0px;word-spacing:0px;fill:#cccccc;fill-opacity:1;stroke:none;stroke-width:1px;stroke-linecap:butt;stroke-linejoin:miter;stroke-opacity:1;"
       x="9.4680347"
       y="238.07648"
       id="orig"
       sodipodi:linespacing="125%"><tspan
         sodipodi:role="line"
         id="tspan75415"
         x="9.4680347"
         y="238.07648"
         style="font-size:22.5px;fill:#cccccc;">Volume d'origine</tspan></text>
    <g
       id="snapshot">
      <text
         sodipodi:linespacing="125%"
         id="text75413-4"
         y="333.56949"
         x="9.4680347"
         style="font-style:normal;font-weight:normal;font-size:40px;line-height:125%;font-family:Sans;letter-spacing:0px;word-spacing:0px;fill:#cccccc;fill-opacity:1;stroke:none;stroke-width:1px;stroke-linecap:butt;stroke-linejoin:miter;stroke-opacity:1;"
         xml:space="preserve"><tspan
           style="font-size:22.5px;fill:#cccccc;"
           y="333.56949"
           x="9.4680347"
           id="tspan75415-8"
           sodipodi:role="line">Volume cliché</tspan></text>
      <rect
         ry="0.42341039"
         rx="0.42341039"
         y="291.28827"
         x="208.13014"
         height="63.576466"
         width="372.3111"
         id="rect75411-2"
         style="opacity:1;fill:#b3b3b3;fill-opacity:1;stroke:#000000;stroke-width:1.28067696;stroke-miterlimit:4;stroke-dasharray:none;stroke-opacity:1" />
      <rect
         ry="0.42341059"
         rx="0.42341059"
         y="302.70386"
         x="225.29384"
         height="41.131329"
         width="33.872841"
         id="rect75324-6"
         style="opacity:1;fill:#ffffff;fill-opacity:1;stroke:#000000;stroke-width:0.847;stroke-miterlimit:4;stroke-dasharray:0.847, 1.69400001;stroke-dashoffset:0;stroke-opacity:1" />
      <rect
         ry="0.42341059"
         rx="0.42341059"
         y="302.70386"
         x="268.81613"
         height="41.131329"
         width="33.872841"
         id="rect75324-7-6"
         style="opacity:1;fill:#ffffff;fill-opacity:1;stroke:#000000;stroke-width:0.847;stroke-miterlimit:4;stroke-dasharray:0.847, 1.69400001;stroke-dashoffset:0;stroke-opacity:1" />
      <rect
         ry="0.42341059"
         rx="0.42341059"
         y="302.70386"
         x="312.15439"
         height="41.131329"
         width="33.872841"
         id="rect75324-5-9"
         style="opacity:1;fill:#ffffff;fill-opacity:1;stroke:#000000;stroke-width:0.847;stroke-miterlimit:4;stroke-dasharray:0.847, 1.69400001;stroke-dashoffset:0;stroke-opacity:1" />
      <rect
         ry="0.42341059"
         rx="0.42341059"
         y="302.70386"
         x="354.19894"
         height="41.131329"
         width="33.872841"
         id="rect75324-9-7"
         style="opacity:1;fill:#ffffff;fill-opacity:1;stroke:#000000;stroke-width:0.847;stroke-miterlimit:4;stroke-dasharray:0.847, 1.69400001;stroke-dashoffset:0;stroke-opacity:1" />
      <rect
         ry="0.42341059"
         rx="0.42341059"
         y="302.70386"
         x="396.56693"
         height="41.131329"
         width="33.872841"
         id="rect75324-1-0"
         style="opacity:1;fill:#ffffff;fill-opacity:1;stroke:#000000;stroke-width:0.847;stroke-miterlimit:4;stroke-dasharray:0.847, 1.69400001;stroke-dashoffset:0;stroke-opacity:1" />
      <rect
         ry="0.42341059"
         rx="0.42341059"
         y="302.70386"
         x="439.25833"
         height="41.131329"
         width="33.872841"
         id="rect75324-2-7"
         style="opacity:1;fill:#ffffff;fill-opacity:1;stroke:#000000;stroke-width:0.847;stroke-miterlimit:4;stroke-dasharray:0.847, 1.69400001;stroke-dashoffset:0;stroke-opacity:1" />
      <rect
         ry="0.42341059"
         rx="0.42341059"
         y="302.70386"
         x="482.92001"
         height="41.131329"
         width="33.872841"
         id="rect75324-3-6"
         style="opacity:1;fill:#ffffff;fill-opacity:1;stroke:#000000;stroke-width:0.847;stroke-miterlimit:4;stroke-dasharray:0.847, 1.69400001;stroke-dashoffset:0;stroke-opacity:1" />
      <rect
         ry="0.42341059"
         rx="0.42341059"
         y="302.70386"
         x="524.9646"
         height="41.131329"
         width="33.872841"
         id="field_disappear"
         style="opacity:1;fill:#ffffff;fill-opacity:1;stroke:#000000;stroke-width:0.847;stroke-miterlimit:4;stroke-dasharray:0.847, 1.69400001;stroke-dashoffset:0;stroke-opacity:1" />
      <path
         inkscape:connection-end="#rect75324"
         inkscape:connection-start="#rect75324-6"
         inkscape:connector-curvature="3"
         inkscape:connector-type="polyline"
         id="path79522"
         d="m 242.08569,302.70386 -0.34352,-48.86867"
         style="fill:#ececec;fill-rule:evenodd;stroke:#ececec;stroke-width:1px;stroke-linecap:butt;stroke-linejoin:miter;stroke-opacity:1;marker-end:url(#marker80792)" />
      <path
         inkscape:connection-end="#rect75324-7"
         inkscape:connection-start="#rect75324-7-6"
         inkscape:connector-curvature="3"
         inkscape:connector-type="polyline"
         id="path79524"
         d="m 285.60798,302.70386 -0.34354,-48.86867"
         style="fill:#ececec;fill-rule:evenodd;stroke:#ececec;stroke-width:1px;stroke-linecap:butt;stroke-linejoin:miter;stroke-opacity:1;marker-end:url(#marker80746)" />
      <path
         inkscape:connection-end="#rect75324-5"
         inkscape:connection-start="#rect75324-5-9"
         inkscape:connector-curvature="3"
         inkscape:connector-type="polyline"
         id="path79526"
         d="m 328.94623,302.70386 -0.34354,-48.86867"
         style="fill:#ececec;fill-rule:evenodd;stroke:#ececec;stroke-width:1px;stroke-linecap:butt;stroke-linejoin:miter;stroke-opacity:1;marker-end:url(#marker80706)" />
      <path
         inkscape:connection-end="#rect75324-9"
         inkscape:connection-start="#rect75324-9-7"
         inkscape:connector-curvature="3"
         inkscape:connector-type="polyline"
         id="path79528"
         d="m 370.99079,302.70386 -0.34354,-48.86867"
         style="fill:#ececec;fill-rule:evenodd;stroke:#ececec;stroke-width:1px;stroke-linecap:butt;stroke-linejoin:miter;stroke-opacity:1;marker-end:url(#marker80672)" />
      <path
         inkscape:connection-end="#rect75324-1"
         inkscape:connection-start="#rect75324-1-0"
         inkscape:connector-curvature="3"
         inkscape:connector-type="polyline"
         id="path79530"
         d="m 413.35878,302.70386 -0.34353,-48.86867"
         style="fill:#ececec;fill-rule:evenodd;stroke:#ececec;stroke-width:1px;stroke-linecap:butt;stroke-linejoin:miter;stroke-opacity:1;marker-end:url(#marker80644)" />
      <path
         inkscape:connection-end="#rect75324-3"
         inkscape:connection-start="#rect75324-3-6"
         inkscape:connector-curvature="3"
         inkscape:connector-type="polyline"
         id="path79536"
         d="m 499.71187,302.70386 -0.34353,-48.86867"
         style="fill:#ececec;fill-rule:evenodd;stroke:#ececec;stroke-width:1px;stroke-linecap:butt;stroke-linejoin:miter;stroke-opacity:1;marker-end:url(#Arrow2Lend)" />
      <path
         inkscape:connection-end="#rect75324-0"
         inkscape:connection-start="#rect75324-0-2"
         inkscape:connector-curvature="3"
         inkscape:connector-type="polyline"
         id="arrow_disappear"
         d="m 541.75645,302.70386 -0.34354,-48.86867"
         style="fill:#ececec;fill-rule:evenodd;stroke:#ececec;stroke-width:1px;stroke-linecap:butt;stroke-linejoin:miter;stroke-opacity:1;marker-end:url(#marker80844)" />
      <path
         inkscape:connection-end="#rect75324-2"
         inkscape:connection-start="#rect75324-2-7"
         inkscape:connector-curvature="3"
         inkscape:connector-type="polyline"
         id="path79540"
         d="m 456.05018,302.70386 -0.34352,-48.86867"
         style="fill:#ececec;fill-rule:evenodd;stroke:#ececec;stroke-width:1px;stroke-linecap:butt;stroke-linejoin:miter;stroke-opacity:1;marker-end:url(#marker80622)" />
    </g>
    <flowRoot
       xml:space="preserve"
       id="flowRoot4359"
       style="font-style:normal;font-weight:normal;font-size:40px;line-height:125%;font-family:Sans;letter-spacing:0px;word-spacing:0px;fill:#000000;fill-opacity:1;stroke:none;stroke-width:1px;stroke-linecap:butt;stroke-linejoin:miter;stroke-opacity:1"><flowRegion
         id="flowRegion4361"><rect
           id="rect4363"
           width="40"
           height="42.857143"
           x="589.64288"
           y="302.71936" /></flowRegion><flowPara
         id="flowPara4365">009%ietie</flowPara></flowRoot>    <text
       xml:space="preserve"
       style="font-style:normal;font-weight:normal;font-size:40px;line-height:125%;font-family:Sans;letter-spacing:0px;word-spacing:0px;fill:#000000;fill-opacity:1;stroke:none;stroke-width:1px;stroke-linecap:butt;stroke-linejoin:miter;stroke-opacity:1"
       x="592.14288"
       y="339.86221"
       id="percent_0"
       sodipodi:linespacing="125%"><tspan
         sodipodi:role="line"
         id="tspan4369"
         x="592.14288"
         y="339.86221"
         style="fill:#d40000">0%</tspan></text>
    <text
       xml:space="preserve"
       style="font-style:normal;font-weight:normal;font-size:40px;line-height:125%;font-family:Sans;letter-spacing:0px;word-spacing:0px;fill:#000000;fill-opacity:1;stroke:none;stroke-width:1px;stroke-linecap:butt;stroke-linejoin:miter;stroke-opacity:1"
       x="582.85712"
       y="339.50507"
       id="percent_125"
       sodipodi:linespacing="125%"><tspan
         sodipodi:role="line"
         id="tspan4373"
         x="582.85712"
         y="339.50507"
         style="fill:#d40000">12,5%</tspan></text>
    <text
       xml:space="preserve"
       style="font-style:normal;font-weight:normal;font-size:25.61354065px;line-height:125%;font-family:Sans;letter-spacing:0px;word-spacing:0px;fill:#000000;fill-opacity:1;stroke:none;stroke-width:1px;stroke-linecap:butt;stroke-linejoin:miter;stroke-opacity:1"
       x="532.92963"
       y="242.40018"
       id="bit_appear"
       sodipodi:linespacing="125%"><tspan
         sodipodi:role="line"
         id="tspan75328-20-6"
         x="532.92963"
         y="242.40018"
         style="fill:#d40000">0</tspan></text>
    <g
       id="field_appear"
       transform="translate(67.560297,-58.440914)">
      <rect
         ry="0.42341059"
         rx="0.42341059"
         y="361.05524"
         x="457.3302"
         height="41.131329"
         width="33.872841"
         id="rect75324-2-9"
         style="opacity:1;fill:#ffffff;fill-opacity:1;stroke:#000000;stroke-width:0.84682119;stroke-miterlimit:4;stroke-dasharray:none;stroke-opacity:1" />
      <text
         sodipodi:linespacing="125%"
         id="text75326-1-1"
         y="390.95712"
         x="465.89346"
         style="font-style:normal;font-weight:normal;font-size:25.61354065px;line-height:125%;font-family:Sans;letter-spacing:0px;word-spacing:0px;fill:#000000;fill-opacity:1;stroke:none;stroke-width:1px;stroke-linecap:butt;stroke-linejoin:miter;stroke-opacity:1"
         xml:space="preserve"><tspan
           y="390.95712"
           x="465.89346"
           id="tspan75328-207-2"
           sodipodi:role="line">1</tspan></text>
    </g>
  </g>
</svg>
